
R version 3.4.1 (2017-06-30) -- "Single Candle"
Copyright (C) 2017 The R Foundation for Statistical Computing
Platform: x86_64-pc-linux-gnu (64-bit)

R is free software and comes with ABSOLUTELY NO WARRANTY.
You are welcome to redistribute it under certain conditions.
Type 'license()' or 'licence()' for distribution details.

R is a collaborative project with many contributors.
Type 'contributors()' for more information and
'citation()' on how to cite R or R packages in publications.

Type 'demo()' for some demos, 'help()' for on-line help, or
'help.start()' for an HTML browser interface to help.
Type 'q()' to quit R.

> #!/usr/bin/env Rscript
> args = commandArgs(trailingOnly=TRUE)
> print(args)
[1] "ex_num=3" "mod=1"    "reps=2"   "id=9"    
> for(i in 1:length(args)){
+   eval(parse(text=args[[i]]))
+ }
> #params: ex_num, mod, reps, id
> 
> #install.packages("backports", lib="/data/volz", repos = "http://cran.us.r-project.org")
> library(backports, lib.loc = "/data/volz")
> #install.packages("BBmisc", lib="/data/volz", repos = "http://cran.us.r-project.org")
> library(BBmisc, lib.loc = "/data/volz")

Attaching package: 'BBmisc'

The following object is masked from 'package:backports':

    isFALSE

> 
> lido=TRUE
> setwd("/home/volz/sc2model")
> source("loadData.R")
> #models = c("randomForest.R")
> #models = c("classification_n.R")
> models=c("ann_model.R", "classification_n.R", "randomForest.R", "dnn.R", "knn.R")
> #ticks = seq(224, 152671, 224)
> if(ex_num==1){
+   timeWindow= 0
+   ticks= c(NA)
+   feature_select="ds"
+   dataAgg=NA
+   both=FALSE
+ }else if(ex_num==2){
+   timeWindow= 0
+   ticks= c(NA)
+   feature_select="expert"
+   dataAgg=NA
+   both=FALSE
+ }else if(ex_num==3){
+   timeWindow= 0
+   ticks= c(NA)
+   feature_select="ds"
+   dataAgg=NA
+   both=TRUE
+ }else if(ex_num==4){
+   timeWindow= 1
+   ticks = seq(6720, 26880, 224)
+   feature_select="ds"
+   dataAgg="none"
+   both=FALSE
+ }else if(ex_num==5){
+   timeWindow= 1
+   ticks = seq(6720, 26880, 224)
+   feature_select="ds"
+   dataAgg="abs"
+   both=FALSE
+ }else if(ex_num==6){
+   timeWindow= 1
+   ticks = seq(6720, 26880, 224)
+   feature_select="ds"
+   dataAgg="parallel"
+   both=FALSE
+ }else if(ex_num==7){
+   timeWindow= 5
+   ticks = seq(6720, 26880, 224)
+   feature_select="ds"
+   dataAgg="none"
+   both=FALSE
+ }else if(ex_num==8){
+   timeWindow= 5
+   ticks = seq(6720, 26880, 224)
+   feature_select="ds"
+   dataAgg="abs"
+   both=FALSE
+ }else if(ex_num==9){
+   timeWindow= 5
+   ticks = seq(6720, 26880, 224)
+   feature_select="ds"
+   dataAgg="parallel"
+   both=FALSE
+ }else if(ex_num==10){
+   timeWindow= 0
+   ticks = seq(6720, 26880, 224)
+   feature_select="ds"
+   dataAgg=NA
+   both=FALSE
+ }else if(ex_num==11){
+   timeWindow= 5
+   ticks = seq(6720, 26880, 224)
+   feature_select="ds"
+   dataAgg="none"
+   both=TRUE
+ }else if(ex_num==12){
+   timeWindow= 0
+   ticks = c(NA)
+   feature_select="expert2"
+   dataAgg=NA
+   both=FALSE
+ }
> 
> print(mod)
[1] 1
> print(ex_num)
[1] 3
> print(reps)
[1] 2
> 
> #6720 bis 26880 #5-20 Minuten
> trainSplit = 0.9
> 
> allResults = data.frame(method=integer(), tick=integer(), features=character(), mean=double(),
+                         sd=double(), stringsAsFactors=FALSE)
> 
>   accs = numeric(length(ticks))
>   print(paste("sourcing", models[mod]))
[1] "sourcing ann_model.R"
>   source(models[mod])
trying URL 'http://cran.us.r-project.org/src/contrib/nnet_7.3-12.tar.gz'
Content type 'application/x-gzip' length 28521 bytes (27 KB)
==================================================
downloaded 27 KB

* installing *source* package 'nnet' ...
** package 'nnet' successfully unpacked and MD5 sums checked
** libs
gcc -std=gnu99 -I/sysdata/shared/sfw/R/3.4.1-gcc49-base/lib64/R/include -DNDEBUG   -I/usr/local/include   -fpic  -I/sysdata/shared/sfw/R/extralibs/include -I/usr/include/ncurses  -c nnet.c -o nnet.o
gcc -std=gnu99 -shared -L/sysdata/shared/sfw/R/extralibs/lib -L/usr/local/lib/openblas/0.2.17/lib64 -lopenblas -o nnet.so nnet.o
installing to /data/volz/nnet/libs
** R
** inst
** byte-compile and prepare package for lazy loading
** help
*** installing help indices
** building package indices
** testing if installed package can be loaded
* DONE (nnet)

The downloaded source packages are in
	'/scratch/volz-/RtmphERUg1/downloaded_packages'
>   for(t in 1:length(ticks)){
+     trained_models = list()
+     print(ticks[t])
+     acc = numeric(reps)
+     if(is.na(ticks[t])){
+       ticks_req = NA
+     }else{
+       ticks_req = seq(max(1, ticks[t]/224-timeWindow)*224, ticks[t], 224) 
+     }
+     print(ticks_req)
+     data = loadData(which="terran2", ticks=ticks_req, feature_select =feature_select,
+                     dataAgg=dataAgg, both=both)
+     if(ncol(data)==1){
+       next
+     }
+     print(summary(data))
+     res = data$result
+     ids = data$id
+     data = data[, !(names(data) %in% c("id", "result"))]
+     data = BBmisc::normalize(data, method = "range", range = c(0, 1))
+     #print(summary(data))
+     for(i in 1:reps){
+       games = unique(ids)
+       data_train_idx_g<- sample(1:length(games), round(trainSplit*length(games)))
+       data_test_idx_g <- setdiff(1:length(games),data_train_idx_g)
+       data_train_idx = which(ids %in% games[data_train_idx_g])
+       data_test_idx = which(ids %in% games[data_test_idx_g])
+       acc[i] = model(data[data_train_idx, ], res[data_train_idx], data[data_test_idx, ], res[data_test_idx] ) 
+     }
+     accs[t] = mean(acc)
+     allResults[nrow(allResults) + 1,] = c( mod, ticks[t], feature_select, mean(acc), sd(acc) )
+   }
[1] NA
[1] NA
       id         game_loop          score       idle_production_time
 Min.   :   1   Min.   :   692   Min.   :    0   Min.   :     0.94   
 1st Qu.:1224   1st Qu.:  9276   1st Qu.: 5926   1st Qu.:  1125.83   
 Median :2460   Median : 15349   Median :10665   Median :  3591.31   
 Mean   :2473   Mean   : 17222   Mean   :12852   Mean   :  6605.76   
 3rd Qu.:3729   3rd Qu.: 22135   3rd Qu.:17532   3rd Qu.:  7940.20   
 Max.   :4994   Max.   :152671   Max.   :99354   Max.   :166811.62   
 idle_worker_time  total_value_units total_value_structures killed_value_units
 Min.   :    0.0   Min.   :  600     Min.   :  400          Min.   :    0     
 1st Qu.:  234.1   1st Qu.: 3750     1st Qu.: 2625          1st Qu.: 1350     
 Median :  791.3   Median : 8875     Median : 4775          Median : 4275     
 Mean   : 2151.2   Mean   :11474     Mean   : 5345          Mean   : 7189     
 3rd Qu.: 2260.4   3rd Qu.:16125     3rd Qu.: 7150          3rd Qu.:10125     
 Max.   :86938.2   Max.   :84050     Max.   :40975          Max.   :78125     
 killed_value_structures collected_minerals collected_vespene
 Min.   :    0           Min.   :    0      Min.   :    0    
 1st Qu.:    0           1st Qu.: 5819      1st Qu.: 1492    
 Median :  200           Median :12955      Median : 3624    
 Mean   : 1035           Mean   :15545      Mean   : 4864    
 3rd Qu.: 1125           3rd Qu.:21820      3rd Qu.: 6685    
 Max.   :30725           Max.   :90145      Max.   :38504    
 collection_rate_minerals collection_rate_vespene spent_minerals 
 Min.   :   0             Min.   :   0.0          Min.   :    0  
 1st Qu.: 615             1st Qu.: 156.0          1st Qu.: 5150  
 Median :1007             Median : 335.0          Median :11850  
 Mean   :1114             Mean   : 374.4          Mean   :14291  
 3rd Qu.:1595             3rd Qu.: 582.0          3rd Qu.:20400  
 Max.   :5515             Max.   :2598.0          Max.   :83862  
 spent_vespene   food_used_army   food_used_economy killed_minerals_none
 Min.   :    0   Min.   :  0.00   Min.   :  0.00    Min.   :  0.000     
 1st Qu.: 1150   1st Qu.: 10.00   1st Qu.: 19.00    1st Qu.:  0.000     
 Median : 2800   Median : 25.00   Median : 30.00    Median :  0.000     
 Mean   : 3960   Mean   : 38.44   Mean   : 32.37    Mean   :  3.219     
 3rd Qu.: 5387   3rd Qu.: 60.00   3rd Qu.: 45.00    3rd Qu.:  0.000     
 Max.   :31587   Max.   :176.00   Max.   :200.00    Max.   :300.000     
 killed_minerals_army killed_minerals_economy killed_minerals_technology
 Min.   :    0        Min.   :    0           Min.   :    0.0           
 1st Qu.:  700        1st Qu.:  150           1st Qu.:    0.0           
 Median : 2600        Median :  775           Median :    0.0           
 Mean   : 4659        Mean   : 1465           Mean   :  354.3           
 3rd Qu.: 6600        3rd Qu.: 1975           3rd Qu.:  300.0           
 Max.   :53650        Max.   :19100           Max.   :18475.0           
 killed_vespene_army killed_vespene_economy killed_vespene_technology
 Min.   :    0       Min.   :   0.00        Min.   :   0.00          
 1st Qu.:  200       1st Qu.:   0.00        1st Qu.:   0.00          
 Median :  825       Median :   0.00        Median :   0.00          
 Mean   : 1627       Mean   :  22.44        Mean   :  90.67          
 3rd Qu.: 2125       3rd Qu.:   0.00        3rd Qu.:  75.00          
 Max.   :21700       Max.   :2550.00        Max.   :3500.00          
 lost_minerals_none lost_minerals_army lost_minerals_economy
 Min.   :-114.000   Min.   :    0      Min.   : -449        
 1st Qu.:   0.000   1st Qu.:  700      1st Qu.:  150        
 Median :   0.000   Median : 2634      Median :  750        
 Mean   :   2.492   Mean   : 4683      Mean   : 1454        
 3rd Qu.:   0.000   3rd Qu.: 6614      3rd Qu.: 1950        
 Max.   : 300.000   Max.   :54008      Max.   :19736        
 lost_minerals_technology lost_vespene_none  lost_vespene_army
 Min.   : -575.0          Min.   :-114.000   Min.   :    0    
 1st Qu.:    0.0          1st Qu.:   0.000   1st Qu.:  200    
 Median :    0.0          Median :   0.000   Median :  829    
 Mean   :  340.7          Mean   :   2.405   Mean   : 1645    
 3rd Qu.:  300.0          3rd Qu.:   0.000   3rd Qu.: 2150    
 Max.   :18302.0          Max.   : 300.000   Max.   :22209    
 lost_vespene_economy lost_vespene_technology friendly_fire_minerals_none
 Min.   :   0.00      Min.   :-303.00         Min.   :  0.000            
 1st Qu.:   0.00      1st Qu.:   0.00         1st Qu.:  0.000            
 Median :   0.00      Median :   0.00         Median :  0.000            
 Mean   :  27.25      Mean   :  85.15         Mean   :  0.875            
 3rd Qu.:   0.00      3rd Qu.:  75.00         3rd Qu.:  0.000            
 Max.   :2862.00      Max.   :3486.00         Max.   :250.000            
 friendly_fire_minerals_army friendly_fire_minerals_economy
 Min.   :   0.00             Min.   :   0.00               
 1st Qu.:   0.00             1st Qu.:   0.00               
 Median :   0.00             Median :   0.00               
 Mean   :  26.69             Mean   :  49.99               
 3rd Qu.:   0.00             3rd Qu.:   0.00               
 Max.   :2950.00             Max.   :4025.00               
 friendly_fire_minerals_technology friendly_fire_vespene_army
 Min.   :   0.00                   Min.   :   0.00           
 1st Qu.:   0.00                   1st Qu.:   0.00           
 Median :   0.00                   Median :   0.00           
 Mean   :  27.12                   Mean   :  14.36           
 3rd Qu.:   0.00                   3rd Qu.:   0.00           
 Max.   :1700.00                   Max.   :2650.00           
 friendly_fire_vespene_economy friendly_fire_vespene_technology
 Min.   :  0.0000              Min.   :   0.00                 
 1st Qu.:  0.0000              1st Qu.:   0.00                 
 Median :  0.0000              Median :   0.00                 
 Mean   :  0.0375              Mean   :  11.14                 
 3rd Qu.:  0.0000              3rd Qu.:   0.00                 
 Max.   :300.0000              Max.   :1600.00                 
 used_minerals_none used_minerals_army used_minerals_economy
 Min.   :-100.00    Min.   :    0      Min.   :    0        
 1st Qu.:   0.00    1st Qu.:  500      1st Qu.: 2400        
 Median :  50.00    Median : 1300      Median : 3800        
 Mean   :  56.96    Mean   : 2021      Mean   : 4222        
 3rd Qu.: 100.00    3rd Qu.: 3100      3rd Qu.: 5706        
 Max.   :3000.00    Max.   :10550      Max.   :23125        
 used_minerals_technology used_minerals_upgrade used_vespene_none
 Min.   : -200            Min.   :   0.0        Min.   :-100.00  
 1st Qu.:  750            1st Qu.: 100.0        1st Qu.:   0.00  
 Median : 1500            Median : 350.0        Median :   0.00  
 Mean   : 1726            Mean   : 586.2        Mean   :  26.17  
 3rd Qu.: 2375            3rd Qu.: 875.0        3rd Qu.:  50.00  
 Max.   :19175            Max.   :4625.0        Max.   : 400.00  
 used_vespene_army used_vespene_economy used_vespene_technology
 Min.   :   0.0    Min.   :   0.00      Min.   :-200.0         
 1st Qu.: 200.0    1st Qu.:   0.00      1st Qu.: 250.0         
 Median : 600.0    Median :   0.00      Median : 450.0         
 Mean   : 945.2    Mean   :  46.73      Mean   : 536.7         
 3rd Qu.:1281.2    3rd Qu.:   0.00      3rd Qu.: 725.0         
 Max.   :9725.0    Max.   :2700.00      Max.   :3275.0         
 total_used_minerals_none total_used_minerals_army total_used_minerals_economy
 Min.   :  0.00           Min.   :    0            Min.   : 1000              
 1st Qu.:  0.00           1st Qu.: 1550            1st Qu.: 3400              
 Median :  0.00           Median : 4525            Median : 5650              
 Mean   : 28.96           Mean   : 6464            Mean   : 5992              
 3rd Qu.: 50.00           3rd Qu.: 9381            3rd Qu.: 7900              
 Max.   :400.00           Max.   :54550            Max.   :33800              
 total_used_minerals_technology total_used_minerals_upgrade
 Min.   :    0                  Min.   :   0               
 1st Qu.:  875                  1st Qu.:   0               
 Median : 1750                  Median : 300               
 Mean   : 2035                  Mean   : 506               
 3rd Qu.: 2675                  3rd Qu.: 750               
 Max.   :21475                  Max.   :4625               
 total_used_vespene_army total_used_vespene_economy
 Min.   :    0           Min.   :   0.0            
 1st Qu.:  625           1st Qu.:   0.0            
 Median : 1650           Median :   0.0            
 Mean   : 2479           Mean   : 135.4            
 3rd Qu.: 3275           3rd Qu.:   0.0            
 Max.   :24975           Max.   :6300.0            
 total_used_vespene_technology total_damage_dealt_life total_damage_taken_life
 Min.   :   0                  Min.   :     0          Min.   :     0         
 1st Qu.: 300                  1st Qu.:  2063          1st Qu.:  2064         
 Median : 500                  Median :  6399          Median :  6399         
 Mean   : 620                  Mean   : 11184          Mean   : 11184         
 3rd Qu.: 825                  3rd Qu.: 14796          3rd Qu.: 14796         
 Max.   :6725                  Max.   :167112          Max.   :167112         
 total_healed_life    minerals          vespene           food_cap    
 Min.   :    0.0   Min.   :    0.0   Min.   :    0.0   Min.   :  0.0  
 1st Qu.:   10.5   1st Qu.:  318.0   1st Qu.:  238.0   1st Qu.: 55.0  
 Median :  564.2   Median :  689.5   Median :  544.5   Median :101.0  
 Mean   : 1489.8   Mean   : 1228.8   Mean   :  870.3   Mean   :107.2  
 3rd Qu.: 1927.0   3rd Qu.: 1397.0   3rd Qu.: 1150.2   3rd Qu.:157.0  
 Max.   :37044.4   Max.   :28010.0   Max.   :14213.0   Max.   :200.0  
   food_used       food_workers    idle_worker_count   army_count    
 Min.   :  0.00   Min.   :  0.00   Min.   : 0.000    Min.   :  0.00  
 1st Qu.: 30.00   1st Qu.: 19.00   1st Qu.: 0.000    1st Qu.:  4.00  
 Median : 57.00   Median : 29.00   Median : 2.000    Median : 12.00  
 Mean   : 70.81   Mean   : 32.12   Mean   : 7.289    Mean   : 20.03  
 3rd Qu.:104.00   3rd Qu.: 45.00   3rd Qu.: 8.000    3rd Qu.: 31.00  
 Max.   :200.00   Max.   :200.00   Max.   :88.000    Max.   :142.00  
     result    
 Defeat :4000  
 Victory:4000  
               
               
               
               
> 
> print(allResults)
  method tick features     mean                  sd
1      1 <NA>       ds 0.936875 0.00618718433538232
> 
> write.table(allResults, paste("tloopres_", ex_num, "_", mod, "_", reps, "_", id, ".txt", sep=""), sep="\t", quote=FALSE)
> 
> proc.time()
   user  system elapsed 
842.655   1.931 845.198 
