
R version 3.4.1 (2017-06-30) -- "Single Candle"
Copyright (C) 2017 The R Foundation for Statistical Computing
Platform: x86_64-pc-linux-gnu (64-bit)

R is free software and comes with ABSOLUTELY NO WARRANTY.
You are welcome to redistribute it under certain conditions.
Type 'license()' or 'licence()' for distribution details.

R is a collaborative project with many contributors.
Type 'contributors()' for more information and
'citation()' on how to cite R or R packages in publications.

Type 'demo()' for some demos, 'help()' for on-line help, or
'help.start()' for an HTML browser interface to help.
Type 'q()' to quit R.

> #!/usr/bin/env Rscript
> args = commandArgs(trailingOnly=TRUE)
> print(args)
[1] "ex_num=2" "mod=5"    "reps=2"   "id=1"    
> for(i in 1:length(args)){
+   eval(parse(text=args[[i]]))
+ }
> #params: ex_num, mod, reps, id
> 
> #install.packages("backports", lib="/data/volz", repos = "http://cran.us.r-project.org")
> library(backports, lib.loc = "/data/volz")
> #install.packages("BBmisc", lib="/data/volz", repos = "http://cran.us.r-project.org")
> library(BBmisc, lib.loc = "/data/volz")

Attaching package: 'BBmisc'

The following object is masked from 'package:backports':

    isFALSE

> 
> lido=TRUE
> setwd("/home/volz/sc2model")
> source("loadData.R")
> #models = c("randomForest.R")
> #models = c("classification_n.R")
> models=c("ann_model.R", "classification_n.R", "randomForest.R", "dnn.R", "knn.R")
> #ticks = seq(224, 152671, 224)
> if(ex_num==1){
+   timeWindow= 0
+   ticks= c(NA)
+   feature_select="ds"
+   dataAgg=NA
+   both=FALSE
+ }else if(ex_num==2){
+   timeWindow= 0
+   ticks= c(NA)
+   feature_select="expert"
+   dataAgg=NA
+   both=FALSE
+ }else if(ex_num==3){
+   timeWindow= 0
+   ticks= c(NA)
+   feature_select="ds"
+   dataAgg=NA
+   both=TRUE
+ }else if(ex_num==4){
+   timeWindow= 1
+   ticks = seq(6720, 26880, 224)
+   feature_select="ds"
+   dataAgg="none"
+   both=FALSE
+ }else if(ex_num==5){
+   timeWindow= 1
+   ticks = seq(6720, 26880, 224)
+   feature_select="ds"
+   dataAgg="abs"
+   both=FALSE
+ }else if(ex_num==6){
+   timeWindow= 1
+   ticks = seq(6720, 26880, 224)
+   feature_select="ds"
+   dataAgg="parallel"
+   both=FALSE
+ }else if(ex_num==7){
+   timeWindow= 5
+   ticks = seq(6720, 26880, 224)
+   feature_select="ds"
+   dataAgg="none"
+   both=FALSE
+ }else if(ex_num==8){
+   timeWindow= 5
+   ticks = seq(6720, 26880, 224)
+   feature_select="ds"
+   dataAgg="abs"
+   both=FALSE
+ }else if(ex_num==9){
+   timeWindow= 5
+   ticks = seq(6720, 26880, 224)
+   feature_select="ds"
+   dataAgg="parallel"
+   both=FALSE
+ }else if(ex_num==10){
+   timeWindow= 0
+   ticks = seq(6720, 26880, 224)
+   feature_select="ds"
+   dataAgg=NA
+   both=FALSE
+ }else if(ex_num==11){
+   timeWindow= 5
+   ticks = seq(6720, 26880, 224)
+   feature_select="ds"
+   dataAgg="none"
+   both=TRUE
+ }else if(ex_num==12){
+   timeWindow= 0
+   ticks = c(NA)
+   feature_select="expert2"
+   dataAgg=NA
+   both=FALSE
+ }
> 
> print(mod)
[1] 5
> print(ex_num)
[1] 2
> print(reps)
[1] 2
> 
> #6720 bis 26880 #5-20 Minuten
> trainSplit = 0.9
> 
> allResults = data.frame(method=integer(), tick=integer(), features=character(), mean=double(),
+                         sd=double(), stringsAsFactors=FALSE)
> 
>   accs = numeric(length(ticks))
>   print(paste("sourcing", models[mod]))
[1] "sourcing knn.R"
>   source(models[mod])
>   for(t in 1:length(ticks)){
+     trained_models = list()
+     print(ticks[t])
+     acc = numeric(reps)
+     if(is.na(ticks[t])){
+       ticks_req = NA
+     }else{
+       ticks_req = seq(max(1, ticks[t]/224-timeWindow)*224, ticks[t], 224) 
+     }
+     print(ticks_req)
+     data = loadData(which="terran2", ticks=ticks_req, feature_select =feature_select,
+                     dataAgg=dataAgg, both=both)
+     if(ncol(data)==1){
+       next
+     }
+     print(summary(data))
+     res = data$result
+     ids = data$id
+     data = data[, !(names(data) %in% c("id", "result"))]
+     data = BBmisc::normalize(data, method = "range", range = c(0, 1))
+     #print(summary(data))
+     for(i in 1:reps){
+       games = unique(ids)
+       data_train_idx_g<- sample(1:length(games), round(trainSplit*length(games)))
+       data_test_idx_g <- setdiff(1:length(games),data_train_idx_g)
+       data_train_idx = which(ids %in% games[data_train_idx_g])
+       data_test_idx = which(ids %in% games[data_test_idx_g])
+       acc[i] = model(data[data_train_idx, ], res[data_train_idx], data[data_test_idx, ], res[data_test_idx] ) 
+     }
+     accs[t] = mean(acc)
+     allResults[nrow(allResults) + 1,] = c( mod, ticks[t], feature_select, mean(acc), sd(acc) )
+   }
[1] NA
[1] NA
       id       idle_production_time idle_worker_time  idle_worker_count
 Min.   :   1   Min.   :     0.94    Min.   :    0.0   Min.   : 0.000   
 1st Qu.:1225   1st Qu.:  1077.36    1st Qu.:  231.8   1st Qu.: 0.000   
 Median :2460   Median :  3558.47    Median :  781.2   Median : 2.000   
 Mean   :2473   Mean   :  6567.14    Mean   : 2135.2   Mean   : 7.039   
 3rd Qu.:3725   3rd Qu.:  7932.73    3rd Qu.: 2253.7   3rd Qu.: 8.000   
 Max.   :4994   Max.   :129123.69    Max.   :83304.6   Max.   :85.000   
   game_loop      total_value_units killed_value_units killed_value_structures
 Min.   :   692   Min.   :  600     Min.   :    0      Min.   :    0          
 1st Qu.:  9230   1st Qu.: 3775     1st Qu.: 1400      1st Qu.:    0          
 Median : 15316   Median : 8900     Median : 4225      Median :  200          
 Mean   : 17188   Mean   :11440     Mean   : 7182      Mean   : 1030          
 3rd Qu.: 22076   3rd Qu.:16050     3rd Qu.:10125      3rd Qu.: 1100          
 Max.   :152671   Max.   :84050     Max.   :78125      Max.   :24350          
 collection_rate_minerals food_used_army   food_used_economy
 Min.   :   0             Min.   :  0.00   Min.   :  0.00   
 1st Qu.: 643             1st Qu.: 10.00   1st Qu.: 19.00   
 Median :1035             Median : 25.00   Median : 29.00   
 Mean   :1115             Mean   : 38.47   Mean   : 32.31   
 3rd Qu.:1595             3rd Qu.: 59.00   3rd Qu.: 45.00   
 Max.   :5515             Max.   :176.00   Max.   :119.00   
 killed_minerals_army killed_minerals_economy lost_minerals_army
 Min.   :    0        Min.   :    0.0         Min.   :    0     
 1st Qu.:  700        1st Qu.:  150.0         1st Qu.:  650     
 Median : 2600        Median :  787.5         Median : 2600     
 Mean   : 4661        Mean   : 1455.5         Mean   : 4654     
 3rd Qu.: 6550        3rd Qu.: 1950.0         3rd Qu.: 6620     
 Max.   :53650        Max.   :17125.0         Max.   :44170     
 lost_minerals_economy total_damage_dealt_life total_damage_taken_life
 Min.   : -300.0       Min.   :     0          Min.   :     0         
 1st Qu.:  148.2       1st Qu.:  2122          1st Qu.:  1944         
 Median :  750.0       Median :  6283          Median :  6436         
 Mean   : 1456.4       Mean   : 11155          Mean   : 11151         
 3rd Qu.: 1978.2       3rd Qu.: 14914          3rd Qu.: 14595         
 Max.   :19736.0       Max.   :167112          Max.   :158141         
    minerals         result    
 Min.   :    0   Defeat :1949  
 1st Qu.:  313   Victory:2063  
 Median :  692                 
 Mean   : 1248                 
 3rd Qu.: 1399                 
 Max.   :22330                 
> 
> print(allResults)
  method tick features              mean                 sd
1      5 <NA>   expert 0.892768079800499 0.0141068684525994
> 
> write.table(allResults, paste("tloopres_", ex_num, "_", mod, "_", reps, "_", id, ".txt", sep=""), sep="\t", quote=FALSE)
> 
> proc.time()
   user  system elapsed 
  3.023   0.420   3.479 
