
R version 3.4.1 (2017-06-30) -- "Single Candle"
Copyright (C) 2017 The R Foundation for Statistical Computing
Platform: x86_64-pc-linux-gnu (64-bit)

R is free software and comes with ABSOLUTELY NO WARRANTY.
You are welcome to redistribute it under certain conditions.
Type 'license()' or 'licence()' for distribution details.

R is a collaborative project with many contributors.
Type 'contributors()' for more information and
'citation()' on how to cite R or R packages in publications.

Type 'demo()' for some demos, 'help()' for on-line help, or
'help.start()' for an HTML browser interface to help.
Type 'q()' to quit R.

> #!/usr/bin/env Rscript
> args = commandArgs(trailingOnly=TRUE)
> print(args)
[1] "ex_num=13" "mod=1"     "reps=2"    "id=4"     
> for(i in 1:length(args)){
+   eval(parse(text=args[[i]]))
+ }
> #params: ex_num, mod, reps, id
> 
> #install.packages("backports", lib="/data/volz", repos = "http://cran.us.r-project.org")
> library(backports, lib.loc = "/data/volz")
> #install.packages("BBmisc", lib="/data/volz", repos = "http://cran.us.r-project.org")
> library(BBmisc, lib.loc = "/data/volz")

Attaching package: 'BBmisc'

The following object is masked from 'package:backports':

    isFALSE

> 
> lido=TRUE
> setwd("/home/volz/sc2model")
> source("loadData.R")
> #models = c("randomForest.R")
> #models = c("classification_n.R")
> models=c("ann_model.R", "classification_n.R", "randomForest.R", "dnn.R", "knn.R")
> #ticks = seq(224, 152671, 224)
> if(ex_num==1){
+   timeWindow= 0
+   ticks= c(NA)
+   feature_select="ds"
+   dataAgg=NA
+   both=FALSE
+ }else if(ex_num==2){
+   timeWindow= 0
+   ticks= c(NA)
+   feature_select="expert"
+   dataAgg=NA
+   both=FALSE
+ }else if(ex_num==3){
+   timeWindow= 0
+   ticks= c(NA)
+   feature_select="ds"
+   dataAgg=NA
+   both=TRUE
+ }else if(ex_num==4){
+   timeWindow= 1
+   ticks = seq(6720, 26880, 224)
+   feature_select="ds"
+   dataAgg="none"
+   both=FALSE
+ }else if(ex_num==5){
+   timeWindow= 1
+   ticks = seq(6720, 26880, 224)
+   feature_select="ds"
+   dataAgg="abs"
+   both=FALSE
+ }else if(ex_num==6){
+   timeWindow= 1
+   ticks = seq(6720, 26880, 224)
+   feature_select="ds"
+   dataAgg="parallel"
+   both=FALSE
+ }else if(ex_num==7){
+   timeWindow= 5
+   ticks = seq(6720, 26880, 224)
+   feature_select="ds"
+   dataAgg="none"
+   both=FALSE
+ }else if(ex_num==8){
+   timeWindow= 5
+   ticks = seq(6720, 26880, 224)
+   feature_select="ds"
+   dataAgg="abs"
+   both=FALSE
+ }else if(ex_num==9){
+   timeWindow= 5
+   ticks = seq(6720, 26880, 224)
+   feature_select="ds"
+   dataAgg="parallel"
+   both=FALSE
+ }else if(ex_num==10){
+   timeWindow= 0
+   ticks = seq(6720, 26880, 224)
+   feature_select="ds"
+   dataAgg=NA
+   both=FALSE
+ }else if(ex_num==11){
+   timeWindow= 5
+   ticks = seq(6720, 26880, 224)
+   feature_select="ds"
+   dataAgg="none"
+   both=TRUE
+ }else if(ex_num==12){
+   timeWindow= 0
+   ticks = c(NA)
+   feature_select="expert2"
+   dataAgg=NA
+   both=FALSE
+ }else if(ex_num==13){
+   timeWindow=0
+   ticks = seq(6720, 26880, 224)
+   feature_select="ds"
+   dataAgg="none"
+   both=TRUE
+   player=1
+ }
> 
> print(mod)
[1] 1
> print(ex_num)
[1] 13
> print(reps)
[1] 2
> 
> #6720 bis 26880 #5-20 Minuten
> trainSplit = 0.9
> 
> allResults = data.frame(method=integer(), tick=integer(), features=character(), mean=double(),
+                         sd=double(), stringsAsFactors=FALSE)
> 
>   accs = numeric(length(ticks))
>   print(paste("sourcing", models[mod]))
[1] "sourcing ann_model.R"
>   source(models[mod])
trying URL 'http://cran.us.r-project.org/src/contrib/nnet_7.3-12.tar.gz'
Content type 'application/x-gzip' length 28521 bytes (27 KB)
==================================================
downloaded 27 KB

* installing *source* package 'nnet' ...
** package 'nnet' successfully unpacked and MD5 sums checked
** libs
gcc -std=gnu99 -I/sysdata/shared/sfw/R/3.4.1-gcc49-base/lib64/R/include -DNDEBUG   -I/usr/local/include   -fpic  -I/sysdata/shared/sfw/R/extralibs/include -I/usr/include/ncurses  -c nnet.c -o nnet.o
gcc -std=gnu99 -shared -L/sysdata/shared/sfw/R/extralibs/lib -L/usr/local/lib/openblas/0.2.17/lib64 -lopenblas -o nnet.so nnet.o
installing to /data/volz/nnet/libs
** R
** inst
** byte-compile and prepare package for lazy loading
** help
*** installing help indices
** building package indices
** testing if installed package can be loaded
* DONE (nnet)

The downloaded source packages are in
	'/scratch/volz-/RtmpOTrlCn/downloaded_packages'
>   for(t in 1:length(ticks)){
+     trained_models = list()
+     print(ticks[t])
+     acc = numeric(reps)
+     if(is.na(ticks[t])){
+       ticks_req = NA
+     }else{
+       ticks_req = seq(max(1, ticks[t]/224-timeWindow)*224, ticks[t], 224) 
+     }
+     print(ticks_req)
+     data = loadData(which="terran2", ticks=ticks_req, feature_select =feature_select,
+                     dataAgg=dataAgg, both=both, player = player)
+     if(ncol(data)==1){
+       next
+     }
+     print(summary(data))
+     res = data$result
+     ids = data$id
+     data = data[, !(names(data) %in% c("id", "result"))]
+     data = BBmisc::normalize(data, method = "range", range = c(0, 1))
+     #print(summary(data))
+     for(i in 1:reps){
+       games = unique(ids)
+       data_train_idx_g<- sample(1:length(games), round(trainSplit*length(games)))
+       data_test_idx_g <- setdiff(1:length(games),data_train_idx_g)
+       data_train_idx = which(ids %in% games[data_train_idx_g])
+       data_test_idx = which(ids %in% games[data_test_idx_g])
+       acc[i] = model(data[data_train_idx, ], res[data_train_idx], data[data_test_idx, ], res[data_test_idx] ) 
+     }
+     accs[t] = mean(acc)
+     allResults[nrow(allResults) + 1,] = c( mod, ticks[t], feature_select, mean(acc), sd(acc) )
+   }
[1] 6720
[1] 6720
       id          score.1     idle_production_time.1 idle_worker_time.1
 Min.   :   1   Min.   : 400   Min.   :  13.81        Min.   :   0.00   
 1st Qu.:1225   1st Qu.:5606   1st Qu.: 358.77        1st Qu.:  49.64   
 Median :2452   Median :6121   Median : 468.12        Median :  92.62   
 Mean   :2470   Mean   :5993   Mean   : 487.07        Mean   : 131.32   
 3rd Qu.:3732   3rd Qu.:6538   3rd Qu.: 592.38        3rd Qu.: 169.02   
 Max.   :4994   Max.   :8038   Max.   :1293.62        Max.   :1691.75   
 total_value_units.1 total_value_structures.1 killed_value_units.1
 Min.   : 600        Min.   : 400             Min.   :   0.0      
 1st Qu.:2225        1st Qu.:2000             1st Qu.:  50.0      
 Median :2550        Median :2250             Median : 150.0      
 Mean   :2519        Mean   :2218             Mean   : 290.2      
 3rd Qu.:2850        3rd Qu.:2450             3rd Qu.: 450.0      
 Max.   :3750        Max.   :3175             Max.   :2200.0      
 killed_value_structures.1 collected_minerals.1 collected_vespene.1
 Min.   :   0.00           Min.   :   0         Min.   :   0       
 1st Qu.:   0.00           1st Qu.:3955         1st Qu.: 940       
 Median :   0.00           Median :4295         Median :1060       
 Mean   :  18.27           Mean   :4286         Mean   :1027       
 3rd Qu.:   0.00           3rd Qu.:4650         3rd Qu.:1192       
 Max.   :1375.00           Max.   :6430         Max.   :1488       
 collection_rate_minerals.1 collection_rate_vespene.1 spent_minerals.1
 Min.   :   0               Min.   :  0.0             Min.   :   0    
 1st Qu.: 895               1st Qu.:313.0             1st Qu.:3650    
 Median :1119               Median :313.0             Median :4025    
 Mean   :1138               Mean   :309.2             Mean   :4002    
 3rd Qu.:1399               3rd Qu.:335.0             3rd Qu.:4400    
 Max.   :2463               Max.   :739.0             Max.   :5925    
 spent_vespene.1  food_used_army.1 food_used_economy.1 killed_minerals_none.1
 Min.   :   0.0   Min.   : 0.00    Min.   : 0.00       Min.   : 0.00000      
 1st Qu.: 675.0   1st Qu.:12.00    1st Qu.:24.00       1st Qu.: 0.00000      
 Median : 825.0   Median :16.00    Median :27.00       Median : 0.00000      
 Mean   : 788.5   Mean   :16.21    Mean   :27.45       Mean   : 0.01433      
 3rd Qu.: 950.0   3rd Qu.:20.00    3rd Qu.:32.00       3rd Qu.: 0.00000      
 Max.   :1325.0   Max.   :42.00    Max.   :49.00       Max.   :50.00000      
 killed_minerals_army.1 killed_minerals_economy.1 killed_minerals_technology.1
 Min.   :   0.0         Min.   :   0.0            Min.   :  0.000             
 1st Qu.:   0.0         1st Qu.:   0.0            1st Qu.:  0.000             
 Median :  50.0         Median :  50.0            Median :  0.000             
 Mean   : 134.9         Mean   : 106.6            Mean   :  4.864             
 3rd Qu.: 200.0         3rd Qu.: 100.0            3rd Qu.:  0.000             
 Max.   :1500.0         Max.   :2000.0            Max.   :550.000             
 killed_vespene_army.1 killed_vespene_economy.1 killed_vespene_technology.1
 Min.   :  0.00        Min.   :  0.00000        Min.   :  0.00             
 1st Qu.:  0.00        1st Qu.:  0.00000        1st Qu.:  0.00             
 Median :  0.00        Median :  0.00000        Median :  0.00             
 Mean   : 60.86        Mean   :  0.04298        Mean   :  1.16             
 3rd Qu.:100.00        3rd Qu.:  0.00000        3rd Qu.:  0.00             
 Max.   :700.00        Max.   :150.00000        Max.   :275.00             
 lost_minerals_none.1 lost_minerals_army.1 lost_minerals_economy.1
 Min.   :-76.0000     Min.   :   0.0       Min.   :-300.00        
 1st Qu.:  0.0000     1st Qu.:   0.0       1st Qu.:   0.00        
 Median :  0.0000     Median :  50.0       Median :  50.00        
 Mean   : -0.1625     Mean   : 133.2       Mean   :  99.15        
 3rd Qu.:  0.0000     3rd Qu.: 200.0       3rd Qu.: 100.00        
 Max.   :  8.0000     Max.   :1400.0       Max.   :1850.00        
 lost_minerals_technology.1 lost_vespene_none.1 lost_vespene_army.1
 Min.   :-226.0000          Min.   :-76.0000    Min.   :  0        
 1st Qu.:   0.0000          1st Qu.:  0.0000    1st Qu.:  0        
 Median :   0.0000          Median :  0.0000    Median : 50        
 Mean   :  -0.3968          Mean   : -0.1742    Mean   : 63        
 3rd Qu.:   0.0000          3rd Qu.:  0.0000    3rd Qu.:100        
 Max.   : 404.0000          Max.   :  0.0000    Max.   :650        
 lost_vespene_economy.1 lost_vespene_technology.1 friendly_fire_minerals_none.1
 Min.   :  0.0000       Min.   :-113.000          Min.   :  0.0000             
 1st Qu.:  0.0000       1st Qu.:   0.000          1st Qu.:  0.0000             
 Median :  0.0000       Median :   0.000          Median :  0.0000             
 Mean   :  0.2095       Mean   :  -1.128          Mean   :  0.2292             
 3rd Qu.:  0.0000       3rd Qu.:   0.000          3rd Qu.:  0.0000             
 Max.   :171.0000       Max.   : 225.000          Max.   :100.0000             
 friendly_fire_minerals_army.1 friendly_fire_minerals_economy.1
 Min.   :  0.0000              Min.   :  0.000                 
 1st Qu.:  0.0000              1st Qu.:  0.000                 
 Median :  0.0000              Median :  0.000                 
 Mean   :  0.3152              Mean   :  6.605                 
 3rd Qu.:  0.0000              3rd Qu.:  0.000                 
 Max.   :150.0000              Max.   :400.000                 
 friendly_fire_minerals_technology.1 friendly_fire_vespene_army.1
 Min.   :  0.000                     Min.   :  0.0000            
 1st Qu.:  0.000                     1st Qu.:  0.0000            
 Median :  0.000                     Median :  0.0000            
 Mean   :  7.679                     Mean   :  0.1719            
 3rd Qu.:  0.000                     3rd Qu.:  0.0000            
 Max.   :300.000                     Max.   :100.0000            
 friendly_fire_vespene_technology.1 used_minerals_none.1 used_minerals_army.1
 Min.   :  0.00                     Min.   :  0.0        Min.   :   0.0      
 1st Qu.:  0.00                     1st Qu.:  0.0        1st Qu.: 600.0      
 Median :  0.00                     Median : 50.0        Median : 800.0      
 Mean   :  2.98                     Mean   : 54.3        Mean   : 817.9      
 3rd Qu.:  0.00                     3rd Qu.:100.0        3rd Qu.:1025.0      
 Max.   :200.00                     Max.   :300.0        Max.   :2100.0      
 used_minerals_economy.1 used_minerals_technology.1 used_minerals_upgrade.1
 Min.   :  75            Min.   :   0.0             Min.   :  0.00         
 1st Qu.:2600            1st Qu.: 675.0             1st Qu.:  0.00         
 Median :3000            Median : 825.0             Median :  0.00         
 Mean   :2953            Mean   : 827.1             Mean   : 64.66         
 3rd Qu.:3325            3rd Qu.: 975.0             3rd Qu.:100.00         
 Max.   :4850            Max.   :1800.0             Max.   :450.00         
 used_vespene_none.1 used_vespene_army.1 used_vespene_economy.1
 Min.   : 0.000      Min.   :  0.0       Min.   :  0.000       
 1st Qu.: 0.000      1st Qu.:200.0       1st Qu.:  0.000       
 Median : 0.000      Median :350.0       Median :  0.000       
 Mean   : 7.163      Mean   :351.5       Mean   :  3.395       
 3rd Qu.: 0.000      3rd Qu.:500.0       3rd Qu.:  0.000       
 Max.   :50.000      Max.   :925.0       Max.   :450.000       
 used_vespene_technology.1 total_used_minerals_none.1
 Min.   :  0.0             Min.   : 0.00             
 1st Qu.:250.0             1st Qu.: 0.00             
 Median :300.0             Median : 0.00             
 Mean   :281.4             Mean   : 3.84             
 3rd Qu.:325.0             3rd Qu.: 0.00             
 Max.   :600.0             Max.   :50.00             
 total_used_minerals_army.1 total_used_minerals_economy.1
 Min.   :   0.0             Min.   :1000                 
 1st Qu.: 600.0             1st Qu.:2650                 
 Median : 775.0             Median :3100                 
 Mean   : 776.5             Mean   :3061                 
 3rd Qu.: 950.0             3rd Qu.:3475                 
 Max.   :2150.0             Max.   :4675                 
 total_used_minerals_technology.1 total_used_minerals_upgrade.1
 Min.   :   0.0                   Min.   :  0.00               
 1st Qu.: 600.0                   1st Qu.:  0.00               
 Median : 725.0                   Median :  0.00               
 Mean   : 736.7                   Mean   : 16.42               
 3rd Qu.: 875.0                   3rd Qu.:  0.00               
 Max.   :1650.0                   Max.   :250.00               
 total_used_vespene_army.1 total_used_vespene_economy.1
 Min.   :  0.0             Min.   :  0.000             
 1st Qu.:175.0             1st Qu.:  0.000             
 Median :300.0             Median :  0.000             
 Mean   :313.8             Mean   :  5.759             
 3rd Qu.:450.0             3rd Qu.:  0.000             
 Max.   :850.0             Max.   :900.000             
 total_used_vespene_technology.1 total_damage_dealt_life.1
 Min.   :  0                     Min.   :   0.0           
 1st Qu.:225                     1st Qu.:  90.0           
 Median :275                     Median : 295.5           
 Mean   :259                     Mean   : 494.2           
 3rd Qu.:300                     3rd Qu.: 630.0           
 Max.   :550                     Max.   :7750.8           
 total_damage_taken_life.1 total_healed_life.1   minerals.1       vespene.1    
 Min.   :   0.00           Min.   :   0.00     Min.   :   0.0   Min.   :  0.0  
 1st Qu.:  91.25           1st Qu.:   0.00     1st Qu.: 136.2   1st Qu.:121.0  
 Median : 273.00           Median :   0.00     Median : 260.0   Median :209.0  
 Mean   : 475.64           Mean   :  28.51     Mean   : 330.9   Mean   :236.7  
 3rd Qu.: 608.00           3rd Qu.:   0.00     3rd Qu.: 440.0   3rd Qu.:322.0  
 Max.   :5945.82           Max.   :2688.87     Max.   :3450.0   Max.   :990.0  
   food_cap.1      food_used.1    food_workers.1  idle_worker_count.1
 Min.   :  0.00   Min.   : 0.00   Min.   : 0.00   Min.   : 0.0000    
 1st Qu.: 47.00   1st Qu.:38.00   1st Qu.:23.00   1st Qu.: 0.0000    
 Median : 55.00   Median :45.00   Median :27.00   Median : 0.0000    
 Mean   : 55.79   Mean   :43.66   Mean   :26.71   Mean   : 0.7885    
 3rd Qu.: 62.00   3rd Qu.:50.00   3rd Qu.:31.00   3rd Qu.: 1.0000    
 Max.   :103.00   Max.   :70.00   Max.   :47.00   Max.   :27.0000    
  army_count.1       score.2     idle_production_time.2 idle_worker_time.2
 Min.   : 0.000   Min.   : 465   Min.   :  16.0         Min.   :   0.00   
 1st Qu.: 5.000   1st Qu.:5592   1st Qu.: 363.8         1st Qu.:  49.56   
 Median : 7.500   Median :6112   Median : 468.6         Median :  94.62   
 Mean   : 7.984   Mean   :5984   Mean   : 490.4         Mean   : 135.88   
 3rd Qu.:11.000   3rd Qu.:6524   3rd Qu.: 595.3         3rd Qu.: 179.06   
 Max.   :30.000   Max.   :7875   Max.   :1495.9         Max.   :1707.25   
 total_value_units.2 total_value_structures.2 killed_value_units.2
 Min.   : 600        Min.   : 400             Min.   :   0.0      
 1st Qu.:2200        1st Qu.:2000             1st Qu.:  50.0      
 Median :2550        Median :2250             Median : 150.0      
 Mean   :2511        Mean   :2219             Mean   : 288.6      
 3rd Qu.:2850        3rd Qu.:2450             3rd Qu.: 450.0      
 Max.   :3850        Max.   :3250             Max.   :2150.0      
 killed_value_structures.2 collected_minerals.2 collected_vespene.2
 Min.   :   0.00           Min.   :   0         Min.   :   0       
 1st Qu.:   0.00           1st Qu.:3975         1st Qu.: 920       
 Median :   0.00           Median :4290         Median :1052       
 Mean   :  16.34           Mean   :4293         Mean   :1016       
 3rd Qu.:   0.00           3rd Qu.:4641         3rd Qu.:1184       
 Max.   :1000.00           Max.   :6000         Max.   :1484       
 collection_rate_minerals.2 collection_rate_vespene.2 spent_minerals.2
 Min.   :   0               Min.   :  0.0             Min.   :   0    
 1st Qu.: 895               1st Qu.:313.0             1st Qu.:3650    
 Median :1091               Median :313.0             Median :4025    
 Mean   :1130               Mean   :309.6             Mean   :4007    
 3rd Qu.:1399               3rd Qu.:335.0             3rd Qu.:4400    
 Max.   :2463               Max.   :716.0             Max.   :5825    
 spent_vespene.2  food_used_army.2 food_used_economy.2 killed_minerals_army.2
 Min.   :   0.0   Min.   : 0.00    Min.   : 0.00       Min.   :   0.0        
 1st Qu.: 650.0   1st Qu.:12.00    1st Qu.:24.00       1st Qu.:   0.0        
 Median : 800.0   Median :16.00    Median :27.00       Median :  50.0        
 Mean   : 779.2   Mean   :16.06    Mean   :27.44       Mean   : 132.7        
 3rd Qu.: 950.0   3rd Qu.:20.00    3rd Qu.:32.00       3rd Qu.: 200.0        
 Max.   :1325.0   Max.   :39.00    Max.   :49.00       Max.   :1400.0        
 killed_minerals_economy.2 killed_minerals_technology.2 killed_vespene_army.2
 Min.   :   0.0            Min.   :  0.000              Min.   :  0.0        
 1st Qu.:   0.0            1st Qu.:  0.000              1st Qu.:  0.0        
 Median :  50.0            Median :  0.000              Median : 50.0        
 Mean   : 103.4            Mean   :  4.821              Mean   : 62.7        
 3rd Qu.: 100.0            3rd Qu.:  0.000              3rd Qu.:100.0        
 Max.   :1850.0            Max.   :400.000              Max.   :650.0        
 killed_vespene_economy.2 killed_vespene_technology.2 lost_minerals_none.2
 Min.   :  0.0000         Min.   :  0.000             Min.   :-76.0000    
 1st Qu.:  0.0000         1st Qu.:  0.000             1st Qu.:  0.0000    
 Median :  0.0000         Median :  0.000             Median :  0.0000    
 Mean   :  0.1289         Mean   :  1.125             Mean   : -0.1567    
 3rd Qu.:  0.0000         3rd Qu.:  0.000             3rd Qu.:  0.0000    
 Max.   :150.0000         Max.   :225.000             Max.   : 50.0000    
 lost_minerals_army.2 lost_minerals_economy.2 lost_minerals_technology.2
 Min.   :   0.0       Min.   :-300            Min.   :-339.0000         
 1st Qu.:   0.0       1st Qu.:   0            1st Qu.:   0.0000         
 Median :  50.0       Median :  50            Median :   0.0000         
 Mean   : 135.2       Mean   : 102            Mean   :  -0.3814         
 3rd Qu.: 200.0       3rd Qu.: 100            3rd Qu.:   0.0000         
 Max.   :1500.0       Max.   :2000            Max.   : 550.0000         
 lost_vespene_none.2 lost_vespene_army.2 lost_vespene_economy.2
 Min.   :-76.0000    Min.   :  0.00      Min.   :  0.00000     
 1st Qu.:  0.0000    1st Qu.:  0.00      1st Qu.:  0.00000     
 Median :  0.0000    Median :  0.00      Median :  0.00000     
 Mean   : -0.1599    Mean   : 61.08      Mean   :  0.07479     
 3rd Qu.:  0.0000    3rd Qu.:100.00      3rd Qu.:  0.00000     
 Max.   : 50.0000    Max.   :701.00      Max.   :150.00000     
 lost_vespene_technology.2 friendly_fire_minerals_none.2
 Min.   :-76.0000          Min.   :  0.0000             
 1st Qu.:  0.0000          1st Qu.:  0.0000             
 Median :  0.0000          Median :  0.0000             
 Mean   : -0.4556          Mean   :  0.2292             
 3rd Qu.:  0.0000          3rd Qu.:  0.0000             
 Max.   :275.0000          Max.   :100.0000             
 friendly_fire_minerals_army.2 friendly_fire_minerals_economy.2
 Min.   :  0.0000              Min.   :  0.000                 
 1st Qu.:  0.0000              1st Qu.:  0.000                 
 Median :  0.0000              Median :  0.000                 
 Mean   :  0.3582              Mean   :  7.242                 
 3rd Qu.:  0.0000              3rd Qu.:  0.000                 
 Max.   :150.0000              Max.   :800.000                 
 friendly_fire_minerals_technology.2 friendly_fire_vespene_army.2
 Min.   :  0.000                     Min.   :  0.0000            
 1st Qu.:  0.000                     1st Qu.:  0.0000            
 Median :  0.000                     Median :  0.0000            
 Mean   :  7.593                     Mean   :  0.2006            
 3rd Qu.:  0.000                     3rd Qu.:  0.0000            
 Max.   :450.000                     Max.   :100.0000            
 friendly_fire_vespene_technology.2 used_minerals_none.2 used_minerals_army.2
 Min.   :  0.000                    Min.   :  0.0        Min.   :   0.0      
 1st Qu.:  0.000                    1st Qu.:  0.0        1st Qu.: 600.0      
 Median :  0.000                    Median : 50.0        Median : 800.0      
 Mean   :  2.206                    Mean   : 53.5        Mean   : 810.7      
 3rd Qu.:  0.000                    3rd Qu.:100.0        3rd Qu.:1000.0      
 Max.   :100.000                    Max.   :250.0        Max.   :1950.0      
 used_minerals_economy.2 used_minerals_technology.2 used_minerals_upgrade.2
 Min.   : 400            Min.   :   0.0             Min.   :  0.00         
 1st Qu.:2600            1st Qu.: 675.0             1st Qu.:  0.00         
 Median :2950            Median : 825.0             Median :  0.00         
 Mean   :2949            Mean   : 835.2             Mean   : 65.44         
 3rd Qu.:3325            3rd Qu.: 975.0             3rd Qu.:100.00         
 Max.   :4800            Max.   :1825.0             Max.   :550.00         
 used_vespene_none.2 used_vespene_army.2 used_vespene_economy.2
 Min.   :-50.000     Min.   :  0.0       Min.   :  0.000       
 1st Qu.:  0.000     1st Qu.:200.0       1st Qu.:  0.000       
 Median :  0.000     Median :350.0       Median :  0.000       
 Mean   :  6.877     Mean   :345.6       Mean   :  2.794       
 3rd Qu.:  0.000     3rd Qu.:500.0       3rd Qu.:  0.000       
 Max.   :100.000     Max.   :950.0       Max.   :300.000       
 used_vespene_technology.2 total_used_minerals_none.2
 Min.   :  0.0             Min.   : 0.000            
 1st Qu.:250.0             1st Qu.: 0.000            
 Median :275.0             Median : 0.000            
 Mean   :280.3             Mean   : 3.539            
 3rd Qu.:325.0             3rd Qu.: 0.000            
 Max.   :750.0             Max.   :50.000            
 total_used_minerals_army.2 total_used_minerals_economy.2
 Min.   :   0               Min.   :1000                 
 1st Qu.: 600               1st Qu.:2650                 
 Median : 750               Median :3075                 
 Mean   : 773               Mean   :3066                 
 3rd Qu.: 950               3rd Qu.:3500                 
 Max.   :1900               Max.   :4975                 
 total_used_minerals_technology.2 total_used_minerals_upgrade.2
 Min.   :   0.0                   Min.   :  0.0                
 1st Qu.: 600.0                   1st Qu.:  0.0                
 Median : 725.0                   Median :  0.0                
 Mean   : 737.3                   Mean   : 14.9                
 3rd Qu.: 875.0                   3rd Qu.:  0.0                
 Max.   :1575.0                   Max.   :350.0                
 total_used_vespene_army.2 total_used_vespene_economy.2
 Min.   :  0.0             Min.   :  0.000             
 1st Qu.:150.0             1st Qu.:  0.000             
 Median :300.0             Median :  0.000             
 Mean   :307.7             Mean   :  3.954             
 3rd Qu.:450.0             3rd Qu.:  0.000             
 Max.   :850.0             Max.   :600.000             
 total_used_vespene_technology.2 total_healed_life.2   minerals.2  
 Min.   :  0.0                   Min.   :   0.00     Min.   :   0  
 1st Qu.:225.0                   1st Qu.:   0.00     1st Qu.: 135  
 Median :275.0                   Median :   0.00     Median : 265  
 Mean   :257.3                   Mean   :  26.07     Mean   : 333  
 3rd Qu.:300.0                   3rd Qu.:   0.00     3rd Qu.: 448  
 Max.   :600.0                   Max.   :2750.93     Max.   :3425  
   vespene.2        food_cap.2     food_used.2    food_workers.2 
 Min.   :   0.0   Min.   : 0.00   Min.   : 0.00   Min.   : 0.00  
 1st Qu.: 124.0   1st Qu.:47.00   1st Qu.:38.00   1st Qu.:23.00  
 Median : 205.0   Median :55.00   Median :44.00   Median :27.00  
 Mean   : 236.1   Mean   :55.77   Mean   :43.51   Mean   :26.71  
 3rd Qu.: 317.0   3rd Qu.:62.00   3rd Qu.:50.00   3rd Qu.:31.00  
 Max.   :1122.0   Max.   :94.00   Max.   :71.00   Max.   :46.00  
 idle_worker_count.2  army_count.2        result    
 Min.   : 0.000      Min.   : 0.000   Defeat :1708  
 1st Qu.: 0.000      1st Qu.: 5.000   Tie    :  12  
 Median : 0.000      Median : 7.000   Victory:1770  
 Mean   : 0.802      Mean   : 7.918                 
 3rd Qu.: 1.000      3rd Qu.:11.000                 
 Max.   :28.000      Max.   :30.000                 
Error in nnet.default(data_train, class.ind(res_train), size = 7, entropy = FALSE,  : 
  too many (1261) weights
Calls: model -> nnet -> nnet.default
Execution halted
