
R version 3.4.1 (2017-06-30) -- "Single Candle"
Copyright (C) 2017 The R Foundation for Statistical Computing
Platform: x86_64-pc-linux-gnu (64-bit)

R is free software and comes with ABSOLUTELY NO WARRANTY.
You are welcome to redistribute it under certain conditions.
Type 'license()' or 'licence()' for distribution details.

R is a collaborative project with many contributors.
Type 'contributors()' for more information and
'citation()' on how to cite R or R packages in publications.

Type 'demo()' for some demos, 'help()' for on-line help, or
'help.start()' for an HTML browser interface to help.
Type 'q()' to quit R.

> #!/usr/bin/env Rscript
> args = commandArgs(trailingOnly=TRUE)
> print(args)
[1] "ex_num=4" "mod=5"    "reps=2"   "id=15"   
> for(i in 1:length(args)){
+   eval(parse(text=args[[i]]))
+ }
> #params: ex_num, mod, reps, id
> 
> #install.packages("backports", lib="/data/volz", repos = "http://cran.us.r-project.org")
> library(backports, lib.loc = "/data/volz")
> #install.packages("BBmisc", lib="/data/volz", repos = "http://cran.us.r-project.org")
> library(BBmisc, lib.loc = "/data/volz")

Attaching package: 'BBmisc'

The following object is masked from 'package:backports':

    isFALSE

> 
> lido=TRUE
> setwd("/home/volz/sc2model")
> source("loadData.R")
> #models = c("randomForest.R")
> #models = c("classification_n.R")
> models=c("ann_model.R", "classification_n.R", "randomForest.R", "dnn.R", "knn.R")
> #ticks = seq(224, 152671, 224)
> if(ex_num==1){
+   timeWindow= 0
+   ticks= c(NA)
+   feature_select="ds"
+   dataAgg=NA
+   both=FALSE
+ }else if(ex_num==2){
+   timeWindow= 0
+   ticks= c(NA)
+   feature_select="expert"
+   dataAgg=NA
+   both=FALSE
+ }else if(ex_num==3){
+   timeWindow= 0
+   ticks= c(NA)
+   feature_select="ds"
+   dataAgg=NA
+   both=TRUE
+ }else if(ex_num==4){
+   timeWindow= 1
+   ticks = seq(6720, 26880, 224)
+   feature_select="ds"
+   dataAgg="none"
+   both=FALSE
+ }else if(ex_num==5){
+   timeWindow= 1
+   ticks = seq(6720, 26880, 224)
+   feature_select="ds"
+   dataAgg="abs"
+   both=FALSE
+ }else if(ex_num==6){
+   timeWindow= 1
+   ticks = seq(6720, 26880, 224)
+   feature_select="ds"
+   dataAgg="parallel"
+   both=FALSE
+ }else if(ex_num==7){
+   timeWindow= 5
+   ticks = seq(6720, 26880, 224)
+   feature_select="ds"
+   dataAgg="none"
+   both=FALSE
+ }else if(ex_num==8){
+   timeWindow= 5
+   ticks = seq(6720, 26880, 224)
+   feature_select="ds"
+   dataAgg="abs"
+   both=FALSE
+ }else if(ex_num==9){
+   timeWindow= 5
+   ticks = seq(6720, 26880, 224)
+   feature_select="ds"
+   dataAgg="parallel"
+   both=FALSE
+ }else if(ex_num==10){
+   timeWindow= 0
+   ticks = seq(6720, 26880, 224)
+   feature_select="ds"
+   dataAgg=NA
+   both=FALSE
+ }else if(ex_num==11){
+   timeWindow= 5
+   ticks = seq(6720, 26880, 224)
+   feature_select="ds"
+   dataAgg="none"
+   both=TRUE
+ }else if(ex_num==12){
+   timeWindow= 0
+   ticks = c(NA)
+   feature_select="expert2"
+   dataAgg=NA
+   both=FALSE
+ }
> 
> print(mod)
[1] 5
> print(ex_num)
[1] 4
> print(reps)
[1] 2
> 
> #6720 bis 26880 #5-20 Minuten
> trainSplit = 0.9
> 
> allResults = data.frame(method=integer(), tick=integer(), features=character(), mean=double(),
+                         sd=double(), stringsAsFactors=FALSE)
> 
>   accs = numeric(length(ticks))
>   print(paste("sourcing", models[mod]))
[1] "sourcing knn.R"
>   source(models[mod])
trying URL 'http://cran.us.r-project.org/src/contrib/class_7.3-14.tar.gz'
Content type 'application/x-gzip' length 19726 bytes (19 KB)
==================================================
downloaded 19 KB

* installing *source* package 'class' ...
** package 'class' successfully unpacked and MD5 sums checked
** libs
gcc -std=gnu99 -I/sysdata/shared/sfw/R/3.4.1-gcc49-base/lib64/R/include -DNDEBUG   -I/usr/local/include   -fpic  -I/sysdata/shared/sfw/R/extralibs/include -I/usr/include/ncurses  -c class.c -o class.o
gcc -std=gnu99 -shared -L/sysdata/shared/sfw/R/extralibs/lib -L/usr/local/lib/openblas/0.2.17/lib64 -lopenblas -o class.so class.o
installing to /data/volz/class/libs
** R
** inst
** byte-compile and prepare package for lazy loading
** help
*** installing help indices
** building package indices
** testing if installed package can be loaded
* DONE (class)

The downloaded source packages are in
	'/scratch/volz-/Rtmp5GN2iV/downloaded_packages'
>   for(t in 1:length(ticks)){
+     trained_models = list()
+     print(ticks[t])
+     acc = numeric(reps)
+     if(is.na(ticks[t])){
+       ticks_req = NA
+     }else{
+       ticks_req = seq(max(1, ticks[t]/224-timeWindow)*224, ticks[t], 224) 
+     }
+     print(ticks_req)
+     data = loadData(which="terran2", ticks=ticks_req, feature_select =feature_select,
+                     dataAgg=dataAgg, both=both)
+     if(ncol(data)==1){
+       next
+     }
+     print(summary(data))
+     res = data$result
+     ids = data$id
+     data = data[, !(names(data) %in% c("id", "result"))]
+     data = BBmisc::normalize(data, method = "range", range = c(0, 1))
+     #print(summary(data))
+     for(i in 1:reps){
+       games = unique(ids)
+       data_train_idx_g<- sample(1:length(games), round(trainSplit*length(games)))
+       data_test_idx_g <- setdiff(1:length(games),data_train_idx_g)
+       data_train_idx = which(ids %in% games[data_train_idx_g])
+       data_test_idx = which(ids %in% games[data_test_idx_g])
+       acc[i] = model(data[data_train_idx, ], res[data_train_idx], data[data_test_idx, ], res[data_test_idx] ) 
+     }
+     accs[t] = mean(acc)
+     allResults[nrow(allResults) + 1,] = c( mod, ticks[t], feature_select, mean(acc), sd(acc) )
+   }
[1] 6720
[1] 6496 6720
       id         game_loop        score      idle_production_time
 Min.   :   1   Min.   :6496   Min.   : 400   Min.   :  13.81     
 1st Qu.:1223   1st Qu.:6496   1st Qu.:5513   1st Qu.: 338.39     
 Median :2454   Median :6496   Median :6018   Median : 443.56     
 Mean   :2470   Mean   :6607   Mean   :5890   Mean   : 462.66     
 3rd Qu.:3735   3rd Qu.:6720   3rd Qu.:6423   3rd Qu.: 565.84     
 Max.   :4994   Max.   :6720   Max.   :8038   Max.   :1293.62     
 idle_worker_time  total_value_units total_value_structures killed_value_units
 Min.   :   0.00   Min.   : 600      Min.   : 400           Min.   :   0.0    
 1st Qu.:  47.12   1st Qu.:2150      1st Qu.:1975           1st Qu.:  50.0    
 Median :  88.72   Median :2475      Median :2200           Median : 150.0    
 Mean   : 126.09   Mean   :2457      Mean   :2180           Mean   : 273.8    
 3rd Qu.: 162.86   3rd Qu.:2775      3rd Qu.:2425           3rd Qu.: 400.0    
 Max.   :1691.75   Max.   :3750      Max.   :3175           Max.   :2300.0    
 killed_value_structures collected_minerals collected_vespene
 Min.   :   0.00         Min.   :   0       Min.   :   0     
 1st Qu.:   0.00         1st Qu.:3870       1st Qu.: 908     
 Median :   0.00         Median :4195       Median :1032     
 Mean   :  16.88         Mean   :4189       Mean   :1000     
 3rd Qu.:   0.00         3rd Qu.:4550       3rd Qu.:1164     
 Max.   :1375.00         Max.   :6430       Max.   :1488     
 collection_rate_minerals collection_rate_vespene spent_minerals
 Min.   :   0             Min.   :  0.0           Min.   :   0  
 1st Qu.: 895             1st Qu.:313.0           1st Qu.:3575  
 Median :1091             Median :313.0           Median :3950  
 Mean   :1132             Mean   :308.6           Mean   :3914  
 3rd Qu.:1371             3rd Qu.:335.0           3rd Qu.:4300  
 Max.   :2463             Max.   :739.0           Max.   :5925  
 spent_vespene    food_used_army  food_used_economy killed_minerals_none
 Min.   :   0.0   Min.   : 0.00   Min.   : 0.00     Min.   : 0.00000    
 1st Qu.: 650.0   1st Qu.:12.00   1st Qu.:24.00     1st Qu.: 0.00000    
 Median : 800.0   Median :16.00   Median :27.00     Median : 0.00000    
 Mean   : 766.3   Mean   :15.78   Mean   :27.23     Mean   : 0.00714    
 3rd Qu.: 925.0   3rd Qu.:20.00   3rd Qu.:31.00     3rd Qu.: 0.00000    
 Max.   :1325.0   Max.   :42.00   Max.   :49.00     Max.   :50.00000    
 killed_minerals_army killed_minerals_economy killed_minerals_technology
 Min.   :   0.0       Min.   :   0.0          Min.   :  0.000           
 1st Qu.:   0.0       1st Qu.:   0.0          1st Qu.:  0.000           
 Median :  50.0       Median :  50.0          Median :  0.000           
 Mean   : 126.3       Mean   : 101.2          Mean   :  4.427           
 3rd Qu.: 200.0       3rd Qu.: 100.0          3rd Qu.:  0.000           
 Max.   :1500.0       Max.   :2000.0          Max.   :550.000           
 killed_vespene_army killed_vespene_economy killed_vespene_technology
 Min.   :  0.00      Min.   :  0.00000      Min.   :  0.00           
 1st Qu.:  0.00      1st Qu.:  0.00000      1st Qu.:  0.00           
 Median :  0.00      Median :  0.00000      Median :  0.00           
 Mean   : 57.65      Mean   :  0.04284      Mean   :  1.06           
 3rd Qu.:100.00      3rd Qu.:  0.00000      3rd Qu.:  0.00           
 Max.   :700.00      Max.   :150.00000      Max.   :275.00           
 lost_minerals_none lost_minerals_army lost_minerals_economy
 Min.   :-76.0000   Min.   :   0.0     Min.   :-300.00      
 1st Qu.:  0.0000   1st Qu.:   0.0     1st Qu.:   0.00      
 Median :  0.0000   Median :  50.0     Median :  50.00      
 Mean   : -0.1512   Mean   : 125.2     Mean   :  93.71      
 3rd Qu.:  0.0000   3rd Qu.: 200.0     3rd Qu.: 100.00      
 Max.   :  8.0000   Max.   :1400.0     Max.   :1850.00      
 lost_minerals_technology lost_vespene_none  lost_vespene_army
 Min.   :-226.0000        Min.   :-76.0000   Min.   :  0.0    
 1st Qu.:   0.0000        1st Qu.:  0.0000   1st Qu.:  0.0    
 Median :   0.0000        Median :  0.0000   Median : 50.0    
 Mean   :  -0.5793        Mean   : -0.1628   Mean   : 59.6    
 3rd Qu.:   0.0000        3rd Qu.:  0.0000   3rd Qu.:100.0    
 Max.   : 404.0000        Max.   :  0.0000   Max.   :650.0    
 lost_vespene_economy lost_vespene_technology friendly_fire_minerals_none
 Min.   :  0.0000     Min.   :-150.000        Min.   :  0.0000           
 1st Qu.:  0.0000     1st Qu.:   0.000        1st Qu.:  0.0000           
 Median :  0.0000     Median :   0.000        Median :  0.0000           
 Mean   :  0.1738     Mean   :  -1.152        Mean   :  0.2142           
 3rd Qu.:  0.0000     3rd Qu.:   0.000        3rd Qu.:  0.0000           
 Max.   :171.0000     Max.   : 225.000        Max.   :100.0000           
 friendly_fire_minerals_army friendly_fire_minerals_economy
 Min.   :  0.0000            Min.   :  0.000               
 1st Qu.:  0.0000            1st Qu.:  0.000               
 Median :  0.0000            Median :  0.000               
 Mean   :  0.2856            Mean   :  6.652               
 3rd Qu.:  0.0000            3rd Qu.:  0.000               
 Max.   :150.0000            Max.   :400.000               
 friendly_fire_minerals_technology friendly_fire_vespene_army
 Min.   :  0.000                   Min.   :  0.0000          
 1st Qu.:  0.000                   1st Qu.:  0.0000          
 Median :  0.000                   Median :  0.0000          
 Mean   :  7.466                   Mean   :  0.1571          
 3rd Qu.:  0.000                   3rd Qu.:  0.0000          
 Max.   :300.000                   Max.   :100.0000          
 friendly_fire_vespene_technology used_minerals_none used_minerals_army
 Min.   :  0.000                  Min.   :  0.00     Min.   :   0.0    
 1st Qu.:  0.000                  1st Qu.:  0.00     1st Qu.: 600.0    
 Median :  0.000                  Median : 50.00     Median : 800.0    
 Mean   :  2.928                  Mean   : 53.87     Mean   : 795.5    
 3rd Qu.:  0.000                  3rd Qu.:100.00     3rd Qu.:1000.0    
 Max.   :200.000                  Max.   :300.00     Max.   :2100.0    
 used_minerals_economy used_minerals_technology used_minerals_upgrade
 Min.   :  75          Min.   :   0             Min.   :  0.00       
 1st Qu.:2600          1st Qu.: 650             1st Qu.:  0.00       
 Median :2950          Median : 800             Median :  0.00       
 Mean   :2923          Mean   : 812             Mean   : 61.46       
 3rd Qu.:3300          3rd Qu.: 975             3rd Qu.:100.00       
 Max.   :4850          Max.   :1800             Max.   :450.00       
 used_vespene_none used_vespene_army used_vespene_economy
 Min.   : 0.000    Min.   :  0.0     Min.   :  0.000     
 1st Qu.: 0.000    1st Qu.:200.0     1st Qu.:  0.000     
 Median : 0.000    Median :350.0     Median :  0.000     
 Mean   : 6.541    Mean   :341.1     Mean   :  3.321     
 3rd Qu.: 0.000    3rd Qu.:475.0     3rd Qu.:  0.000     
 Max.   :50.000    Max.   :925.0     Max.   :450.000     
 used_vespene_technology total_used_minerals_none total_used_minerals_army
 Min.   :  0.0           Min.   : 0.000           Min.   :   0            
 1st Qu.:250.0           1st Qu.: 0.000           1st Qu.: 550            
 Median :275.0           Median : 0.000           Median : 750            
 Mean   :277.7           Mean   : 3.456           Mean   : 744            
 3rd Qu.:300.0           3rd Qu.: 0.000           3rd Qu.: 900            
 Max.   :600.0           Max.   :50.000           Max.   :2150            
 total_used_minerals_economy total_used_minerals_technology
 Min.   :1000                Min.   :   0.0                
 1st Qu.:2600                1st Qu.: 575.0                
 Median :3050                Median : 700.0                
 Mean   :3021                Mean   : 721.6                
 3rd Qu.:3450                3rd Qu.: 850.0                
 Max.   :4675                Max.   :1650.0                
 total_used_minerals_upgrade total_used_vespene_army total_used_vespene_economy
 Min.   :  0.00              Min.   :  0.0           Min.   :  0.000           
 1st Qu.:  0.00              1st Qu.:150.0           1st Qu.:  0.000           
 Median :  0.00              Median :300.0           Median :  0.000           
 Mean   : 14.67              Mean   :299.1           Mean   :  5.484           
 3rd Qu.:  0.00              3rd Qu.:425.0           3rd Qu.:  0.000           
 Max.   :250.00              Max.   :850.0           Max.   :900.000           
 total_used_vespene_technology total_damage_dealt_life total_damage_taken_life
 Min.   :  0.0                 Min.   :   0.0          Min.   :   0.0         
 1st Qu.:225.0                 1st Qu.:  82.0          1st Qu.:  83.0         
 Median :275.0                 Median : 272.0          Median : 256.0         
 Mean   :254.8                 Mean   : 466.9          Mean   : 450.7         
 3rd Qu.:300.0                 3rd Qu.: 595.0          3rd Qu.: 574.1         
 Max.   :550.0                 Max.   :7750.8          Max.   :5945.8         
 total_healed_life    minerals         vespene         food_cap     
 Min.   :   0.00   Min.   :   0.0   Min.   :  0.0   Min.   :  0.00  
 1st Qu.:   0.00   1st Qu.: 135.0   1st Qu.:123.0   1st Qu.: 47.00  
 Median :   0.00   Median : 257.5   Median :206.0   Median : 54.00  
 Mean   :  26.87   Mean   : 321.6   Mean   :232.8   Mean   : 54.85  
 3rd Qu.:   0.00   3rd Qu.: 430.0   3rd Qu.:315.0   3rd Qu.: 62.00  
 Max.   :2688.87   Max.   :3450.0   Max.   :990.0   Max.   :103.00  
   food_used      food_workers  idle_worker_count   army_count    
 Min.   : 0.00   Min.   : 0.0   Min.   : 0.0000   Min.   : 0.000  
 1st Qu.:38.00   1st Qu.:23.0   1st Qu.: 0.0000   1st Qu.: 5.000  
 Median :44.00   Median :27.0   Median : 0.0000   Median : 7.000  
 Mean   :43.01   Mean   :26.5   Mean   : 0.7616   Mean   : 7.711  
 3rd Qu.:49.00   3rd Qu.:30.0   3rd Qu.: 1.0000   3rd Qu.:10.000  
 Max.   :70.00   Max.   :47.0   Max.   :27.0000   Max.   :30.000  
     result    
 Defeat :3436  
 Victory:3566  
               
               
               
               
Error in model(data[data_train_idx, ], res[data_train_idx], data[data_test_idx,  : 
  cannot open file '/data/volz/class/R/class.rdb': No such file or directory
In addition: Warning message:
In model(data[data_train_idx, ], res[data_train_idx], data[data_test_idx,  :
  restarting interrupted promise evaluation
Execution halted
