
R version 3.4.1 (2017-06-30) -- "Single Candle"
Copyright (C) 2017 The R Foundation for Statistical Computing
Platform: x86_64-pc-linux-gnu (64-bit)

R is free software and comes with ABSOLUTELY NO WARRANTY.
You are welcome to redistribute it under certain conditions.
Type 'license()' or 'licence()' for distribution details.

R is a collaborative project with many contributors.
Type 'contributors()' for more information and
'citation()' on how to cite R or R packages in publications.

Type 'demo()' for some demos, 'help()' for on-line help, or
'help.start()' for an HTML browser interface to help.
Type 'q()' to quit R.

> #!/usr/bin/env Rscript
> args = commandArgs(trailingOnly=TRUE)
> print(args)
[1] "ex_num=3" "mod=2"    "reps=2"   "id=6"    
> for(i in 1:length(args)){
+   eval(parse(text=args[[i]]))
+ }
> #params: ex_num, mod, reps, id
> 
> #install.packages("backports", lib="/data/volz", repos = "http://cran.us.r-project.org")
> library(backports, lib.loc = "/data/volz")
> #install.packages("BBmisc", lib="/data/volz", repos = "http://cran.us.r-project.org")
> library(BBmisc, lib.loc = "/data/volz")

Attaching package: 'BBmisc'

The following object is masked from 'package:backports':

    isFALSE

> 
> lido=TRUE
> setwd("/home/volz/sc2model")
> source("loadData.R")
> #models = c("randomForest.R")
> #models = c("classification_n.R")
> models=c("ann_model.R", "classification_n.R", "randomForest.R", "dnn.R", "knn.R")
> #ticks = seq(224, 152671, 224)
> if(ex_num==1){
+   timeWindow= 0
+   ticks= c(NA)
+   feature_select="ds"
+   dataAgg=NA
+   both=FALSE
+ }else if(ex_num==2){
+   timeWindow= 0
+   ticks= c(NA)
+   feature_select="expert"
+   dataAgg=NA
+   both=FALSE
+ }else if(ex_num==3){
+   timeWindow= 0
+   ticks= c(NA)
+   feature_select="ds"
+   dataAgg=NA
+   both=TRUE
+ }else if(ex_num==4){
+   timeWindow= 1
+   ticks = seq(6720, 26880, 224)
+   feature_select="ds"
+   dataAgg="none"
+   both=FALSE
+ }else if(ex_num==5){
+   timeWindow= 1
+   ticks = seq(6720, 26880, 224)
+   feature_select="ds"
+   dataAgg="abs"
+   both=FALSE
+ }else if(ex_num==6){
+   timeWindow= 1
+   ticks = seq(6720, 26880, 224)
+   feature_select="ds"
+   dataAgg="parallel"
+   both=FALSE
+ }else if(ex_num==7){
+   timeWindow= 5
+   ticks = seq(6720, 26880, 224)
+   feature_select="ds"
+   dataAgg="none"
+   both=FALSE
+ }else if(ex_num==8){
+   timeWindow= 5
+   ticks = seq(6720, 26880, 224)
+   feature_select="ds"
+   dataAgg="abs"
+   both=FALSE
+ }else if(ex_num==9){
+   timeWindow= 5
+   ticks = seq(6720, 26880, 224)
+   feature_select="ds"
+   dataAgg="parallel"
+   both=FALSE
+ }else if(ex_num==10){
+   timeWindow= 0
+   ticks = seq(6720, 26880, 224)
+   feature_select="ds"
+   dataAgg=NA
+   both=FALSE
+ }else if(ex_num==11){
+   timeWindow= 5
+   ticks = seq(6720, 26880, 224)
+   feature_select="ds"
+   dataAgg="none"
+   both=TRUE
+ }else if(ex_num==12){
+   timeWindow= 0
+   ticks = c(NA)
+   feature_select="expert2"
+   dataAgg=NA
+   both=FALSE
+ }
> 
> print(mod)
[1] 2
> print(ex_num)
[1] 3
> print(reps)
[1] 2
> 
> #6720 bis 26880 #5-20 Minuten
> trainSplit = 0.9
> 
> allResults = data.frame(method=integer(), tick=integer(), features=character(), mean=double(),
+                         sd=double(), stringsAsFactors=FALSE)
> 
>   accs = numeric(length(ticks))
>   print(paste("sourcing", models[mod]))
[1] "sourcing classification_n.R"
>   source(models[mod])
trying URL 'http://cran.us.r-project.org/src/contrib/rpart_4.1-13.tar.gz'
Content type 'application/x-gzip' length 818290 bytes (799 KB)
==================================================
downloaded 799 KB

ERROR: failed to lock directory '/data/volz' for modifying
Try removing '/data/volz/00LOCK-rpart'

The downloaded source packages are in
	'/scratch/volz-/RtmpQUDv3d/downloaded_packages'
Error: package or namespace load failed for 'rpart' in gzfile(file, "rb"):
 cannot open the connection
In addition: Warning messages:
1: In install.packages("rpart", lib = "/data/volz", repos = "http://cran.us.r-project.org") :
  installation of package 'rpart' had non-zero exit status
2: In gzfile(file, "rb") :
  cannot open compressed file '/data/volz/rpart/data/Rdata.rdx', probable reason 'No such file or directory'
Execution halted
