
R version 3.4.1 (2017-06-30) -- "Single Candle"
Copyright (C) 2017 The R Foundation for Statistical Computing
Platform: x86_64-pc-linux-gnu (64-bit)

R is free software and comes with ABSOLUTELY NO WARRANTY.
You are welcome to redistribute it under certain conditions.
Type 'license()' or 'licence()' for distribution details.

R is a collaborative project with many contributors.
Type 'contributors()' for more information and
'citation()' on how to cite R or R packages in publications.

Type 'demo()' for some demos, 'help()' for on-line help, or
'help.start()' for an HTML browser interface to help.
Type 'q()' to quit R.

> #!/usr/bin/env Rscript
> args = commandArgs(trailingOnly=TRUE)
> print(args)
[1] "ex_num=1" "mod=2"    "reps=2"  
> for(i in 1:length(args)){
+   eval(parse(text=args[[i]]))
+ }
> #params: ex_num, mod, reps
> 
> #install.packages("backports", lib="/data/volz", repos = "http://cran.us.r-project.org")
> library(backports, lib.loc = "/data/volz")
> #install.packages("BBmisc", lib="/data/volz", repos = "http://cran.us.r-project.org")
> library(BBmisc, lib.loc = "/data/volz")

Attaching package: 'BBmisc'

The following object is masked from 'package:backports':

    isFALSE

> 
> lido=TRUE
> setwd("/home/volz/sc2model")
> source("loadData.R")
> #models = c("randomForest.R")
> #models = c("classification_n.R")
> models=c("ann_model.R", "classification_n.R", "randomForest.R", "keras.R", "knn.R")
> #ticks = seq(224, 152671, 224)
> if(ex_num==1){
+   timeWindow= 0
+   ticks= c(NA)
+   feature_select="ds"
+   dataAgg=NA
+   both=FALSE
+ }else if(ex_num==2){
+   timeWindow= 0
+   ticks= c(NA)
+   feature_select="expert"
+   dataAgg=NA
+   both=FALSE
+ }else if(ex_num==3){
+   timeWindow= 0
+   ticks= c(NA)
+   feature_select="ds"
+   dataAgg=NA
+   both=TRUE
+ }else if(ex_num==4){
+   timeWindow= 1
+   ticks = seq(6720, 26880, 224)
+   feature_select="ds"
+   dataAgg="none"
+   both=FALSE
+ }else if(ex_num==5){
+   timeWindow= 1
+   ticks = seq(6720, 26880, 224)
+   feature_select="ds"
+   dataAgg="abs"
+   both=FALSE
+ }else if(ex_num==6){
+   timeWindow= 1
+   ticks = seq(6720, 26880, 224)
+   feature_select="ds"
+   dataAgg="parallel"
+   both=FALSE
+ }else if(ex_num==7){
+   timeWindow= 5
+   ticks = seq(6720, 26880, 224)
+   feature_select="ds"
+   dataAgg="none"
+   both=FALSE
+ }else if(ex_num==8){
+   timeWindow= 5
+   ticks = seq(6720, 26880, 224)
+   feature_select="ds"
+   dataAgg="abs"
+   both=FALSE
+ }else if(ex_num==9){
+   timeWindow= 5
+   ticks = seq(6720, 26880, 224)
+   feature_select="ds"
+   dataAgg="parallel"
+   both=FALSE
+ }else if(ex_num==10){
+   timeWindow= 0
+   ticks = seq(6720, 26880, 224)
+   feature_select="ds"
+   dataAgg=NA
+   both=FALSE
+ }else if(ex_num==11){
+   timeWindow= 5
+   ticks = seq(6720, 26880, 224)
+   feature_select="ds"
+   dataAgg="none"
+   both=TRUE
+ }else if(ex_num==12){
+   timeWindow= 0
+   ticks = c(NA)
+   feature_select="expert2"
+   dataAgg=NA
+   both=FALSE
+ }
> 
> print(mod)
[1] 2
> print(ex_num)
[1] 1
> print(reps)
[1] 2
> 
> #6720 bis 26880 #5-20 Minuten
> trainSplit = 0.9
> 
> allResults = data.frame(method=integer(), tick=integer(), features=character(), mean=double(),
+                         sd=double(), stringsAsFactors=FALSE)
> 
>   accs = numeric(length(ticks))
>   print(paste("sourcing", models[mod]))
[1] "sourcing classification_n.R"
>   source(models[mod])
Loading required package: rpart
>   for(t in 1:length(ticks)){
+     trained_models = list()
+     print(ticks[t])
+     acc = numeric(reps)
+     if(is.na(ticks[t])){
+       ticks_req = NA
+     }else{
+       ticks_req = seq(max(1, ticks[t]/224-timeWindow)*224, ticks[t], 224) 
+     }
+     print(ticks_req)
+     data = loadData(which="terran2", ticks=ticks_req, feature_select =feature_select,
+                     dataAgg=dataAgg, both=both)
+     if(ncol(data)==1){
+       next
+     }
+     print(summary(data))
+     res = data$result
+     ids = data$id
+     data = data[, !(names(data) %in% c("id", "result"))]
+     data = BBmisc::normalize(data, method = "range", range = c(0, 1))
+     #print(summary(data))
+     for(i in 1:reps){
+       games = unique(ids)
+       data_train_idx_g<- sample(1:length(games), round(trainSplit*length(games)))
+       data_test_idx_g <- setdiff(1:length(games),data_train_idx_g)
+       data_train_idx = which(ids %in% games[data_train_idx_g])
+       data_test_idx = which(ids %in% games[data_test_idx_g])
+       acc[i] = model(data[data_train_idx, ], res[data_train_idx], data[data_test_idx, ], res[data_test_idx] ) 
+     }
+     accs[t] = mean(acc)
+     allResults[nrow(allResults) + 1,] = c( mod, ticks[t], feature_select, mean(acc), sd(acc) )
+   }
[1] NA
[1] NA
       id         game_loop          score       idle_production_time
 Min.   :   1   Min.   :   692   Min.   :    0   Min.   :     0.94   
 1st Qu.:1225   1st Qu.:  9230   1st Qu.: 5955   1st Qu.:  1077.36   
 Median :2460   Median : 15316   Median :10662   Median :  3558.47   
 Mean   :2473   Mean   : 17188   Mean   :12831   Mean   :  6567.14   
 3rd Qu.:3725   3rd Qu.: 22076   3rd Qu.:17376   3rd Qu.:  7932.73   
 Max.   :4994   Max.   :152671   Max.   :99354   Max.   :129123.69   
 idle_worker_time  total_value_units total_value_structures killed_value_units
 Min.   :    0.0   Min.   :  600     Min.   :  400          Min.   :    0     
 1st Qu.:  231.8   1st Qu.: 3775     1st Qu.: 2625          1st Qu.: 1400     
 Median :  781.2   Median : 8900     Median : 4775          Median : 4225     
 Mean   : 2135.2   Mean   :11440     Mean   : 5330          Mean   : 7182     
 3rd Qu.: 2253.7   3rd Qu.:16050     3rd Qu.: 7150          3rd Qu.:10125     
 Max.   :83304.6   Max.   :84050     Max.   :40975          Max.   :78125     
 killed_value_structures collected_minerals collected_vespene
 Min.   :    0           Min.   :    0      Min.   :    0    
 1st Qu.:    0           1st Qu.: 5811      1st Qu.: 1492    
 Median :  200           Median :12958      Median : 3628    
 Mean   : 1030           Mean   :15520      Mean   : 4834    
 3rd Qu.: 1100           3rd Qu.:22002      3rd Qu.: 6732    
 Max.   :24350           Max.   :90145      Max.   :38048    
 collection_rate_minerals collection_rate_vespene spent_minerals 
 Min.   :   0             Min.   :   0.0          Min.   :    0  
 1st Qu.: 643             1st Qu.: 156.0          1st Qu.: 5175  
 Median :1035             Median : 313.0          Median :11875  
 Mean   :1115             Mean   : 372.4          Mean   :14248  
 3rd Qu.:1595             3rd Qu.: 582.0          3rd Qu.:20275  
 Max.   :5515             Max.   :1814.0          Max.   :77637  
 spent_vespene   food_used_army   food_used_economy killed_minerals_none
 Min.   :    0   Min.   :  0.00   Min.   :  0.00    Min.   :  0.000     
 1st Qu.: 1145   1st Qu.: 10.00   1st Qu.: 19.00    1st Qu.:  0.000     
 Median : 2825   Median : 25.00   Median : 29.00    Median :  0.000     
 Mean   : 3940   Mean   : 38.47   Mean   : 32.31    Mean   :  3.116     
 3rd Qu.: 5375   3rd Qu.: 59.00   3rd Qu.: 45.00    3rd Qu.:  0.000     
 Max.   :31587   Max.   :176.00   Max.   :119.00    Max.   :200.000     
 killed_minerals_army killed_minerals_economy killed_minerals_technology
 Min.   :    0        Min.   :    0.0         Min.   :    0.0           
 1st Qu.:  700        1st Qu.:  150.0         1st Qu.:    0.0           
 Median : 2600        Median :  787.5         Median :    0.0           
 Mean   : 4661        Mean   : 1455.5         Mean   :  352.4           
 3rd Qu.: 6550        3rd Qu.: 1950.0         3rd Qu.:  300.0           
 Max.   :53650        Max.   :17125.0         Max.   :13175.0           
 killed_vespene_army killed_vespene_economy killed_vespene_technology
 Min.   :    0       Min.   :   0.00        Min.   :   0.00          
 1st Qu.:  200       1st Qu.:   0.00        1st Qu.:   0.00          
 Median :  825       Median :   0.00        Median :   0.00          
 Mean   : 1626       Mean   :  22.84        Mean   :  89.11          
 3rd Qu.: 2125       3rd Qu.:   0.00        3rd Qu.:  75.00          
 Max.   :21625       Max.   :2550.00        Max.   :3125.00          
 lost_minerals_none lost_minerals_army lost_minerals_economy
 Min.   :-114.000   Min.   :    0      Min.   : -300.0      
 1st Qu.:   0.000   1st Qu.:  650      1st Qu.:  148.2      
 Median :   0.000   Median : 2600      Median :  750.0      
 Mean   :   2.587   Mean   : 4654      Mean   : 1456.4      
 3rd Qu.:   0.000   3rd Qu.: 6620      3rd Qu.: 1978.2      
 Max.   : 300.000   Max.   :44170      Max.   :19736.0      
 lost_minerals_technology lost_vespene_none lost_vespene_army
 Min.   : -575.0          Min.   :-114.00   Min.   :    0    
 1st Qu.:    0.0          1st Qu.:   0.00   1st Qu.:  200    
 Median :    0.0          Median :   0.00   Median :  825    
 Mean   :  340.5          Mean   :   2.51   Mean   : 1636    
 3rd Qu.:  300.0          3rd Qu.:   0.00   3rd Qu.: 2127    
 Max.   :18302.0          Max.   : 300.00   Max.   :22209    
 lost_vespene_economy lost_vespene_technology friendly_fire_minerals_none
 Min.   :   0.0       Min.   :-244.00         Min.   :  0.0000           
 1st Qu.:   0.0       1st Qu.:   0.00         1st Qu.:  0.0000           
 Median :   0.0       Median :   0.00         Median :  0.0000           
 Mean   :  26.7       Mean   :  85.87         Mean   :  0.8849           
 3rd Qu.:   0.0       3rd Qu.:  75.00         3rd Qu.:  0.0000           
 Max.   :2381.0       Max.   :3486.00         Max.   :250.0000           
 friendly_fire_minerals_army friendly_fire_minerals_economy
 Min.   :   0.00             Min.   :   0.00               
 1st Qu.:   0.00             1st Qu.:   0.00               
 Median :   0.00             Median :   0.00               
 Mean   :  25.59             Mean   :  49.79               
 3rd Qu.:   0.00             3rd Qu.:   0.00               
 Max.   :2950.00             Max.   :4025.00               
 friendly_fire_minerals_technology friendly_fire_vespene_army
 Min.   :   0.00                   Min.   :   0.00           
 1st Qu.:   0.00                   1st Qu.:   0.00           
 Median :   0.00                   Median :   0.00           
 Mean   :  28.05                   Mean   :  14.43           
 3rd Qu.:   0.00                   3rd Qu.:   0.00           
 Max.   :1575.00                   Max.   :2650.00           
 friendly_fire_vespene_economy friendly_fire_vespene_technology
 Min.   :  0.00000             Min.   :   0.00                 
 1st Qu.:  0.00000             1st Qu.:   0.00                 
 Median :  0.00000             Median :   0.00                 
 Mean   :  0.07478             Mean   :  12.05                 
 3rd Qu.:  0.00000             3rd Qu.:   0.00                 
 Max.   :300.00000             Max.   :1200.00                 
 used_minerals_none used_minerals_army used_minerals_economy
 Min.   :-100.00    Min.   :    0      Min.   :    0        
 1st Qu.:   0.00    1st Qu.:  500      1st Qu.: 2400        
 Median :  50.00    Median : 1300      Median : 3775        
 Mean   :  56.74    Mean   : 2020      Mean   : 4214        
 3rd Qu.: 100.00    3rd Qu.: 3050      3rd Qu.: 5700        
 Max.   :3000.00    Max.   :10200      Max.   :23125        
 used_minerals_technology used_minerals_upgrade used_vespene_none
 Min.   : -200            Min.   :   0.0        Min.   :-100.00  
 1st Qu.:  750            1st Qu.: 100.0        1st Qu.:   0.00  
 Median : 1475            Median : 350.0        Median :   0.00  
 Mean   : 1722            Mean   : 580.6        Mean   :  26.03  
 3rd Qu.: 2350            3rd Qu.: 850.0        3rd Qu.:  50.00  
 Max.   :19175            Max.   :4625.0        Max.   : 400.00  
 used_vespene_army used_vespene_economy used_vespene_technology
 Min.   :   0.0    Min.   :   0.00      Min.   :-200.0         
 1st Qu.: 225.0    1st Qu.:   0.00      1st Qu.: 250.0         
 Median : 600.0    Median :   0.00      Median : 450.0         
 Mean   : 941.9    Mean   :  45.54      Mean   : 534.5         
 3rd Qu.:1275.0    3rd Qu.:   0.00      3rd Qu.: 725.0         
 Max.   :9725.0    Max.   :1950.00      Max.   :3125.0         
 total_used_minerals_none total_used_minerals_army total_used_minerals_economy
 Min.   :  0.00           Min.   :    0            Min.   : 1000              
 1st Qu.:  0.00           1st Qu.: 1550            1st Qu.: 3400              
 Median :  0.00           Median : 4500            Median : 5650              
 Mean   : 28.99           Mean   : 6437            Mean   : 5983              
 3rd Qu.: 50.00           3rd Qu.: 9400            3rd Qu.: 7900              
 Max.   :400.00           Max.   :52800            Max.   :33800              
 total_used_minerals_technology total_used_minerals_upgrade
 Min.   :    0                  Min.   :   0.0             
 1st Qu.:  875                  1st Qu.:   0.0             
 Median : 1725                  Median : 300.0             
 Mean   : 2030                  Mean   : 500.2             
 3rd Qu.: 2675                  3rd Qu.: 750.0             
 Max.   :21475                  Max.   :4625.0             
 total_used_vespene_army total_used_vespene_economy
 Min.   :    0           Min.   :   0.0            
 1st Qu.:  625           1st Qu.:   0.0            
 Median : 1650           Median :   0.0            
 Mean   : 2471           Mean   : 131.8            
 3rd Qu.: 3275           3rd Qu.:   0.0            
 Max.   :24975           Max.   :5400.0            
 total_used_vespene_technology total_damage_dealt_life total_damage_taken_life
 Min.   :   0.0                Min.   :     0          Min.   :     0         
 1st Qu.: 300.0                1st Qu.:  2122          1st Qu.:  1944         
 Median : 500.0                Median :  6283          Median :  6436         
 Mean   : 618.9                Mean   : 11155          Mean   : 11151         
 3rd Qu.: 825.0                3rd Qu.: 14914          3rd Qu.: 14595         
 Max.   :6725.0                Max.   :167112          Max.   :158141         
 total_healed_life     minerals        vespene           food_cap    
 Min.   :    0.00   Min.   :    0   Min.   :    0.0   Min.   :  0.0  
 1st Qu.:   10.49   1st Qu.:  313   1st Qu.:  242.0   1st Qu.: 55.0  
 Median :  553.86   Median :  692   Median :  540.0   Median :101.0  
 Mean   : 1484.42   Mean   : 1248   Mean   :  861.1   Mean   :106.9  
 3rd Qu.: 1914.15   3rd Qu.: 1399   3rd Qu.: 1137.8   3rd Qu.:157.0  
 Max.   :28203.93   Max.   :22330   Max.   :14213.0   Max.   :200.0  
   food_used       food_workers    idle_worker_count   army_count    
 Min.   :  0.00   Min.   :  0.00   Min.   : 0.000    Min.   :  0.00  
 1st Qu.: 30.00   1st Qu.: 19.00   1st Qu.: 0.000    1st Qu.:  4.00  
 Median : 57.00   Median : 29.00   Median : 2.000    Median : 12.00  
 Mean   : 70.78   Mean   : 32.05   Mean   : 7.039    Mean   : 20.17  
 3rd Qu.:103.00   3rd Qu.: 45.00   3rd Qu.: 8.000    3rd Qu.: 31.00  
 Max.   :200.00   Max.   :111.00   Max.   :85.000    Max.   :142.00  
     result    
 Defeat :1949  
 Victory:2063  
               
               
               
               
> 
> print(allResults)
  method tick features              mean                 sd
1      2 <NA>       ds 0.874064837905237 0.0193969441223242
> 
> write.table(allResults, paste("tloopres_", ex_num, "_", mod, "_", reps, ".txt", sep=""), sep="\t", quote=FALSE)
> 
> proc.time()
   user  system elapsed 
  9.602   1.118   9.982 
