
R version 3.4.1 (2017-06-30) -- "Single Candle"
Copyright (C) 2017 The R Foundation for Statistical Computing
Platform: x86_64-pc-linux-gnu (64-bit)

R is free software and comes with ABSOLUTELY NO WARRANTY.
You are welcome to redistribute it under certain conditions.
Type 'license()' or 'licence()' for distribution details.

R is a collaborative project with many contributors.
Type 'contributors()' for more information and
'citation()' on how to cite R or R packages in publications.

Type 'demo()' for some demos, 'help()' for on-line help, or
'help.start()' for an HTML browser interface to help.
Type 'q()' to quit R.

> #!/usr/bin/env Rscript
> args = commandArgs(trailingOnly=TRUE)
> print(args)
[1] "ex_num=10" "mod=5"     "reps=2"    "id=14"    
> for(i in 1:length(args)){
+   eval(parse(text=args[[i]]))
+ }
> #params: ex_num, mod, reps, id
> 
> #install.packages("backports", lib="/data/volz", repos = "http://cran.us.r-project.org")
> library(backports, lib.loc = "/data/volz")
> #install.packages("BBmisc", lib="/data/volz", repos = "http://cran.us.r-project.org")
> library(BBmisc, lib.loc = "/data/volz")

Attaching package: 'BBmisc'

The following object is masked from 'package:backports':

    isFALSE

> 
> lido=TRUE
> setwd("/home/volz/sc2model")
> source("loadData.R")
> #models = c("randomForest.R")
> #models = c("classification_n.R")
> models=c("ann_model.R", "classification_n.R", "randomForest.R", "dnn.R", "knn.R")
> #ticks = seq(224, 152671, 224)
> if(ex_num==1){
+   timeWindow= 0
+   ticks= c(NA)
+   feature_select="ds"
+   dataAgg=NA
+   both=FALSE
+ }else if(ex_num==2){
+   timeWindow= 0
+   ticks= c(NA)
+   feature_select="expert"
+   dataAgg=NA
+   both=FALSE
+ }else if(ex_num==3){
+   timeWindow= 0
+   ticks= c(NA)
+   feature_select="ds"
+   dataAgg=NA
+   both=TRUE
+ }else if(ex_num==4){
+   timeWindow= 1
+   ticks = seq(6720, 26880, 224)
+   feature_select="ds"
+   dataAgg="none"
+   both=FALSE
+ }else if(ex_num==5){
+   timeWindow= 1
+   ticks = seq(6720, 26880, 224)
+   feature_select="ds"
+   dataAgg="abs"
+   both=FALSE
+ }else if(ex_num==6){
+   timeWindow= 1
+   ticks = seq(6720, 26880, 224)
+   feature_select="ds"
+   dataAgg="parallel"
+   both=FALSE
+ }else if(ex_num==7){
+   timeWindow= 5
+   ticks = seq(6720, 26880, 224)
+   feature_select="ds"
+   dataAgg="none"
+   both=FALSE
+ }else if(ex_num==8){
+   timeWindow= 5
+   ticks = seq(6720, 26880, 224)
+   feature_select="ds"
+   dataAgg="abs"
+   both=FALSE
+ }else if(ex_num==9){
+   timeWindow= 5
+   ticks = seq(6720, 26880, 224)
+   feature_select="ds"
+   dataAgg="parallel"
+   both=FALSE
+ }else if(ex_num==10){
+   timeWindow= 0
+   ticks = seq(6720, 26880, 224)
+   feature_select="ds"
+   dataAgg=NA
+   both=FALSE
+ }else if(ex_num==11){
+   timeWindow= 5
+   ticks = seq(6720, 26880, 224)
+   feature_select="ds"
+   dataAgg="none"
+   both=TRUE
+ }else if(ex_num==12){
+   timeWindow= 0
+   ticks = c(NA)
+   feature_select="expert2"
+   dataAgg=NA
+   both=FALSE
+ }
> 
> print(mod)
[1] 5
> print(ex_num)
[1] 10
> print(reps)
[1] 2
> 
> #6720 bis 26880 #5-20 Minuten
> trainSplit = 0.9
> 
> allResults = data.frame(method=integer(), tick=integer(), features=character(), mean=double(),
+                         sd=double(), stringsAsFactors=FALSE)
> 
>   accs = numeric(length(ticks))
>   print(paste("sourcing", models[mod]))
[1] "sourcing knn.R"
>   source(models[mod])
trying URL 'http://cran.us.r-project.org/src/contrib/class_7.3-14.tar.gz'
Content type 'application/x-gzip' length 19726 bytes (19 KB)
==================================================
downloaded 19 KB

* installing *source* package 'class' ...
** package 'class' successfully unpacked and MD5 sums checked
** libs
gcc -std=gnu99 -I/sysdata/shared/sfw/R/3.4.1-gcc49-base/lib64/R/include -DNDEBUG   -I/usr/local/include   -fpic  -I/sysdata/shared/sfw/R/extralibs/include -I/usr/include/ncurses  -c class.c -o class.o
gcc -std=gnu99 -shared -L/sysdata/shared/sfw/R/extralibs/lib -L/usr/local/lib/openblas/0.2.17/lib64 -lopenblas -o class.so class.o
installing to /data/volz/class/libs
** R
** inst
** byte-compile and prepare package for lazy loading
** help
*** installing help indices
** building package indices
** testing if installed package can be loaded
* DONE (class)

The downloaded source packages are in
	'/scratch/volz-/RtmpwiemlT/downloaded_packages'
>   for(t in 1:length(ticks)){
+     trained_models = list()
+     print(ticks[t])
+     acc = numeric(reps)
+     if(is.na(ticks[t])){
+       ticks_req = NA
+     }else{
+       ticks_req = seq(max(1, ticks[t]/224-timeWindow)*224, ticks[t], 224) 
+     }
+     print(ticks_req)
+     data = loadData(which="terran2", ticks=ticks_req, feature_select =feature_select,
+                     dataAgg=dataAgg, both=both)
+     if(ncol(data)==1){
+       next
+     }
+     print(summary(data))
+     res = data$result
+     ids = data$id
+     data = data[, !(names(data) %in% c("id", "result"))]
+     data = BBmisc::normalize(data, method = "range", range = c(0, 1))
+     #print(summary(data))
+     for(i in 1:reps){
+       games = unique(ids)
+       data_train_idx_g<- sample(1:length(games), round(trainSplit*length(games)))
+       data_test_idx_g <- setdiff(1:length(games),data_train_idx_g)
+       data_train_idx = which(ids %in% games[data_train_idx_g])
+       data_test_idx = which(ids %in% games[data_test_idx_g])
+       acc[i] = model(data[data_train_idx, ], res[data_train_idx], data[data_test_idx, ], res[data_test_idx] ) 
+     }
+     accs[t] = mean(acc)
+     allResults[nrow(allResults) + 1,] = c( mod, ticks[t], feature_select, mean(acc), sd(acc) )
+   }
[1] 6720
[1] 6720
       id           score      idle_production_time idle_worker_time 
 Min.   :   1   Min.   : 400   Min.   :  13.81      Min.   :   0.00  
 1st Qu.:1223   1st Qu.:5608   1st Qu.: 358.39      1st Qu.:  49.73  
 Median :2452   Median :6125   Median : 467.69      Median :  92.66  
 Mean   :2469   Mean   :5995   Mean   : 486.74      Mean   : 131.35  
 3rd Qu.:3732   3rd Qu.:6538   3rd Qu.: 591.86      3rd Qu.: 168.88  
 Max.   :4994   Max.   :8038   Max.   :1293.62      Max.   :1691.75  
 total_value_units total_value_structures killed_value_units
 Min.   : 600      Min.   : 400           Min.   :   0.0    
 1st Qu.:2225      1st Qu.:2000           1st Qu.:  50.0    
 Median :2550      Median :2250           Median : 150.0    
 Mean   :2521      Mean   :2220           Mean   : 290.5    
 3rd Qu.:2850      3rd Qu.:2450           3rd Qu.: 450.0    
 Max.   :3750      Max.   :3175           Max.   :2200.0    
 killed_value_structures collected_minerals collected_vespene
 Min.   :   0.00         Min.   :   0       Min.   :   0     
 1st Qu.:   0.00         1st Qu.:3959       1st Qu.: 940     
 Median :   0.00         Median :4295       Median :1060     
 Mean   :  18.15         Mean   :4288       Mean   :1027     
 3rd Qu.:   0.00         3rd Qu.:4650       3rd Qu.:1192     
 Max.   :1375.00         Max.   :6430       Max.   :1488     
 collection_rate_minerals collection_rate_vespene spent_minerals
 Min.   :   0             Min.   :  0.0           Min.   :   0  
 1st Qu.: 895             1st Qu.:313.0           1st Qu.:3650  
 Median :1119             Median :313.0           Median :4025  
 Mean   :1140             Mean   :309.6           Mean   :4006  
 3rd Qu.:1399             3rd Qu.:335.0           3rd Qu.:4400  
 Max.   :2463             Max.   :739.0           Max.   :5925  
 spent_vespene    food_used_army  food_used_economy killed_minerals_none
 Min.   :   0.0   Min.   : 0.00   Min.   : 0.00     Min.   : 0.00000    
 1st Qu.: 675.0   1st Qu.:12.00   1st Qu.:24.00     1st Qu.: 0.00000    
 Median : 825.0   Median :16.00   Median :27.00     Median : 0.00000    
 Mean   : 789.1   Mean   :16.23   Mean   :27.48     Mean   : 0.01438    
 3rd Qu.: 950.0   3rd Qu.:20.00   3rd Qu.:32.00     3rd Qu.: 0.00000    
 Max.   :1325.0   Max.   :42.00   Max.   :49.00     Max.   :50.00000    
 killed_minerals_army killed_minerals_economy killed_minerals_technology
 Min.   :   0         Min.   :   0.0          Min.   :  0.000           
 1st Qu.:   0         1st Qu.:   0.0          1st Qu.:  0.000           
 Median :  50         Median :  50.0          Median :  0.000           
 Mean   : 135         Mean   : 106.6          Mean   :  4.826           
 3rd Qu.: 200         3rd Qu.: 100.0          3rd Qu.:  0.000           
 Max.   :1500         Max.   :2000.0          Max.   :550.000           
 killed_vespene_army killed_vespene_economy killed_vespene_technology
 Min.   :  0.00      Min.   :  0.00000      Min.   :  0.000          
 1st Qu.:  0.00      1st Qu.:  0.00000      1st Qu.:  0.000          
 Median :  0.00      Median :  0.00000      Median :  0.000          
 Mean   : 60.98      Mean   :  0.04315      Mean   :  1.144          
 3rd Qu.:100.00      3rd Qu.:  0.00000      3rd Qu.:  0.000          
 Max.   :700.00      Max.   :150.00000      Max.   :275.000          
 lost_minerals_none lost_minerals_army lost_minerals_economy
 Min.   :-76.0000   Min.   :   0.0     Min.   :-300.00      
 1st Qu.:  0.0000   1st Qu.:   0.0     1st Qu.:   0.00      
 Median :  0.0000   Median :  50.0     Median :  50.00      
 Mean   : -0.1631   Mean   : 133.4     Mean   :  98.92      
 3rd Qu.:  0.0000   3rd Qu.: 200.0     3rd Qu.: 100.00      
 Max.   :  8.0000   Max.   :1400.0     Max.   :1850.00      
 lost_minerals_technology lost_vespene_none  lost_vespene_army
 Min.   :-226.0000        Min.   :-76.0000   Min.   :  0.00   
 1st Qu.:   0.0000        1st Qu.:  0.0000   1st Qu.:  0.00   
 Median :   0.0000        Median :  0.0000   Median : 50.00   
 Mean   :  -0.4019        Mean   : -0.1749   Mean   : 63.15   
 3rd Qu.:   0.0000        3rd Qu.:  0.0000   3rd Qu.:100.00   
 Max.   : 404.0000        Max.   :  0.0000   Max.   :650.00   
 lost_vespene_economy lost_vespene_technology friendly_fire_minerals_none
 Min.   :  0.0000     Min.   :-113.000        Min.   :  0.0000           
 1st Qu.:  0.0000     1st Qu.:   0.000        1st Qu.:  0.0000           
 Median :  0.0000     Median :   0.000        Median :  0.0000           
 Mean   :  0.2103     Mean   :  -1.142        Mean   :  0.2301           
 3rd Qu.:  0.0000     3rd Qu.:   0.000        3rd Qu.:  0.0000           
 Max.   :171.0000     Max.   : 225.000        Max.   :100.0000           
 friendly_fire_minerals_army friendly_fire_minerals_economy
 Min.   :  0.0000            Min.   :  0.000               
 1st Qu.:  0.0000            1st Qu.:  0.000               
 Median :  0.0000            Median :  0.000               
 Mean   :  0.3165            Mean   :  6.631               
 3rd Qu.:  0.0000            3rd Qu.:  0.000               
 Max.   :150.0000            Max.   :400.000               
 friendly_fire_minerals_technology friendly_fire_vespene_army
 Min.   :  0.000                   Min.   :  0.0000          
 1st Qu.:  0.000                   1st Qu.:  0.0000          
 Median :  0.000                   Median :  0.0000          
 Mean   :  7.696                   Mean   :  0.1726          
 3rd Qu.:  0.000                   3rd Qu.:  0.0000          
 Max.   :300.000                   Max.   :100.0000          
 friendly_fire_vespene_technology used_minerals_none used_minerals_army
 Min.   :  0.000                  Min.   :  0.00     Min.   :   0.0    
 1st Qu.:  0.000                  1st Qu.:  0.00     1st Qu.: 600.0    
 Median :  0.000                  Median : 50.00     Median : 800.0    
 Mean   :  2.985                  Mean   : 54.42     Mean   : 818.6    
 3rd Qu.:  0.000                  3rd Qu.:100.00     3rd Qu.:1025.0    
 Max.   :200.000                  Max.   :300.00     Max.   :2100.0    
 used_minerals_economy used_minerals_technology used_minerals_upgrade
 Min.   :  75          Min.   :   0.0           Min.   :  0.00       
 1st Qu.:2600          1st Qu.: 675.0           1st Qu.:  0.00       
 Median :3000          Median : 825.0           Median :  0.00       
 Mean   :2956          Mean   : 827.6           Mean   : 64.74       
 3rd Qu.:3325          3rd Qu.: 975.0           3rd Qu.:100.00       
 Max.   :4850          Max.   :1800.0           Max.   :450.00       
 used_vespene_none used_vespene_army used_vespene_economy
 Min.   : 0.000    Min.   :  0.0     Min.   :  0.000     
 1st Qu.: 0.000    1st Qu.:200.0     1st Qu.:  0.000     
 Median : 0.000    Median :350.0     Median :  0.000     
 Mean   : 7.178    Mean   :351.7     Mean   :  3.409     
 3rd Qu.: 0.000    3rd Qu.:500.0     3rd Qu.:  0.000     
 Max.   :50.000    Max.   :925.0     Max.   :450.000     
 used_vespene_technology total_used_minerals_none total_used_minerals_army
 Min.   :  0.0           Min.   : 0.000           Min.   :   0.0          
 1st Qu.:250.0           1st Qu.: 0.000           1st Qu.: 600.0          
 Median :300.0           Median : 0.000           Median : 775.0          
 Mean   :281.6           Mean   : 3.841           Mean   : 777.2          
 3rd Qu.:325.0           3rd Qu.: 0.000           3rd Qu.: 950.0          
 Max.   :600.0           Max.   :50.000           Max.   :2150.0          
 total_used_minerals_economy total_used_minerals_technology
 Min.   :1000                Min.   :   0.0                
 1st Qu.:2650                1st Qu.: 600.0                
 Median :3100                Median : 725.0                
 Mean   :3063                Mean   : 737.2                
 3rd Qu.:3475                3rd Qu.: 875.0                
 Max.   :4675                Max.   :1650.0                
 total_used_minerals_upgrade total_used_vespene_army total_used_vespene_economy
 Min.   :  0.0               Min.   :  0             Min.   :  0.000           
 1st Qu.:  0.0               1st Qu.:175             1st Qu.:  0.000           
 Median :  0.0               Median :300             Median :  0.000           
 Mean   : 16.4               Mean   :314             Mean   :  5.782           
 3rd Qu.:  0.0               3rd Qu.:450             3rd Qu.:  0.000           
 Max.   :250.0               Max.   :850             Max.   :900.000           
 total_used_vespene_technology total_damage_dealt_life total_damage_taken_life
 Min.   :  0.0                 Min.   :   0.0          Min.   :   0.00        
 1st Qu.:225.0                 1st Qu.:  90.0          1st Qu.:  91.75        
 Median :275.0                 Median : 296.0          Median : 273.00        
 Mean   :259.1                 Mean   : 493.4          Mean   : 475.29        
 3rd Qu.:300.0                 3rd Qu.: 630.0          3rd Qu.: 608.00        
 Max.   :550.0                 Max.   :7750.8          Max.   :5945.82        
 total_healed_life    minerals         vespene         food_cap     
 Min.   :   0.00   Min.   :   0.0   Min.   :  0.0   Min.   :  0.00  
 1st Qu.:   0.00   1st Qu.: 135.8   1st Qu.:121.0   1st Qu.: 47.00  
 Median :   0.00   Median : 260.0   Median :209.0   Median : 55.00  
 Mean   :  28.57   Mean   : 328.8   Mean   :236.6   Mean   : 55.83  
 3rd Qu.:   0.00   3rd Qu.: 436.2   3rd Qu.:321.0   3rd Qu.: 62.00  
 Max.   :2688.87   Max.   :3450.0   Max.   :990.0   Max.   :103.00  
   food_used     food_workers   idle_worker_count   army_count    
 Min.   : 0.0   Min.   : 0.00   Min.   : 0.000    Min.   : 0.000  
 1st Qu.:38.0   1st Qu.:23.00   1st Qu.: 0.000    1st Qu.: 5.000  
 Median :45.0   Median :27.00   Median : 0.000    Median : 8.000  
 Mean   :43.7   Mean   :26.74   Mean   : 0.788    Mean   : 7.993  
 3rd Qu.:50.0   3rd Qu.:31.00   3rd Qu.: 1.000    3rd Qu.:11.000  
 Max.   :70.0   Max.   :47.00   Max.   :27.000    Max.   :30.000  
     result    
 Defeat :1706  
 Victory:1770  
               
               
               
               
Error in model(data[data_train_idx, ], res[data_train_idx], data[data_test_idx,  : 
  cannot open file '/data/volz/class/R/class.rdb': No such file or directory
In addition: Warning message:
In model(data[data_train_idx, ], res[data_train_idx], data[data_test_idx,  :
  restarting interrupted promise evaluation
Execution halted
