
R version 3.4.1 (2017-06-30) -- "Single Candle"
Copyright (C) 2017 The R Foundation for Statistical Computing
Platform: x86_64-pc-linux-gnu (64-bit)

R is free software and comes with ABSOLUTELY NO WARRANTY.
You are welcome to redistribute it under certain conditions.
Type 'license()' or 'licence()' for distribution details.

R is a collaborative project with many contributors.
Type 'contributors()' for more information and
'citation()' on how to cite R or R packages in publications.

Type 'demo()' for some demos, 'help()' for on-line help, or
'help.start()' for an HTML browser interface to help.
Type 'q()' to quit R.

> #!/usr/bin/env Rscript
> args = commandArgs(trailingOnly=TRUE)
> print(args)
[1] "ex_num=6" "mod=5"    "reps=2"   "id=15"   
> for(i in 1:length(args)){
+   eval(parse(text=args[[i]]))
+ }
> #params: ex_num, mod, reps, id
> 
> #install.packages("backports", lib="/data/volz", repos = "http://cran.us.r-project.org")
> library(backports, lib.loc = "/data/volz")
> #install.packages("BBmisc", lib="/data/volz", repos = "http://cran.us.r-project.org")
> library(BBmisc, lib.loc = "/data/volz")

Attaching package: 'BBmisc'

The following object is masked from 'package:backports':

    isFALSE

> 
> lido=TRUE
> setwd("/home/volz/sc2model")
> source("loadData.R")
> #models = c("randomForest.R")
> #models = c("classification_n.R")
> models=c("ann_model.R", "classification_n.R", "randomForest.R", "dnn.R", "knn.R")
> #ticks = seq(224, 152671, 224)
> if(ex_num==1){
+   timeWindow= 0
+   ticks= c(NA)
+   feature_select="ds"
+   dataAgg=NA
+   both=FALSE
+ }else if(ex_num==2){
+   timeWindow= 0
+   ticks= c(NA)
+   feature_select="expert"
+   dataAgg=NA
+   both=FALSE
+ }else if(ex_num==3){
+   timeWindow= 0
+   ticks= c(NA)
+   feature_select="ds"
+   dataAgg=NA
+   both=TRUE
+ }else if(ex_num==4){
+   timeWindow= 1
+   ticks = seq(6720, 26880, 224)
+   feature_select="ds"
+   dataAgg="none"
+   both=FALSE
+ }else if(ex_num==5){
+   timeWindow= 1
+   ticks = seq(6720, 26880, 224)
+   feature_select="ds"
+   dataAgg="abs"
+   both=FALSE
+ }else if(ex_num==6){
+   timeWindow= 1
+   ticks = seq(6720, 26880, 224)
+   feature_select="ds"
+   dataAgg="parallel"
+   both=FALSE
+ }else if(ex_num==7){
+   timeWindow= 5
+   ticks = seq(6720, 26880, 224)
+   feature_select="ds"
+   dataAgg="none"
+   both=FALSE
+ }else if(ex_num==8){
+   timeWindow= 5
+   ticks = seq(6720, 26880, 224)
+   feature_select="ds"
+   dataAgg="abs"
+   both=FALSE
+ }else if(ex_num==9){
+   timeWindow= 5
+   ticks = seq(6720, 26880, 224)
+   feature_select="ds"
+   dataAgg="parallel"
+   both=FALSE
+ }else if(ex_num==10){
+   timeWindow= 0
+   ticks = seq(6720, 26880, 224)
+   feature_select="ds"
+   dataAgg=NA
+   both=FALSE
+ }else if(ex_num==11){
+   timeWindow= 5
+   ticks = seq(6720, 26880, 224)
+   feature_select="ds"
+   dataAgg="none"
+   both=TRUE
+ }else if(ex_num==12){
+   timeWindow= 0
+   ticks = c(NA)
+   feature_select="expert2"
+   dataAgg=NA
+   both=FALSE
+ }
> 
> print(mod)
[1] 5
> print(ex_num)
[1] 6
> print(reps)
[1] 2
> 
> #6720 bis 26880 #5-20 Minuten
> trainSplit = 0.9
> 
> allResults = data.frame(method=integer(), tick=integer(), features=character(), mean=double(),
+                         sd=double(), stringsAsFactors=FALSE)
> 
>   accs = numeric(length(ticks))
>   print(paste("sourcing", models[mod]))
[1] "sourcing knn.R"
>   source(models[mod])
trying URL 'http://cran.us.r-project.org/src/contrib/class_7.3-14.tar.gz'
Content type 'application/x-gzip' length 19726 bytes (19 KB)
==================================================
downloaded 19 KB

* installing *source* package 'class' ...
** package 'class' successfully unpacked and MD5 sums checked
** libs
gcc -std=gnu99 -I/sysdata/shared/sfw/R/3.4.1-gcc49-base/lib64/R/include -DNDEBUG   -I/usr/local/include   -fpic  -I/sysdata/shared/sfw/R/extralibs/include -I/usr/include/ncurses  -c class.c -o class.o
gcc -std=gnu99 -shared -L/sysdata/shared/sfw/R/extralibs/lib -L/usr/local/lib/openblas/0.2.17/lib64 -lopenblas -o class.so class.o
installing to /data/volz/class/libs
** R
** inst
** byte-compile and prepare package for lazy loading
** help
*** installing help indices
** building package indices
** testing if installed package can be loaded
* DONE (class)

The downloaded source packages are in
	'/scratch/volz-/Rtmp6z3g9g/downloaded_packages'
>   for(t in 1:length(ticks)){
+     trained_models = list()
+     print(ticks[t])
+     acc = numeric(reps)
+     if(is.na(ticks[t])){
+       ticks_req = NA
+     }else{
+       ticks_req = seq(max(1, ticks[t]/224-timeWindow)*224, ticks[t], 224) 
+     }
+     print(ticks_req)
+     data = loadData(which="terran2", ticks=ticks_req, feature_select =feature_select,
+                     dataAgg=dataAgg, both=both)
+     if(ncol(data)==1){
+       next
+     }
+     print(summary(data))
+     res = data$result
+     ids = data$id
+     data = data[, !(names(data) %in% c("id", "result"))]
+     data = BBmisc::normalize(data, method = "range", range = c(0, 1))
+     #print(summary(data))
+     for(i in 1:reps){
+       games = unique(ids)
+       data_train_idx_g<- sample(1:length(games), round(trainSplit*length(games)))
+       data_test_idx_g <- setdiff(1:length(games),data_train_idx_g)
+       data_train_idx = which(ids %in% games[data_train_idx_g])
+       data_test_idx = which(ids %in% games[data_test_idx_g])
+       acc[i] = model(data[data_train_idx, ], res[data_train_idx], data[data_test_idx, ], res[data_test_idx] ) 
+     }
+     accs[t] = mean(acc)
+     allResults[nrow(allResults) + 1,] = c( mod, ticks[t], feature_select, mean(acc), sd(acc) )
+   }
[1] 6720
[1] 6496 6720
       id         score.6496   idle_production_time.6496 idle_worker_time.6496
 Min.   :   1   Min.   : 400   Min.   :  13.81           Min.   :   0.00      
 1st Qu.:1223   1st Qu.:5452   1st Qu.: 319.52           1st Qu.:  45.06      
 Median :2454   Median :5926   Median : 420.78           Median :  84.53      
 Mean   :2469   Mean   :5801   Mean   : 438.80           Mean   : 120.31      
 3rd Qu.:3732   3rd Qu.:6306   3rd Qu.: 536.17           3rd Qu.: 154.39      
 Max.   :4994   Max.   :7556   Max.   :1206.31           Max.   :1649.06      
 total_value_units.6496 total_value_structures.6496 killed_value_units.6496
 Min.   : 600           Min.   : 400                Min.   :   0.0         
 1st Qu.:2100           1st Qu.:1950                1st Qu.:  50.0         
 Median :2400           Median :2175                Median : 150.0         
 Mean   :2393           Mean   :2143                Mean   : 249.6         
 3rd Qu.:2700           3rd Qu.:2375                3rd Qu.: 400.0         
 Max.   :3550           Max.   :3175                Max.   :2025.0         
 killed_value_structures.6496 collected_minerals.6496 collected_vespene.6496
 Min.   :   0.00              Min.   :   0            Min.   :   0.0        
 1st Qu.:   0.00              1st Qu.:3795            1st Qu.: 888.0        
 Median :   0.00              Median :4115            Median :1004.0        
 Mean   :  14.79              Mean   :4097            Mean   : 974.9        
 3rd Qu.:   0.00              3rd Qu.:4425            3rd Qu.:1136.0        
 Max.   :1025.00              Max.   :6045            Max.   :1376.0        
 collection_rate_minerals.6496 collection_rate_vespene.6496 spent_minerals.6496
 Min.   :   0                  Min.   :  0.0                Min.   :   0       
 1st Qu.: 895                  1st Qu.:313.0                1st Qu.:3500       
 Median :1091                  Median :313.0                Median :3875       
 Mean   :1129                  Mean   :308.7                Mean   :3830       
 3rd Qu.:1371                  3rd Qu.:335.0                3rd Qu.:4200       
 Max.   :2379                  Max.   :716.0                Max.   :5675       
 spent_vespene.6496 food_used_army.6496 food_used_economy.6496
 Min.   :   0.0     Min.   : 0.00       Min.   : 0.00         
 1st Qu.: 625.0     1st Qu.:12.00       1st Qu.:24.00         
 Median : 775.0     Median :15.00       Median :27.00         
 Mean   : 745.1     Mean   :15.38       Mean   :27.09         
 3rd Qu.: 900.0     3rd Qu.:19.00       3rd Qu.:31.00         
 Max.   :1250.0     Max.   :40.00       Max.   :47.00         
 killed_minerals_army.6496 killed_minerals_economy.6496
 Min.   :   0.0            Min.   :   0.00             
 1st Qu.:   0.0            1st Qu.:   0.00             
 Median :  50.0            Median :  50.00             
 Mean   : 114.1            Mean   :  92.28             
 3rd Qu.: 150.0            3rd Qu.: 100.00             
 Max.   :1400.0            Max.   :2000.00             
 killed_minerals_technology.6496 killed_vespene_army.6496
 Min.   :  0.000                 Min.   :  0.00          
 1st Qu.:  0.000                 1st Qu.:  0.00          
 Median :  0.000                 Median :  0.00          
 Mean   :  3.889                 Mean   : 53.15          
 3rd Qu.:  0.000                 3rd Qu.: 50.00          
 Max.   :550.000                 Max.   :700.00          
 killed_vespene_economy.6496 killed_vespene_technology.6496
 Min.   :  0.00000           Min.   :  0.0000              
 1st Qu.:  0.00000           1st Qu.:  0.0000              
 Median :  0.00000           Median :  0.0000              
 Mean   :  0.04313           Mean   :  0.9201              
 3rd Qu.:  0.00000           3rd Qu.:  0.0000              
 Max.   :150.00000           Max.   :275.0000              
 lost_minerals_none.6496 lost_minerals_army.6496 lost_minerals_economy.6496
 Min.   :-76.0000        Min.   :   0            Min.   :-300.00           
 1st Qu.:  0.0000        1st Qu.:   0            1st Qu.:   0.00           
 Median :  0.0000        Median :  50            Median :  50.00           
 Mean   : -0.1415        Mean   : 114            Mean   :  84.99           
 3rd Qu.:  0.0000        3rd Qu.: 150            3rd Qu.: 100.00           
 Max.   :  8.0000        Max.   :1350            Max.   :1800.00           
 lost_minerals_technology.6496 lost_vespene_none.6496 lost_vespene_army.6496
 Min.   :-226.000              Min.   :-76.000        Min.   :  0.00        
 1st Qu.:   0.000              1st Qu.:  0.000        1st Qu.:  0.00        
 Median :   0.000              Median :  0.000        Median :  0.00        
 Mean   :  -1.104              Mean   : -0.153        Mean   : 55.36        
 3rd Qu.:   0.000              3rd Qu.:  0.000        3rd Qu.:100.00        
 Max.   : 404.000              Max.   :  0.000        Max.   :623.00        
 lost_vespene_economy.6496 lost_vespene_technology.6496
 Min.   :  0.0000          Min.   :-150.000            
 1st Qu.:  0.0000          1st Qu.:   0.000            
 Median :  0.0000          Median :   0.000            
 Mean   :  0.1397          Mean   :  -1.244            
 3rd Qu.:  0.0000          3rd Qu.:   0.000            
 Max.   :151.0000          Max.   : 225.000            
 friendly_fire_minerals_none.6496 friendly_fire_minerals_army.6496
 Min.   :  0.0000                 Min.   :  0.0000                
 1st Qu.:  0.0000                 1st Qu.:  0.0000                
 Median :  0.0000                 Median :  0.0000                
 Mean   :  0.2013                 Mean   :  0.2588                
 3rd Qu.:  0.0000                 3rd Qu.:  0.0000                
 Max.   :100.0000                 Max.   :150.0000                
 friendly_fire_minerals_economy.6496 friendly_fire_minerals_technology.6496
 Min.   :  0.000                     Min.   :  0.000                       
 1st Qu.:  0.000                     1st Qu.:  0.000                       
 Median :  0.000                     Median :  0.000                       
 Mean   :  6.369                     Mean   :  7.296                       
 3rd Qu.:  0.000                     3rd Qu.:  0.000                       
 Max.   :400.000                     Max.   :300.000                       
 friendly_fire_vespene_army.6496 friendly_fire_vespene_technology.6496
 Min.   :  0.0000                Min.   :  0.000                      
 1st Qu.:  0.0000                1st Qu.:  0.000                      
 Median :  0.0000                Median :  0.000                      
 Mean   :  0.1438                Mean   :  2.882                      
 3rd Qu.:  0.0000                3rd Qu.:  0.000                      
 Max.   :100.0000                Max.   :200.000                      
 used_minerals_none.6496 used_minerals_army.6496 used_minerals_economy.6496
 Min.   :  0.00          Min.   :   0.0          Min.   : 125              
 1st Qu.:  0.00          1st Qu.: 600.0          1st Qu.:2600              
 Median : 50.00          Median : 775.0          Median :2925              
 Mean   : 53.61          Mean   : 775.1          Mean   :2898              
 3rd Qu.:100.00          3rd Qu.: 975.0          3rd Qu.:3250              
 Max.   :250.00          Max.   :2000.0          Max.   :4650              
 used_minerals_technology.6496 used_minerals_upgrade.6496
 Min.   :   0.0                Min.   :  0.00            
 1st Qu.: 625.0                1st Qu.:  0.00            
 Median : 800.0                Median :  0.00            
 Mean   : 798.4                Mean   : 58.55            
 3rd Qu.: 950.0                3rd Qu.:100.00            
 Max.   :1800.0                Max.   :400.00            
 used_vespene_none.6496 used_vespene_army.6496 used_vespene_economy.6496
 Min.   : 0.00          Min.   :  0.0          Min.   :  0.000          
 1st Qu.: 0.00          1st Qu.:200.0          1st Qu.:  0.000          
 Median : 0.00          Median :325.0          Median :  0.000          
 Mean   : 5.98          Mean   :331.6          Mean   :  3.278          
 3rd Qu.: 0.00          3rd Qu.:475.0          3rd Qu.:  0.000          
 Max.   :50.00          Max.   :925.0          Max.   :450.000          
 used_vespene_technology.6496 total_used_minerals_none.6496
 Min.   :  0.0                Min.   : 0.00                
 1st Qu.:250.0                1st Qu.: 0.00                
 Median :275.0                Median : 0.00                
 Mean   :274.7                Mean   : 3.12                
 3rd Qu.:300.0                3rd Qu.: 0.00                
 Max.   :575.0                Max.   :50.00                
 total_used_minerals_army.6496 total_used_minerals_economy.6496
 Min.   :   0.0                Min.   :1000                    
 1st Qu.: 550.0                1st Qu.:2600                    
 Median : 700.0                Median :2950                    
 Mean   : 709.8                Mean   :2983                    
 3rd Qu.: 850.0                3rd Qu.:3400                    
 Max.   :1950.0                Max.   :4575                    
 total_used_minerals_technology.6496 total_used_minerals_upgrade.6496
 Min.   :   0.0                      Min.   :  0.00                  
 1st Qu.: 550.0                      1st Qu.:  0.00                  
 Median : 700.0                      Median :  0.00                  
 Mean   : 707.1                      Mean   : 12.87                  
 3rd Qu.: 825.0                      3rd Qu.:  0.00                  
 Max.   :1575.0                      Max.   :200.00                  
 total_used_vespene_army.6496 total_used_vespene_economy.6496
 Min.   :  0.0                Min.   :  0.000                
 1st Qu.:150.0                1st Qu.:  0.000                
 Median :275.0                Median :  0.000                
 Mean   :283.8                Mean   :  5.262                
 3rd Qu.:400.0                3rd Qu.:  0.000                
 Max.   :800.0                Max.   :900.000                
 total_used_vespene_technology.6496 total_damage_dealt_life.6496
 Min.   :  0.0                      Min.   :   0.00             
 1st Qu.:225.0                      1st Qu.:  73.34             
 Median :275.0                      Median : 241.50             
 Mean   :251.1                      Mean   : 425.32             
 3rd Qu.:300.0                      3rd Qu.: 543.00             
 Max.   :525.0                      Max.   :6712.78             
 total_damage_taken_life.6496 total_healed_life.6496 minerals.6496   
 Min.   :   0.0               Min.   :   0.00        Min.   :   0.0  
 1st Qu.:  75.0               1st Qu.:   0.00        1st Qu.: 135.0  
 Median : 233.0               Median :   0.00        Median : 250.0  
 Mean   : 412.2               Mean   :  24.54        Mean   : 314.2  
 3rd Qu.: 522.8               3rd Qu.:   0.00        3rd Qu.: 420.0  
 Max.   :5273.6               Max.   :2688.87        Max.   :3335.0  
  vespene.6496   food_cap.6496    food_used.6496  food_workers.6496
 Min.   :  0.0   Min.   :  0.00   Min.   : 0.00   Min.   : 0.00    
 1st Qu.:124.0   1st Qu.: 47.00   1st Qu.:37.00   1st Qu.:23.00    
 Median :201.0   Median : 54.00   Median :43.00   Median :26.00    
 Mean   :228.6   Mean   : 53.96   Mean   :42.47   Mean   :26.36    
 3rd Qu.:306.0   3rd Qu.: 62.00   3rd Qu.:48.00   3rd Qu.:30.00    
 Max.   :934.0   Max.   :103.00   Max.   :67.00   Max.   :45.00    
 idle_worker_count.6496 army_count.6496    score.6720  
 Min.   : 0.0000        Min.   : 0.000   Min.   : 400  
 1st Qu.: 0.0000        1st Qu.: 4.000   1st Qu.:5606  
 Median : 0.0000        Median : 7.000   Median :6124  
 Mean   : 0.7297        Mean   : 7.452   Mean   :5994  
 3rd Qu.: 1.0000        3rd Qu.:10.000   3rd Qu.:6538  
 Max.   :26.0000        Max.   :27.000   Max.   :8038  
 idle_production_time.6720 idle_worker_time.6720 total_value_units.6720
 Min.   :  13.81           Min.   :   0.00       Min.   : 600          
 1st Qu.: 358.45           1st Qu.:  49.64       1st Qu.:2225          
 Median : 467.41           Median :  92.62       Median :2550          
 Mean   : 486.70           Mean   : 131.27       Mean   :2520          
 3rd Qu.: 591.75           3rd Qu.: 168.83       3rd Qu.:2850          
 Max.   :1293.62           Max.   :1691.75       Max.   :3750          
 total_value_structures.6720 killed_value_units.6720
 Min.   : 400                Min.   :   0.0         
 1st Qu.:2000                1st Qu.:  50.0         
 Median :2250                Median : 150.0         
 Mean   :2219                Mean   : 290.4         
 3rd Qu.:2450                3rd Qu.: 450.0         
 Max.   :3175                Max.   :2200.0         
 killed_value_structures.6720 collected_minerals.6720 collected_vespene.6720
 Min.   :   0.00              Min.   :   0            Min.   :   0          
 1st Qu.:   0.00              1st Qu.:3955            1st Qu.: 940          
 Median :   0.00              Median :4295            Median :1058          
 Mean   :  18.14              Mean   :4288            Mean   :1027          
 3rd Qu.:   0.00              3rd Qu.:4650            3rd Qu.:1192          
 Max.   :1375.00              Max.   :6430            Max.   :1488          
 collection_rate_minerals.6720 collection_rate_vespene.6720 spent_minerals.6720
 Min.   :   0                  Min.   :  0.0                Min.   :   0       
 1st Qu.: 895                  1st Qu.:313.0                1st Qu.:3650       
 Median :1119                  Median :313.0                Median :4025       
 Mean   :1139                  Mean   :309.4                Mean   :4004       
 3rd Qu.:1399                  3rd Qu.:335.0                3rd Qu.:4400       
 Max.   :2463                  Max.   :739.0                Max.   :5925       
 spent_vespene.6720 food_used_army.6720 food_used_economy.6720
 Min.   :   0.0     Min.   : 0.00       Min.   : 0.00         
 1st Qu.: 675.0     1st Qu.:12.00       1st Qu.:24.00         
 Median : 825.0     Median :16.00       Median :27.00         
 Mean   : 788.6     Mean   :16.22       Mean   :27.46         
 3rd Qu.: 950.0     3rd Qu.:20.00       3rd Qu.:32.00         
 Max.   :1325.0     Max.   :42.00       Max.   :49.00         
 killed_minerals_none.6720 killed_minerals_army.6720
 Min.   : 0.00000          Min.   :   0.0           
 1st Qu.: 0.00000          1st Qu.:   0.0           
 Median : 0.00000          Median :  50.0           
 Mean   : 0.01438          Mean   : 134.9           
 3rd Qu.: 0.00000          3rd Qu.: 200.0           
 Max.   :50.00000          Max.   :1500.0           
 killed_minerals_economy.6720 killed_minerals_technology.6720
 Min.   :   0.0               Min.   :  0.000                
 1st Qu.:   0.0               1st Qu.:  0.000                
 Median :  50.0               Median :  0.000                
 Mean   : 106.6               Mean   :  4.823                
 3rd Qu.: 100.0               3rd Qu.:  0.000                
 Max.   :2000.0               Max.   :550.000                
 killed_vespene_army.6720 killed_vespene_technology.6720
 Min.   :  0.00           Min.   :  0.000               
 1st Qu.:  0.00           1st Qu.:  0.000               
 Median :  0.00           Median :  0.000               
 Mean   : 60.95           Mean   :  1.143               
 3rd Qu.:100.00           3rd Qu.:  0.000               
 Max.   :700.00           Max.   :275.000               
 lost_minerals_none.6720 lost_minerals_army.6720 lost_minerals_economy.6720
 Min.   :-76.000         Min.   :   0.0          Min.   :-300.00           
 1st Qu.:  0.000         1st Qu.:   0.0          1st Qu.:   0.00           
 Median :  0.000         Median :  50.0          Median :  50.00           
 Mean   : -0.163         Mean   : 133.4          Mean   :  99.04           
 3rd Qu.:  0.000         3rd Qu.: 200.0          3rd Qu.: 100.00           
 Max.   :  8.000         Max.   :1400.0          Max.   :1850.00           
 lost_minerals_technology.6720 lost_vespene_none.6720 lost_vespene_army.6720
 Min.   :-226.0000             Min.   :-76.0000       Min.   :  0.00        
 1st Qu.:   0.0000             1st Qu.:  0.0000       1st Qu.:  0.00        
 Median :   0.0000             Median :  0.0000       Median : 50.00        
 Mean   :  -0.4017             Mean   : -0.1748       Mean   : 63.12        
 3rd Qu.:   0.0000             3rd Qu.:  0.0000       3rd Qu.:100.00        
 Max.   : 404.0000             Max.   :  0.0000       Max.   :650.00        
 lost_vespene_economy.6720 lost_vespene_technology.6720
 Min.   :  0.0000          Min.   :-113.000            
 1st Qu.:  0.0000          1st Qu.:   0.000            
 Median :  0.0000          Median :   0.000            
 Mean   :  0.2102          Mean   :  -1.141            
 3rd Qu.:  0.0000          3rd Qu.:   0.000            
 Max.   :171.0000          Max.   : 225.000            
 friendly_fire_minerals_none.6720 friendly_fire_minerals_army.6720
 Min.   :  0.00                   Min.   :  0.0000                
 1st Qu.:  0.00                   1st Qu.:  0.0000                
 Median :  0.00                   Median :  0.0000                
 Mean   :  0.23                   Mean   :  0.3163                
 3rd Qu.:  0.00                   3rd Qu.:  0.0000                
 Max.   :100.00                   Max.   :150.0000                
 friendly_fire_minerals_economy.6720 friendly_fire_minerals_technology.6720
 Min.   :  0.000                     Min.   :  0.000                       
 1st Qu.:  0.000                     1st Qu.:  0.000                       
 Median :  0.000                     Median :  0.000                       
 Mean   :  6.627                     Mean   :  7.691                       
 3rd Qu.:  0.000                     3rd Qu.:  0.000                       
 Max.   :400.000                     Max.   :300.000                       
 friendly_fire_vespene_army.6720 friendly_fire_vespene_technology.6720
 Min.   :  0.0000                Min.   :  0.000                      
 1st Qu.:  0.0000                1st Qu.:  0.000                      
 Median :  0.0000                Median :  0.000                      
 Mean   :  0.1725                Mean   :  2.983                      
 3rd Qu.:  0.0000                3rd Qu.:  0.000                      
 Max.   :100.0000                Max.   :200.000                      
 used_minerals_none.6720 used_minerals_army.6720 used_minerals_economy.6720
 Min.   :  0.00          Min.   :   0.0          Min.   :  75              
 1st Qu.:  0.00          1st Qu.: 600.0          1st Qu.:2600              
 Median : 50.00          Median : 800.0          Median :3000              
 Mean   : 54.38          Mean   : 818.2          Mean   :2955              
 3rd Qu.:100.00          3rd Qu.:1025.0          3rd Qu.:3325              
 Max.   :300.00          Max.   :2100.0          Max.   :4850              
 used_minerals_technology.6720 used_minerals_upgrade.6720
 Min.   :   0.0                Min.   :  0.00            
 1st Qu.: 675.0                1st Qu.:  0.00            
 Median : 825.0                Median :  0.00            
 Mean   : 827.1                Mean   : 64.71            
 3rd Qu.: 975.0                3rd Qu.:100.00            
 Max.   :1800.0                Max.   :450.00            
 used_vespene_none.6720 used_vespene_army.6720 used_vespene_economy.6720
 Min.   : 0.000         Min.   :  0.0          Min.   :  0.000          
 1st Qu.: 0.000         1st Qu.:200.0          1st Qu.:  0.000          
 Median : 0.000         Median :350.0          Median :  0.000          
 Mean   : 7.174         Mean   :351.5          Mean   :  3.407          
 3rd Qu.: 0.000         3rd Qu.:500.0          3rd Qu.:  0.000          
 Max.   :50.000         Max.   :925.0          Max.   :450.000          
 used_vespene_technology.6720 total_used_minerals_none.6720
 Min.   :  0.0                Min.   : 0.000               
 1st Qu.:250.0                1st Qu.: 0.000               
 Median :300.0                Median : 0.000               
 Mean   :281.4                Mean   : 3.838               
 3rd Qu.:325.0                3rd Qu.: 0.000               
 Max.   :600.0                Max.   :50.000               
 total_used_minerals_army.6720 total_used_minerals_economy.6720
 Min.   :   0.0                Min.   :1000                    
 1st Qu.: 600.0                1st Qu.:2650                    
 Median : 775.0                Median :3100                    
 Mean   : 776.8                Mean   :3062                    
 3rd Qu.: 950.0                3rd Qu.:3475                    
 Max.   :2150.0                Max.   :4675                    
 total_used_minerals_technology.6720 total_used_minerals_upgrade.6720
 Min.   :   0.0                      Min.   :  0.00                  
 1st Qu.: 600.0                      1st Qu.:  0.00                  
 Median : 725.0                      Median :  0.00                  
 Mean   : 736.7                      Mean   : 16.39                  
 3rd Qu.: 875.0                      3rd Qu.:  0.00                  
 Max.   :1650.0                      Max.   :250.00                  
 total_used_vespene_army.6720 total_used_vespene_economy.6720
 Min.   :  0.0                Min.   :  0.000                
 1st Qu.:175.0                1st Qu.:  0.000                
 Median :300.0                Median :  0.000                
 Mean   :313.8                Mean   :  5.779                
 3rd Qu.:450.0                3rd Qu.:  0.000                
 Max.   :850.0                Max.   :900.000                
 total_used_vespene_technology.6720 total_damage_dealt_life.6720
 Min.   :  0                        Min.   :   0.0              
 1st Qu.:225                        1st Qu.:  90.0              
 Median :275                        Median : 295.5              
 Mean   :259                        Mean   : 493.1              
 3rd Qu.:300                        3rd Qu.: 630.0              
 Max.   :550                        Max.   :7750.8              
 total_damage_taken_life.6720 total_healed_life.6720 minerals.6720   
 Min.   :   0.00              Min.   :   0.00        Min.   :   0.0  
 1st Qu.:  91.25              1st Qu.:   0.00        1st Qu.: 136.2  
 Median : 273.00              Median :   0.00        Median : 260.0  
 Mean   : 475.57              Mean   :  28.55        Mean   : 330.4  
 3rd Qu.: 608.00              3rd Qu.:   0.00        3rd Qu.: 439.2  
 Max.   :5945.82              Max.   :2688.87        Max.   :3450.0  
  vespene.6720   food_cap.6720    food_used.6720  food_workers.6720
 Min.   :  0.0   Min.   :  0.00   Min.   : 0.00   Min.   : 0.00    
 1st Qu.:121.0   1st Qu.: 47.00   1st Qu.:38.00   1st Qu.:23.00    
 Median :209.0   Median : 55.00   Median :45.00   Median :27.00    
 Mean   :236.5   Mean   : 55.81   Mean   :43.68   Mean   :26.73    
 3rd Qu.:321.0   3rd Qu.: 62.00   3rd Qu.:50.00   3rd Qu.:31.00    
 Max.   :990.0   Max.   :103.00   Max.   :70.00   Max.   :47.00    
 idle_worker_count.6720 army_count.6720      result    
 Min.   : 0.0000        Min.   : 0.000   Defeat :1708  
 1st Qu.: 0.0000        1st Qu.: 5.000   Victory:1770  
 Median : 0.0000        Median : 8.000                 
 Mean   : 0.7875        Mean   : 7.989                 
 3rd Qu.: 1.0000        3rd Qu.:11.000                 
 Max.   :27.0000        Max.   :30.000                 
Error in model(data[data_train_idx, ], res[data_train_idx], data[data_test_idx,  : 
  cannot open file '/data/volz/class/R/class.rdb': No such file or directory
In addition: Warning message:
In model(data[data_train_idx, ], res[data_train_idx], data[data_test_idx,  :
  restarting interrupted promise evaluation
Execution halted
