
R version 3.4.1 (2017-06-30) -- "Single Candle"
Copyright (C) 2017 The R Foundation for Statistical Computing
Platform: x86_64-pc-linux-gnu (64-bit)

R is free software and comes with ABSOLUTELY NO WARRANTY.
You are welcome to redistribute it under certain conditions.
Type 'license()' or 'licence()' for distribution details.

R is a collaborative project with many contributors.
Type 'contributors()' for more information and
'citation()' on how to cite R or R packages in publications.

Type 'demo()' for some demos, 'help()' for on-line help, or
'help.start()' for an HTML browser interface to help.
Type 'q()' to quit R.

> #!/usr/bin/env Rscript
> args = commandArgs(trailingOnly=TRUE)
> print(args)
[1] "ex_num=8" "mod=5"    "reps=2"   "id=10"   
> for(i in 1:length(args)){
+   eval(parse(text=args[[i]]))
+ }
> #params: ex_num, mod, reps, id
> 
> #install.packages("backports", lib="/data/volz", repos = "http://cran.us.r-project.org")
> library(backports, lib.loc = "/data/volz")
> #install.packages("BBmisc", lib="/data/volz", repos = "http://cran.us.r-project.org")
> library(BBmisc, lib.loc = "/data/volz")

Attaching package: 'BBmisc'

The following object is masked from 'package:backports':

    isFALSE

> 
> lido=TRUE
> setwd("/home/volz/sc2model")
> source("loadData.R")
> #models = c("randomForest.R")
> #models = c("classification_n.R")
> models=c("ann_model.R", "classification_n.R", "randomForest.R", "dnn.R", "knn.R")
> #ticks = seq(224, 152671, 224)
> if(ex_num==1){
+   timeWindow= 0
+   ticks= c(NA)
+   feature_select="ds"
+   dataAgg=NA
+   both=FALSE
+ }else if(ex_num==2){
+   timeWindow= 0
+   ticks= c(NA)
+   feature_select="expert"
+   dataAgg=NA
+   both=FALSE
+ }else if(ex_num==3){
+   timeWindow= 0
+   ticks= c(NA)
+   feature_select="ds"
+   dataAgg=NA
+   both=TRUE
+ }else if(ex_num==4){
+   timeWindow= 1
+   ticks = seq(6720, 26880, 224)
+   feature_select="ds"
+   dataAgg="none"
+   both=FALSE
+ }else if(ex_num==5){
+   timeWindow= 1
+   ticks = seq(6720, 26880, 224)
+   feature_select="ds"
+   dataAgg="abs"
+   both=FALSE
+ }else if(ex_num==6){
+   timeWindow= 1
+   ticks = seq(6720, 26880, 224)
+   feature_select="ds"
+   dataAgg="parallel"
+   both=FALSE
+ }else if(ex_num==7){
+   timeWindow= 5
+   ticks = seq(6720, 26880, 224)
+   feature_select="ds"
+   dataAgg="none"
+   both=FALSE
+ }else if(ex_num==8){
+   timeWindow= 5
+   ticks = seq(6720, 26880, 224)
+   feature_select="ds"
+   dataAgg="abs"
+   both=FALSE
+ }else if(ex_num==9){
+   timeWindow= 5
+   ticks = seq(6720, 26880, 224)
+   feature_select="ds"
+   dataAgg="parallel"
+   both=FALSE
+ }else if(ex_num==10){
+   timeWindow= 0
+   ticks = seq(6720, 26880, 224)
+   feature_select="ds"
+   dataAgg=NA
+   both=FALSE
+ }else if(ex_num==11){
+   timeWindow= 5
+   ticks = seq(6720, 26880, 224)
+   feature_select="ds"
+   dataAgg="none"
+   both=TRUE
+ }else if(ex_num==12){
+   timeWindow= 0
+   ticks = c(NA)
+   feature_select="expert2"
+   dataAgg=NA
+   both=FALSE
+ }
> 
> print(mod)
[1] 5
> print(ex_num)
[1] 8
> print(reps)
[1] 2
> 
> #6720 bis 26880 #5-20 Minuten
> trainSplit = 0.9
> 
> allResults = data.frame(method=integer(), tick=integer(), features=character(), mean=double(),
+                         sd=double(), stringsAsFactors=FALSE)
> 
>   accs = numeric(length(ticks))
>   print(paste("sourcing", models[mod]))
[1] "sourcing knn.R"
>   source(models[mod])
trying URL 'http://cran.us.r-project.org/src/contrib/class_7.3-14.tar.gz'
Content type 'application/x-gzip' length 19726 bytes (19 KB)
==================================================
downloaded 19 KB

* installing *source* package 'class' ...
** package 'class' successfully unpacked and MD5 sums checked
** libs
gcc -std=gnu99 -I/sysdata/shared/sfw/R/3.4.1-gcc49-base/lib64/R/include -DNDEBUG   -I/usr/local/include   -fpic  -I/sysdata/shared/sfw/R/extralibs/include -I/usr/include/ncurses  -c class.c -o class.o
gcc -std=gnu99 -shared -L/sysdata/shared/sfw/R/extralibs/lib -L/usr/local/lib/openblas/0.2.17/lib64 -lopenblas -o class.so class.o
installing to /data/volz/class/libs
** R
** inst
** byte-compile and prepare package for lazy loading
** help
*** installing help indices
** building package indices
** testing if installed package can be loaded
* DONE (class)

The downloaded source packages are in
	'/scratch/volz-/RtmptYhGf8/downloaded_packages'
>   for(t in 1:length(ticks)){
+     trained_models = list()
+     print(ticks[t])
+     acc = numeric(reps)
+     if(is.na(ticks[t])){
+       ticks_req = NA
+     }else{
+       ticks_req = seq(max(1, ticks[t]/224-timeWindow)*224, ticks[t], 224) 
+     }
+     print(ticks_req)
+     data = loadData(which="terran2", ticks=ticks_req, feature_select =feature_select,
+                     dataAgg=dataAgg, both=both)
+     if(ncol(data)==1){
+       next
+     }
+     print(summary(data))
+     res = data$result
+     ids = data$id
+     data = data[, !(names(data) %in% c("id", "result"))]
+     data = BBmisc::normalize(data, method = "range", range = c(0, 1))
+     #print(summary(data))
+     for(i in 1:reps){
+       games = unique(ids)
+       data_train_idx_g<- sample(1:length(games), round(trainSplit*length(games)))
+       data_test_idx_g <- setdiff(1:length(games),data_train_idx_g)
+       data_train_idx = which(ids %in% games[data_train_idx_g])
+       data_test_idx = which(ids %in% games[data_test_idx_g])
+       acc[i] = model(data[data_train_idx, ], res[data_train_idx], data[data_test_idx, ], res[data_test_idx] ) 
+     }
+     accs[t] = mean(acc)
+     allResults[nrow(allResults) + 1,] = c( mod, ticks[t], feature_select, mean(acc), sd(acc) )
+   }
[1] 6720
[1] 5600 5824 6048 6272 6496 6720
       id           score        idle_production_time idle_worker_time  
 Min.   :   1   Min.   :-470.8   Min.   :-127.11      Min.   :-241.400  
 1st Qu.:1221   1st Qu.:-259.4   1st Qu.: -53.11      1st Qu.: -13.463  
 Median :2447   Median :-210.4   Median : -40.72      Median :  -4.950  
 Mean   :2468   Mean   :-193.2   Mean   : -41.77      Mean   :  -9.472  
 3rd Qu.:3732   3rd Qu.:-149.0   3rd Qu.: -28.81      3rd Qu.:  -1.300  
 Max.   :4994   Max.   : 600.0   Max.   :   0.00      Max.   :   0.000  
 total_value_units total_value_structures killed_value_units
 Min.   :-375.0    Min.   :-400.00        Min.   :-462.50   
 1st Qu.:-160.0    1st Qu.:-115.00        1st Qu.: -50.00   
 Median :-120.0    Median : -65.00        Median :   0.00   
 Mean   :-120.6    Mean   : -74.75        Mean   : -33.95   
 3rd Qu.: -80.0    3rd Qu.: -33.33        3rd Qu.:   0.00   
 Max.   :   0.0    Max.   :   0.00        Max.   :   0.00   
 killed_value_structures collected_minerals collected_vespene
 Min.   :-205.000        Min.   :-345.0     Min.   :-112.80  
 1st Qu.:   0.000        1st Qu.:-218.0     1st Qu.: -54.40  
 Median :   0.000        Median :-180.0     Median : -54.40  
 Mean   :  -2.863        Mean   :-184.1     Mean   : -50.88  
 3rd Qu.:   0.000        3rd Qu.:-152.0     3rd Qu.: -52.00  
 Max.   :   0.000        Max.   :   0.0     Max.   :   0.00  
 collection_rate_minerals collection_rate_vespene spent_minerals  
 Min.   :-448.00          Min.   :-76.200         Min.   :-437.5  
 1st Qu.: -50.40          1st Qu.: -4.400         1st Qu.:-220.0  
 Median : -11.20          Median :  0.000         Median :-170.0  
 Mean   : -12.94          Mean   : -1.234         Mean   :-170.6  
 3rd Qu.:  22.40          3rd Qu.:  0.000         3rd Qu.:-125.0  
 Max.   : 588.00          Max.   : 90.000         Max.   : 300.0  
 spent_vespene     food_used_army    food_used_economy killed_minerals_none
 Min.   :-250.00   Min.   :-6.0000   Min.   :-2.2000   Min.   :-10.00000   
 1st Qu.: -60.00   1st Qu.:-1.6000   1st Qu.:-0.8000   1st Qu.:  0.00000   
 Median : -45.00   Median :-1.0000   Median :-0.4000   Median :  0.00000   
 Mean   : -43.07   Mean   :-0.9307   Mean   :-0.4063   Mean   : -0.00278   
 3rd Qu.: -25.00   3rd Qu.:-0.4000   3rd Qu.: 0.0000   3rd Qu.:  0.00000   
 Max.   :  37.50   Max.   : 5.0000   Max.   : 9.5000   Max.   :  0.00000   
 killed_minerals_army killed_minerals_economy killed_minerals_technology
 Min.   :-450.00      Min.   :-350.00         Min.   :-150.0000         
 1st Qu.: -20.00      1st Qu.:   0.00         1st Qu.:   0.0000         
 Median :   0.00      Median :   0.00         Median :   0.0000         
 Mean   : -17.18      Mean   : -11.93         Mean   :  -0.8773         
 3rd Qu.:   0.00      3rd Qu.:   0.00         3rd Qu.:   0.0000         
 Max.   :   0.00      Max.   :   0.00         Max.   :   0.0000         
 killed_vespene_army killed_vespene_technology lost_minerals_none
 Min.   :-150.000    Min.   :-55.0000          Min.   :-2.20000  
 1st Qu.:   0.000    1st Qu.:  0.0000          1st Qu.: 0.00000  
 Median :   0.000    Median :  0.0000          Median : 0.00000  
 Mean   :  -6.616    Mean   : -0.2023          Mean   : 0.01546  
 3rd Qu.:   0.000    3rd Qu.:  0.0000          3rd Qu.: 0.00000  
 Max.   :   0.000    Max.   :  0.0000          Max.   : 7.60000  
 lost_minerals_army lost_minerals_economy lost_minerals_technology
 Min.   :-250.00    Min.   :-475.00       Min.   :-143.5000       
 1st Qu.: -20.00    1st Qu.:   0.00       1st Qu.:   0.0000       
 Median :   0.00    Median :   0.00       Median :   0.0000       
 Mean   : -17.03    Mean   : -10.86       Mean   :  -0.7044       
 3rd Qu.:   0.00    3rd Qu.:   0.00       3rd Qu.:   0.0000       
 Max.   :   0.00    Max.   :   0.00       Max.   : 113.0000       
 lost_vespene_none lost_vespene_army lost_vespene_economy
 Min.   :0.0000    Min.   :-200.00   Min.   :-34.20000   
 1st Qu.:0.0000    1st Qu.: -10.00   1st Qu.:  0.00000   
 Median :0.0000    Median :   0.00   Median :  0.00000   
 Mean   :0.0169    Mean   :  -7.07   Mean   : -0.04064   
 3rd Qu.:0.0000    3rd Qu.:   0.00   3rd Qu.:  0.00000   
 Max.   :7.6000    Max.   :   0.00   Max.   :  0.00000   
 lost_vespene_technology friendly_fire_minerals_none
 Min.   :-75.0000        Min.   :-10.00000          
 1st Qu.:  0.0000        1st Qu.:  0.00000          
 Median :  0.0000        Median :  0.00000          
 Mean   : -0.1448        Mean   : -0.02224          
 3rd Qu.:  0.0000        3rd Qu.:  0.00000          
 Max.   : 11.4000        Max.   :  0.00000          
 friendly_fire_minerals_army friendly_fire_minerals_technology
 Min.   :-30.0000            Min.   :-150.0000                
 1st Qu.:  0.0000            1st Qu.:   0.0000                
 Median :  0.0000            Median :   0.0000                
 Mean   : -0.0417            Mean   :  -0.3691                
 3rd Qu.:  0.0000            3rd Qu.:   0.0000                
 Max.   :  0.0000            Max.   :   0.0000                
 friendly_fire_vespene_army friendly_fire_vespene_technology used_minerals_none
 Min.   :-20.00000          Min.   :-25.00000                Min.   :-60.0000  
 1st Qu.:  0.00000          1st Qu.:  0.00000                1st Qu.:  0.0000  
 Median :  0.00000          Median :  0.00000                Median :  0.0000  
 Mean   : -0.01668          Mean   : -0.09869                Mean   : -0.3436  
 3rd Qu.:  0.00000          3rd Qu.:  0.00000                3rd Qu.: 10.0000  
 Max.   :  0.00000          Max.   :  0.00000                Max.   : 50.0000  
 used_minerals_army used_minerals_economy used_minerals_technology
 Min.   :-300.00    Min.   :-300          Min.   :-190.00         
 1st Qu.: -80.00    1st Qu.: -90          1st Qu.: -50.00         
 Median : -50.00    Median : -60          Median : -20.00         
 Mean   : -47.67    Mean   : -56          Mean   : -28.13         
 3rd Qu.: -20.00    3rd Qu.: -20          3rd Qu.:   0.00         
 Max.   : 250.00    Max.   : 475          Max.   : 150.00         
 used_minerals_upgrade used_vespene_none  used_vespene_army
 Min.   :-80.00        Min.   :-16.6667   Min.   :-200.00  
 1st Qu.:  0.00        1st Qu.:  0.0000   1st Qu.: -40.00  
 Median :  0.00        Median :  0.0000   Median : -25.00  
 Mean   : -5.28        Mean   : -0.8384   Mean   : -21.85  
 3rd Qu.:  0.00        3rd Qu.:  0.0000   3rd Qu.:   0.00  
 Max.   : 25.00        Max.   :  0.0000   Max.   : 200.00  
 used_vespene_economy used_vespene_technology total_used_minerals_none
 Min.   :-60.0000     Min.   :-90.000         Min.   :-10.0000        
 1st Qu.:  0.0000     1st Qu.:-10.000         1st Qu.:  0.0000        
 Median :  0.0000     Median :  0.000         Median :  0.0000        
 Mean   : -0.1334     Mean   : -6.966         Mean   : -0.5783        
 3rd Qu.:  0.0000     3rd Qu.:  0.000         3rd Qu.:  0.0000        
 Max.   : 30.0000     Max.   : 75.000         Max.   :  0.0000        
 total_used_minerals_army total_used_minerals_economy
 Min.   :-225.00          Min.   :-400.00            
 1st Qu.: -90.00          1st Qu.:-110.00            
 Median : -60.00          Median : -70.00            
 Mean   : -63.22          Mean   : -73.85            
 3rd Qu.: -40.00          3rd Qu.: -30.00            
 Max.   :   0.00          Max.   :   0.00            
 total_used_minerals_technology total_used_minerals_upgrade
 Min.   :-200.00                Min.   :-50.000            
 1st Qu.: -45.00                1st Qu.:  0.000            
 Median : -25.00                Median :  0.000            
 Mean   : -29.31                Mean   : -2.693            
 3rd Qu.:   0.00                3rd Qu.:  0.000            
 Max.   :   0.00                Max.   :  0.000            
 total_used_vespene_army total_used_vespene_economy
 Min.   :-162.5          Min.   :-120.0000         
 1st Qu.: -40.0          1st Qu.:   0.0000         
 Median : -25.0          Median :   0.0000         
 Mean   : -28.0          Mean   :  -0.4837         
 3rd Qu.:  -5.0          3rd Qu.:   0.0000         
 Max.   :   0.0          Max.   :   0.0000         
 total_used_vespene_technology total_damage_dealt_life total_damage_taken_life
 Min.   :-75.000               Min.   :-1142.50        Min.   :-1240.75       
 1st Qu.:-15.000               1st Qu.:  -68.80        1st Qu.:  -65.60       
 Median : -5.000               Median :  -15.20        Median :  -14.00       
 Mean   : -8.821               Mean   :  -58.68        Mean   :  -54.15       
 3rd Qu.:  0.000               3rd Qu.:    0.00        3rd Qu.:    0.00       
 Max.   :  0.000               Max.   :    0.00        Max.   :    0.00       
 total_healed_life     minerals          vespene            food_cap      
 Min.   :-312.325   Min.   :-335.00   Min.   :-103.800   Min.   :-15.000  
 1st Qu.:   0.000   1st Qu.: -42.00   1st Qu.: -24.400   1st Qu.: -3.200  
 Median :   0.000   Median :  -8.20   Median :  -8.600   Median : -1.600  
 Mean   :  -3.643   Mean   : -13.09   Mean   :  -7.597   Mean   : -1.868  
 3rd Qu.:   0.000   3rd Qu.:  18.00   3rd Qu.:   8.000   3rd Qu.:  0.000  
 Max.   :   0.000   Max.   : 305.00   Max.   : 202.000   Max.   :  8.000  
   food_used       food_workers     idle_worker_count     army_count     
 Min.   :-5.000   Min.   :-2.4000   Min.   :-27.00000   Min.   :-4.0000  
 1st Qu.:-2.200   1st Qu.:-0.8000   1st Qu.: -0.20000   1st Qu.:-1.0000  
 Median :-1.400   Median :-0.4000   Median :  0.00000   Median :-0.6000  
 Mean   :-1.337   Mean   :-0.4031   Mean   : -0.07587   Mean   :-0.4903  
 3rd Qu.:-0.600   3rd Qu.: 0.0000   3rd Qu.:  0.00000   3rd Qu.: 0.0000  
 Max.   : 9.250   Max.   : 9.0000   Max.   :  6.00000   Max.   : 3.5000  
     result    
 Defeat :1755  
 Victory:1842  
               
               
               
               
Error in model(data[data_train_idx, ], res[data_train_idx], data[data_test_idx,  : 
  cannot open file '/data/volz/class/R/class.rdb': No such file or directory
In addition: Warning message:
In model(data[data_train_idx, ], res[data_train_idx], data[data_test_idx,  :
  restarting interrupted promise evaluation
Execution halted
