   method  tick features              mean                  sd
1       1  6720       ds 0.598611111111111  0.0412478955692153
2       1  6944       ds 0.575842696629214                   0
3       1  7168       ds 0.583806818181818  0.0140617825804143
4       1  7392       ds 0.560344827586207  0.0650213132125561
5       1  7616       ds 0.604956268221574 0.00618460741562583
6       1  7840       ds 0.609144542772861  0.0312879106719712
7       1  8064       ds 0.565671641791045  0.0105538325550231
8       1  8288       ds 0.604545454545454  0.0192847303959967
9       1  8512       ds 0.558282208588957  0.0173523136487497
10      1  8736       ds 0.610591900311526  0.0352451978161519
11      1  8960       ds 0.594043887147335  0.0243829924547085
12      1  9184       ds 0.607936507936508 0.00224478343233832
13      1  9408       ds 0.588424437299035   0.013641931469837
14      1  9632       ds 0.585245901639344  0.0533228064501331
15      1  9856       ds  0.56312292358804  0.0446346473174232
16      1 10080       ds 0.632996632996633                   0
17      1 10304       ds 0.591836734693878  0.0192410008486136
18      1 10528       ds 0.596219931271478  0.0121496010513152
19      1 10752       ds 0.558823529411765  0.0318075714720592
20      1 10976       ds  0.57719298245614  0.0620269106303989
21      1 11200       ds 0.585106382978723  0.0050149417105429
22      1 11424       ds            0.6125 0.00252538136138052
23      1 11648       ds 0.572727272727273 0.00257129738613292
24      1 11872       ds 0.604779411764706  0.0441941738241592
25      1 12096       ds 0.578651685393258   0.060911820102212
26      1 12320       ds 0.609848484848485  0.0482118259899918
27      1 12544       ds 0.626923076923077 0.00543928293220419
28      1 12768       ds 0.608949416342413  0.0412708238046622
29      1 12992       ds  0.62007874015748  0.0417582744795205
30      1 13216       ds 0.635458167330677  0.0253544264170475
31      1 13440       ds 0.603238866396761   0.028627804906338
32      1 13664       ds 0.582644628099174 0.00584385769575665
33      1 13888       ds 0.554393305439331  0.0384618751273017
34      1 14112       ds 0.606837606837607  0.0362618862146947
35      1 14336       ds 0.602620087336245  0.0185268152275951
36      1 14560       ds 0.628318584070796  0.0187727464031827
37      1 14784       ds  0.61036036036036 0.00955549704306143
38      1 15008       ds 0.600456621004566   0.016143990438049
39      1 15232       ds 0.602325581395349  0.0295998187473438
40      1 15456       ds 0.616666666666667  0.0168358757425369
41      1 15680       ds  0.58252427184466  0.0617860294240673
42      1 15904       ds 0.588669950738916 0.00348328463638701
43      1 16128       ds 0.618090452261307   0.035533004079726
44      1 16352       ds 0.584615384615385 0.00725237724293892
45      1 16576       ds 0.602094240837696  0.0296170379554575
46      1 16800       ds 0.598404255319149  0.0564180942436076
47      1 17024       ds 0.567934782608696  0.0576445745532512
48      1 17248       ds 0.645251396648045   0.035552854919994
49      1 17472       ds             0.625  0.0482118259899918
50      1 17696       ds 0.661849710982659  0.0286112570422303
51      1 17920       ds 0.616071428571429  0.0462986582919763
52      1 18144       ds 0.627272727272727  0.0128564869306645
53      1 18368       ds 0.599378881987578  0.0395277082650865
54      1 18592       ds 0.608974358974359  0.0181309431073474
55      1 18816       ds 0.611111111111111  0.0693241942339752
56      1 19040       ds 0.592715231788079  0.0608767427511597
57      1 19264       ds 0.593959731543624  0.0332197816664821
58      1 19488       ds 0.625850340136054  0.0192410008486136
59      1 19712       ds 0.615384615384615  0.0395584213251215
60      1 19936       ds 0.635714285714286  0.0303045763365663
61      1 20160       ds 0.602941176470588  0.0415945165403852
62      1 20384       ds 0.595419847328244  0.0431820935075754
63      1 20608       ds 0.608527131782946  0.0383701354132235
64      1 20832       ds             0.632  0.0452548339959391
65      1 21056       ds 0.586065573770492  0.0173878716685217
66      1 21280       ds  0.61864406779661  0.0239697213961542
67      1 21504       ds 0.637931034482759  0.0121914962273543
68      1 21728       ds 0.597345132743363  0.0312879106719711
69      1 21952       ds 0.628440366972477  0.0324360908801168
70      1 22176       ds 0.617924528301887  0.0466957308330739
71      1 22400       ds 0.658653846153846  0.0475937256567868
72      1 22624       ds 0.632352941176471  0.0069324194233975
73      1 22848       ds              0.63  0.0282842712474619
74      1 23072       ds 0.591836734693878  0.0144307506364602
75      1 23296       ds 0.638297872340426  0.0300896502632573
76      1 23520       ds 0.580645161290323   0.045619792334616
77      1 23744       ds 0.642857142857143  0.0233112125665895
78      1 23968       ds 0.568181818181818  0.0803530433166531
79      1 24192       ds 0.587209302325581  0.0411108593713109
80      1 24416       ds 0.601190476190476 0.00841793787126839
81      1 24640       ds  0.62962962962963  0.0698377067838565
82      1 24864       ds 0.569620253164557  0.0179014374983936
83      1 25088       ds  0.62987012987013  0.0275496148514239
84      1 25312       ds              0.56  0.0188561808316413
85      1 25536       ds 0.623287671232877 0.00968639426282938
86      1 25760       ds             0.625  0.0785674201318387
87      1 25984       ds               0.6  0.0202030508910442
88      1 26208       ds 0.710144927536232   0.102479243650224
89      1 26432       ds 0.649253731343284  0.0527691627751155
90      1 26656       ds 0.530769230769231  0.0979070927796758
91      1 26880       ds 0.642857142857143  0.0336717514850736
