method	tick	features	mean	sd
1	3	6720	ds	0.597701149425287	0.00406383207578471
2	3	6944	ds	0.625	0.0369997734341799
3	3	7168	ds	0.626470588235294	0.0249567099242312
4	3	7392	ds	0.623511904761905	0.0063134534034513
5	3	7616	ds	0.628012048192771	0.0149088779165838
6	3	7840	ds	0.634556574923547	0.00216240605867447
7	3	8064	ds	0.651702786377709	0.0328377762160935
8	3	8288	ds	0.5890625	0.0066291260736239
9	3	8512	ds	0.642857142857143	0.0202030508910442
10	3	8736	ds	0.642394822006472	0.00686511438045192
11	3	8960	ds	0.649180327868852	0.0185470631130898
12	3	9184	ds	0.649006622516556	0.00468282636547385
13	3	9408	ds	0.610738255033557	0.0379654647616938
14	3	9632	ds	0.66722972972973	0.0119443713038268
15	3	9856	ds	0.662116040955631	0.0193066697934893
16	3	10080	ds	0.681660899653979	0.0195738901366518
17	3	10304	ds	0.636363636363636	0.0296688159938411
18	3	10528	ds	0.663732394366197	0.00746943782943535
19	3	10752	ds	0.641071428571429	0.0328299576979468
20	3	10976	ds	0.644404332129964	0.0280800526824983
21	3	11200	ds	0.625	0.0207972582701925
22	3	11424	ds	0.652416356877323	0.0184005482093154
23	3	11648	ds	0.678571428571429	0.0239246655288682
24	3	11872	ds	0.639312977099237	0.035085450974905
25	3	12096	ds	0.623552123552124	0.0081904260369098
26	3	12320	ds	0.666666666666667	0.0110918710774361
27	3	12544	ds	0.661354581673307	0.0338059018893967
28	3	12768	ds	0.66869918699187	0.00287441780970147
29	3	12992	ds	0.672839506172839	0.0378287578412557
30	3	13216	ds	0.65546218487395	0
31	3	13440	ds	0.669527896995708	0.0242783444184223
32	3	13664	ds	0.62987012987013	0.0153053415841244
33	3	13888	ds	0.639380530973451	0.0156439553359856
34	3	14112	ds	0.65695067264574	0.00951264728053654
35	3	14336	ds	0.666666666666667	0.0129151923504392
36	3	14560	ds	0.686915887850467	0.00660847459052848
37	3	14784	ds	0.692857142857143	0.0370389266335811
38	3	15008	ds	0.669902912621359	0.00686511438045192
39	3	15232	ds	0.648514851485149	0.0280042289578831
40	3	15456	ds	0.658291457286432	0.0568528065275616
41	3	15680	ds	0.692307692307692	0.0507666407005726
42	3	15904	ds	0.657068062827225	0.00370212974443223
43	3	16128	ds	0.611702127659574	0.0376120628290717
44	3	16352	ds	0.688524590163935	0.0850073726016615
45	3	16576	ds	0.713888888888889	0.0117851130197758
46	3	16800	ds	0.664772727272727	0.0080353043316653
47	3	17024	ds	0.684210526315789	0.0165405095014397
48	3	17248	ds	0.669642857142857	0.0462986582919763
49	3	17472	ds	0.693939393939394	0.0128564869306645
50	3	17696	ds	0.649068322981367	0.0483116434351057
51	3	17920	ds	0.681528662420382	0.0360309187865757
52	3	18144	ds	0.674193548387097	0.0136859377003847
53	3	18368	ds	0.669934640522876	0.00462161294893175
54	3	18592	ds	0.673333333333333	0.00942809041582069
55	3	18816	ds	0.657534246575342	0.00968639426282938
56	3	19040	ds	0.678321678321678	0.0593376319876823
57	3	19264	ds	0.676258992805755	0.0406967931618157
58	3	19488	ds	0.633333333333333	0.0366647960615247
59	3	19712	ds	0.685606060606061	0.00535686955444362
60	3	19936	ds	0.68359375	0.0055242717280199
61	3	20160	ds	0.656	0.045254833995939
62	3	20384	ds	0.666666666666667	0.0471404520791032
63	3	20608	ds	0.665254237288136	0.0179772910471156
64	3	20832	ds	0.660869565217391	0.0368925277140808
65	3	21056	ds	0.684684684684685	0.012740662724082
66	3	21280	ds	0.62962962962963	0.104756560175785
67	3	21504	ds	0.716981132075472	0.0266832747617565
68	3	21728	ds	0.697115384615385	0.0339955183262763
69	3	21952	ds	0.686274509803922	0.013864838846795
70	3	22176	ds	0.686868686868687	0.0285699709570322
71	3	22400	ds	0.619791666666667	0.0220970869120796
72	3	22624	ds	0.673684210526316	0
73	3	22848	ds	0.690217391304348	0.0230578298213005
74	3	23072	ds	0.662921348314607	0.0158900400266639
75	3	23296	ds	0.738636363636364	0.0642824346533224
76	3	23520	ds	0.647058823529412	0.0166378066161541
77	3	23744	ds	0.668674698795181	0.0937129469042412
78	3	23968	ds	0.666666666666667	0.0174594266959641
79	3	24192	ds	0.639240506329114	0.00895071874919677
80	3	24416	ds	0.707792207792208	0.00918320495047465
81	3	24640	ds	0.686666666666667	0.00942809041582062
82	3	24864	ds	0.668918918918919	0.0477774852153073
83	3	25088	ds	0.756944444444444	0.0294627825494395
84	3	25312	ds	0.704225352112676	0.0398370017569886
85	3	25536	ds	0.72463768115942	0.0204958487300448
86	3	25760	ds	0.664179104477612	0.0105538325550231
87	3	25984	ds	0.6953125	0.0110485434560398
88	3	26208	ds	0.761904761904762	0.0224478343233825
89	3	26432	ds	0.639344262295082	0.0695514866740866
90	3	26656	ds	0.683333333333333	0.0471404520791032
91	3	26880	ds	0.767241379310345	0.0365744886820628
