method	tick	features	mean	sd
1	1	6720	ds	0.587208885850711	0.0289834516110884
2	1	6944	ds	0.591763005780347	0.0153274591297662
3	1	7168	ds	0.573436632944893	0.0491446306026353
4	1	7392	ds	0.618203395179424	0.0545283661621916
5	1	7616	ds	0.601472548781966	0.0160972274552022
6	1	7840	ds	0.608662613981763	0.0247164984305329
7	1	8064	ds	0.593859393750044	0.0121706335702299
8	1	8288	ds	0.597978227060653	0.02969188661281
9	1	8512	ds	0.611757700427651	0.0126316915385461
10	1	8736	ds	0.577476038338658	0.0192025803197624
11	1	8960	ds	0.607142857142857	0.0114790061880933
12	1	9184	ds	0.615335135487233	0.0119179181625859
13	1	9408	ds	0.624166666666667	0.0176776695296637
14	1	9632	ds	0.592244820322392	0.007634317000393
15	1	9856	ds	0.597272270538096	0.0149023838278894
16	1	10080	ds	0.594305300017805	0.0163294705062428
17	1	10304	ds	0.597391304347826	0.0135272601618296
18	1	10528	ds	0.573176164784249	0.00282653263093057
19	1	10752	ds	0.633843663056634	0.0172166869026228
20	1	10976	ds	0.607932772341217	0.0260512538736937
21	1	11200	ds	0.635789340968888	0.0341873343644773
22	1	11424	ds	0.602957827175314	0.00470484932950106
23	1	11648	ds	0.599813432835821	0.0277038104569357
24	1	11872	ds	0.567210703780759	0.00901448274746034
25	1	12096	ds	0.62570866404322	0.0314809428694738
26	1	12320	ds	0.621967436062106	0.0063522342399668
27	1	12544	ds	0.61421163855516	0.0453020980503463
28	1	12768	ds	0.606121212121212	0.0256272639484579
29	1	12992	ds	0.582822085889571	0.00867615682437485
30	1	13216	ds	0.584051084051084	0.0178509285419829
31	1	13440	ds	0.601910828025478	0.0225193242416098
32	1	13664	ds	0.644394900020901	0.00108383955870576
33	1	13888	ds	0.608936523474989	0.0579177974589868
34	1	14112	ds	0.650669642857143	0.0110485434560398
35	1	14336	ds	0.587301587301587	0.0577230025458406
36	1	14560	ds	0.628837127246678	0.0263444094116621
37	1	14784	ds	0.612199527197207	0.00858067251925924
38	1	15008	ds	0.619166867462967	0.00612967050114666
39	1	15232	ds	0.617254025798837	0.0292417061101089
40	1	15456	ds	0.61793676454002	0.0759503768506322
41	1	15680	ds	0.585836814080286	0.0121928178830369
42	1	15904	ds	0.613479854966583	0.0472734280276176
43	1	16128	ds	0.604465285554311	0.00857159116051999
44	1	16352	ds	0.618541121766928	0.0300433046816255
45	1	16576	ds	0.642733271945979	0.0377753024142168
46	1	16800	ds	0.596341926601149	0.000419637979624538
47	1	17024	ds	0.62883732768459	0.0252950749659662
48	1	17248	ds	0.633462332301342	0.0150688906413851
49	1	17472	ds	0.619402985074627	0.0274399646430601
50	1	17696	ds	0.580431519699812	0.0102683048525026
51	1	17920	ds	0.622879114420063	0.0279365365255226
52	1	18144	ds	0.672529114706792	0.00677009378256524
53	1	18368	ds	0.660763127675123	0.0175023507484424
54	1	18592	ds	0.590776402927849	0.00742474443473157
55	1	18816	ds	0.626467197048311	0.0153031180478167
56	1	19040	ds	0.630025584795322	0.00219678641815995
57	1	19264	ds	0.59117108989299	0.01649791778274
58	1	19488	ds	0.675514971331493	0.0402430701545964
59	1	19712	ds	0.647477250395181	0.0576089473970498
60	1	19936	ds	0.624521072796935	0.0325106566062781
61	1	20160	ds	0.612204724409449	0.0139194248265068
62	1	20384	ds	0.676728896918599	0.0375093780846221
63	1	20608	ds	0.621692412214832	0.085575445216544
64	1	20832	ds	0.607758620689655	0.0243829924547085
65	1	21056	ds	0.653567251461988	0.0310961578627067
66	1	21280	ds	0.619587778654157	0.000454985890173632
67	1	21504	ds	0.636459465333623	0.0581392078510913
68	1	21728	ds	0.565712723295662	0.0158538341388891
69	1	21952	ds	0.597539501237388	0.00622571647246862
70	1	22176	ds	0.617281240854551	0.000517344733089409
71	1	22400	ds	0.621966693100714	0.0777200633405674
72	1	22624	ds	0.568062827225131	0.0481276866776184
73	1	22848	ds	0.601587301587302	0.00224478343233824
74	1	23072	ds	0.677595628415301	0.0154558859275748
75	1	23296	ds	0.628771828454032	0.0615813012762938
76	1	23520	ds	0.563633360858794	0.102112992480515
77	1	23744	ds	0.596301514617823	0.0218682548038672
78	1	23968	ds	0.637103971441321	0.010570315559906
79	1	24192	ds	0.682739343116702	0.0751084771071664
80	1	24416	ds	0.68319293199096	0.110446388957882
81	1	24640	ds	0.611782019651128	0.0129160308903919
82	1	24864	ds	0.657792792792793	0.0157347184642413
83	1	25088	ds	0.639392817475009	0.0130897219767966
84	1	25312	ds	0.606988082340195	0.0118744909083332
85	1	25536	ds	0.61021897810219	0.0144518174257105
86	1	25760	ds	0.625409922775838	0.017354149289673
87	1	25984	ds	0.61203007518797	0.0170130954871952
88	1	26208	ds	0.648806094360156	0.071249348542835
89	1	26432	ds	0.686774193548387	0.00958015639026935
90	1	26656	ds	0.642257146728086	0.0968547562362281
91	1	26880	ds	0.680718528176155	0.0440469239331038
