   method  tick features              mean                  sd
1       2  6720       ds 0.534582132564841  0.0101888585185381
2       2  6944       ds 0.532069970845481  0.0144307506364602
3       2  7168       ds 0.530973451327434 0.00417172142292946
4       2  7392       ds 0.565671641791045   0.044326096731097
5       2  7616       ds 0.575528700906344  0.0790421477459282
6       2  7840       ds 0.575384615384615  0.0391628371118703
7       2  8064       ds 0.537267080745342 0.00878393517001924
8       2  8288       ds 0.589341692789969  0.0354661708432124
9       2  8512       ds 0.536507936507937  0.0224478343233825
10      2  8736       ds 0.550324675324675  0.0298454160890425
11      2  8960       ds 0.588524590163934 0.00231838288913619
12      2  9184       ds 0.569767441860465  0.0164443437485244
13      2  9408       ds 0.535234899328859  0.0166098908332411
14      2  9632       ds 0.571186440677966 0.00719091641884629
15      2  9856       ds 0.544520547945206 0.00968639426282938
16      2 10080       ds 0.583044982698962  0.0367010440062222
17      2 10304       ds 0.603508771929825                   0
18      2 10528       ds 0.591872791519435  0.0124930526711404
19      2 10752       ds 0.573214285714286  0.0126269068069027
20      2 10976       ds 0.539855072463768  0.0204958487300449
21      2 11200       ds 0.588560885608856 0.00782775034523851
22      2 11424       ds 0.572490706319703 0.00525729948837576
23      2 11648       ds 0.573584905660377  0.0266832747617565
24      2 11872       ds 0.578544061302682  0.0379290993739911
25      2 12096       ds 0.571984435797665  0.0220111060291532
26      2 12320       ds 0.566929133858268                   0
27      2 12544       ds             0.546  0.0197989898732233
28      2 12768       ds 0.554878048780488  0.0603627740037296
29      2 12992       ds 0.578189300411523  0.0203693311452915
30      2 13216       ds 0.569327731092437  0.0623917748105777
31      2 13440       ds 0.613733905579399  0.0060695861046056
32      2 13664       ds  0.56304347826087 0.00307437730950671
33      2 13888       ds 0.577433628318584  0.0219015374703798
34      2 14112       ds 0.572072072072072  0.0573329822583687
35      2 14336       ds 0.577981651376147  0.0324360908801168
36      2 14560       ds 0.645539906103286 0.00331975014641576
37      2 14784       ds 0.573809523809524  0.0101015254455222
38      2 15008       ds 0.509708737864078  0.0686511438045191
39      2 15232       ds 0.581683168316832  0.0175026430986769
40      2 15456       ds 0.532663316582915  0.0284264032637808
41      2 15680       ds 0.592307692307692   0.061645206564981
42      2 15904       ds 0.528795811518325  0.0222127784665931
43      2 16128       ds 0.585561497326203  0.0415945165403852
44      2 16352       ds 0.576502732240437  0.0425036863008307
45      2 16576       ds 0.602777777777778 0.00392837100659192
46      2 16800       ds 0.576704545454545  0.0200882608291633
47      2 17024       ds 0.591176470588235  0.0207972582701926
48      2 17248       ds 0.625748502994012  0.0635125851365162
49      2 17472       ds 0.600609756097561 0.00431162671455212
50      2 17696       ds 0.559006211180124 0.00878393517001916
51      2 17920       ds 0.601910828025478 0.00450386484832196
52      2 18144       ds  0.61038961038961  0.0183664099009493
53      2 18368       ds 0.615131578947368  0.0232600914863995
54      2 18592       ds 0.597315436241611  0.0189827323808469
55      2 18816       ds 0.662068965517241 0.00975319698188343
56      2 19040       ds 0.622377622377622                   0
57      2 19264       ds 0.579136690647482 0.00508709914522701
58      2 19488       ds 0.649253731343284  0.0316614976650693
59      2 19712       ds 0.583969465648855  0.0917619487035978
60      2 19936       ds 0.590551181102362  0.0111355398612055
61      2 20160       ds 0.536290322580645   0.017107422125481
62      2 20384       ds 0.595833333333333   0.053033008588991
63      2 20608       ds 0.627118644067797  0.0958788855846167
64      2 20832       ds 0.539130434782609  0.0491900369521077
65      2 21056       ds 0.554054054054054  0.0318516568102048
66      2 21280       ds 0.574074074074074                   0
67      2 21504       ds 0.537735849056604                   0
68      2 21728       ds 0.553398058252427  0.0274604575218077
69      2 21952       ds 0.584158415841584  0.0560084579157661
70      2 22176       ds 0.580808080808081  0.0214274782177741
71      2 22400       ds 0.520833333333333  0.0147313912747198
72      2 22624       ds 0.642105263157895  0.0148864585512958
73      2 22848       ds 0.565217391304348  0.0153718865475336
74      2 23072       ds 0.589887640449438 0.00794502001333201
75      2 23296       ds 0.637931034482759  0.0081276641515695
76      2 23520       ds               0.6  0.0831890330807703
77      2 23744       ds 0.524096385542169  0.0766742292852883
78      2 23968       ds  0.62962962962963  0.0872971334798207
79      2 24192       ds 0.563291139240506 0.00895071874919685
80      2 24416       ds 0.616883116883117 0.00918320495047465
81      2 24640       ds 0.613333333333333  0.0565685424949238
82      2 24864       ds 0.641891891891892   0.143332455645922
83      2 25088       ds             0.625   0.117851130197758
84      2 25312       ds 0.591549295774648  0.0398370017569885
85      2 25536       ds 0.602941176470588   0.166378066161541
86      2 25760       ds 0.604477611940298  0.0527691627751155
87      2 25984       ds           0.53125  0.0662912607362388
88      2 26208       ds 0.619047619047619  0.0224478343233825
89      2 26432       ds 0.688524590163934                   0
90      2 26656       ds 0.661016949152542  0.0239697213961542
91      2 26880       ds 0.631578947368421  0.0496215285043191
