method	tick	features	mean	sd
1	2	6720	ds	0.651862464183381	0.0141826575023089
2	2	6944	ds	0.6	0.00409916974600897
3	2	7168	ds	0.673020527859238	0.0476934192589167
4	2	7392	ds	0.640949554896142	0.0293753558949901
5	2	7616	ds	0.638138138138138	0.0063703313620409
6	2	7840	ds	0.625382262996942	0.0108120302933723
7	2	8064	ds	0.669753086419753	0.0349188533919283
8	2	8288	ds	0.679127725856698	0.00440564972701899
9	2	8512	ds	0.661392405063291	0.00447535937459843
10	2	8736	ds	0.67741935483871	0.00912395846692314
11	2	8960	ds	0.617647058823529	0.00924322589786333
12	2	9184	ds	0.65016501650165	0.00933474298596098
13	2	9408	ds	0.650501672240803	0.0260139618496723
14	2	9632	ds	0.646464646464647	0
15	2	9856	ds	0.672354948805461	0
16	2	10080	ds	0.706896551724138	0.00975319698188343
17	2	10304	ds	0.70383275261324	0.00985514677611913
18	2	10528	ds	0.710526315789474	0.0322539935278074
19	2	10752	ds	0.672597864768683	0.0352295193473724
20	2	10976	ds	0.666064981949459	0.0536073733029512
21	2	11200	ds	0.666666666666667	0.0155408083777263
22	2	11424	ds	0.688888888888889	0.00523782800878917
23	2	11648	ds	0.719101123595506	0.02648340004444
24	2	11872	ds	0.697718631178707	0.0134430946993641
25	2	12096	ds	0.693050193050193	0.0354918461599425
26	2	12320	ds	0.666015625	0.0359077662321294
27	2	12544	ds	0.71031746031746	0.0168358757425369
28	2	12768	ds	0.698380566801619	0.00858834147190139
29	2	12992	ds	0.728395061728395	0.0174594266959641
30	2	13216	ds	0.682008368200837	0.0295860577902321
31	2	13440	ds	0.728632478632479	0.00302182385122455
32	2	13664	ds	0.731601731601732	0.00612213663364971
33	2	13888	ds	0.70704845814978	0.0467251176995516
34	2	14112	ds	0.737668161434978	0.00317088242684551
35	2	14336	ds	0.735159817351598	0
36	2	14560	ds	0.704651162790698	0.0295998187473439
37	2	14784	ds	0.71563981042654	0.0603219055040657
38	2	15008	ds	0.746376811594203	0.00341597478834082
39	2	15232	ds	0.716748768472906	0.0383161310002562
40	2	15456	ds	0.738693467336683	0.00710660081594523
41	2	15680	ds	0.714285714285714	0.0288615012729203
42	2	15904	ds	0.6953125	0.0184142390933997
43	2	16128	ds	0.74468085106383	0.022567237697443
44	2	16352	ds	0.722826086956522	0.0230578298213004
45	2	16576	ds	0.704419889502762	0.00390666729937318
46	2	16800	ds	0.727272727272727	0.0562471303216572
47	2	17024	ds	0.726744186046512	0.0328886874970487
48	2	17248	ds	0.695266272189349	0.0292884465580227
49	2	17472	ds	0.715151515151515	0.0171419825742194
50	2	17696	ds	0.704968944099379	0.0307437730950673
51	2	17920	ds	0.715189873417722	0.0716057499935744
52	2	18144	ds	0.733974358974359	0.0317291504378579
53	2	18368	ds	0.735294117647059	0.0138648388467951
54	2	18592	ds	0.725165562913907	0.0515110900202121
55	2	18816	ds	0.75	0.0532751684455619
56	2	19040	ds	0.741258741258741	0.00988960533128036
57	2	19264	ds	0.775	0.00505076272276104
58	2	19488	ds	0.77037037037037	0.020951312035157
59	2	19712	ds	0.731060606060606	0.0696393042077661
60	2	19936	ds	0.775193798449612	0.0109628958323495
61	2	20160	ds	0.732	0.00565685424949239
62	2	20384	ds	0.739669421487603	0.0292192884787829
63	2	20608	ds	0.699152542372881	0.101871315933655
64	2	20832	ds	0.778260869565217	0.0061487546190135
65	2	21056	ds	0.675675675675676	0.0254813254481638
66	2	21280	ds	0.761467889908257	0.103795490816374
67	2	21504	ds	0.707547169811321	0.053366549523513
68	2	21728	ds	0.778846153846154	0.0135982073305105
69	2	21952	ds	0.784313725490196	0.013864838846795
70	2	22176	ds	0.765	0.0353553390593274
71	2	22400	ds	0.742268041237113	0.0145795212615783
72	2	22624	ds	0.757894736842105	0.0148864585512957
73	2	22848	ds	0.71505376344086	0.00760329872243599
74	2	23072	ds	0.705555555555555	0.0235702260395516
75	2	23296	ds	0.710227272727273	0.0401765216583266
76	2	23520	ds	0.75	0.0246665156227866
77	2	23744	ds	0.753012048192771	0.0596355116663354
78	2	23968	ds	0.75	0.0431162671455212
79	2	24192	ds	0.78125	0.0265165042944956
80	2	24416	ds	0.705128205128205	0.0725237724293895
81	2	24640	ds	0.75	0.0372161463782393
82	2	24864	ds	0.756756756756757	0.0191109940861229
83	2	25088	ds	0.659722222222222	0.00982092751647979
84	2	25312	ds	0.809859154929577	0.0298777513177415
85	2	25536	ds	0.746376811594203	0.0512396218251121
86	2	25760	ds	0.723880597014925	0.0105538325550231
87	2	25984	ds	0.776923076923077	0.0543928293220421
88	2	26208	ds	0.682539682539683	0.112239171616912
89	2	26432	ds	0.795081967213115	0.0811434011197677
90	2	26656	ds	0.733333333333333	0.0235702260395516
91	2	26880	ds	0.706896551724138	0.0243829924547085
