   method  tick features              mean                   sd
1       2  6720       ds 0.594314054342105  0.00976014813199295
2       2  6944       ds 0.580395607335434   0.0167598539736539
3       2  7168       ds 0.598103953387379  0.00508972553670404
4       2  7392       ds 0.568773420066524   0.0117858573113648
5       2  7616       ds 0.601015372599141   0.0290303646737006
6       2  7840       ds  0.57185663863158    0.038277084828084
7       2  8064       ds 0.587999711142432   0.0150087324169855
8       2  8288       ds 0.574322128044766  0.00745249349905089
9       2  8512       ds 0.585426861027462   0.0403193230544665
10      2  8736       ds  0.60161249887789   0.0500869045062869
11      2  8960       ds  0.59932022491872  0.00230679344600671
12      2  9184       ds 0.570840450695235  0.00308485666955813
13      2  9408       ds 0.585803063942191   0.0437112571632248
14      2  9632       ds 0.590919653007775   0.0170123599367181
15      2  9856       ds 0.600949569833425  0.00258547646974211
16      2 10080       ds 0.628152591388707  0.00613826076294827
17      2 10304       ds 0.598622266578368   0.0160985847863784
18      2 10528       ds 0.600435778674237  0.00758205538071933
19      2 10752       ds 0.607290905755408   0.0052659472335525
20      2 10976       ds 0.602371879691379   0.0285106301482529
21      2 11200       ds 0.622427969189677   0.0136040394620285
22      2 11424       ds  0.62700936230348   0.0178619095053305
23      2 11648       ds 0.597176325113195   0.0383814510500889
24      2 11872       ds 0.615300210379153  0.00824361443461825
25      2 12096       ds 0.641594068473207   0.0191720482059139
26      2 12320       ds 0.646724456248631   0.0142503955217836
27      2 12544       ds 0.624147170169637  0.00098203193417288
28      2 12768       ds 0.618230328129978   0.0219070195827945
29      2 12992       ds 0.629726796124722   0.0264827518734516
30      2 13216       ds 0.648050383177041   0.0278966566532334
31      2 13440       ds 0.606086582487942    0.021420094711821
32      2 13664       ds 0.615441535910437   0.0149867679605833
33      2 13888       ds 0.630306735825562   0.0126342594092519
34      2 14112       ds 0.629792951283924  0.00947419759639551
35      2 14336       ds 0.615483708835034   0.0815302880088849
36      2 14560       ds 0.635651944479193   0.0131100709734339
37      2 14784       ds 0.637862362552135   0.0234975110269515
38      2 15008       ds  0.58042342647922  0.00957130058081803
39      2 15232       ds 0.649491184089682   0.0601297096617454
40      2 15456       ds 0.622936811391014   0.0443563674523414
41      2 15680       ds 0.657691665473976  0.00810468986117401
42      2 15904       ds  0.64685895039938  0.00432367159835122
43      2 16128       ds  0.67626411389298   0.0403019623445057
44      2 16352       ds 0.625408610999376   0.0344739965370443
45      2 16576       ds 0.627911520059798   0.0223834043649723
46      2 16800       ds 0.638193760579788   0.0344366787017064
47      2 17024       ds 0.613706457386755   0.0534297399855675
48      2 17248       ds 0.654287249890566  0.00211613328962177
49      2 17472       ds 0.636775136640909     0.04048569144387
50      2 17696       ds 0.667657159142185   0.0229742951339609
51      2 17920       ds 0.671873461753027  0.00784307721724319
52      2 18144       ds 0.650435582177386 0.000253387360639594
53      2 18368       ds 0.641697729106678   0.0215906964325253
54      2 18592       ds 0.663096840053826   0.0523398792329256
55      2 18816       ds  0.63836121332356  0.00225549934640782
56      2 19040       ds 0.602621375692147  0.00402075790787743
57      2 19264       ds 0.632463419795634   0.0117412902704731
58      2 19488       ds 0.626679279125943   0.0342066764747893
59      2 19712       ds 0.670028909796363 0.000260011876529928
60      2 19936       ds 0.617101234109678  0.00242766548240717
61      2 20160       ds 0.633663366336634    0.040256079126957
62      2 20384       ds 0.633459887212395   0.0714818690654567
63      2 20608       ds 0.589564373276821   0.0383909513768086
64      2 20832       ds 0.671324721433654    0.033746592419472
65      2 21056       ds 0.665769286437979   0.0333647142374894
66      2 21280       ds 0.644900250012756    0.121671866364279
67      2 21504       ds 0.606735643737436   0.0175107970264556
68      2 21728       ds 0.602767992654912   0.0122722489848797
69      2 21952       ds 0.634392924856601  0.00179038004692399
70      2 22176       ds 0.602337104031186  0.00655622987820736
71      2 22400       ds 0.638107624321754   0.0156198729032034
72      2 22624       ds 0.635173043497393   0.0132161494932559
73      2 22848       ds 0.658346155561502   0.0304364656227217
74      2 23072       ds 0.619932432432432    0.052555233736838
75      2 23296       ds 0.652783269627872  0.00217466168810942
76      2 23520       ds  0.62088779956427   0.0149817286427869
77      2 23744       ds 0.670275594108611   0.0918708501429938
78      2 23968       ds 0.665968787819929   0.0537627879209766
79      2 24192       ds 0.582274785792056   0.0551086486718374
80      2 24416       ds 0.677759830917667  0.00600833904610666
81      2 24640       ds 0.664286091805185   0.0182845058373467
82      2 24864       ds 0.669251695873375  0.00751975484515088
83      2 25088       ds 0.644144144144144   0.0318516568102048
84      2 25312       ds 0.679697788868095  0.00401904457318201
85      2 25536       ds 0.620617850711441   0.0768281641830961
86      2 25760       ds 0.598568044788975   0.0242858595174966
87      2 25984       ds 0.605029020262051    0.104125792648921
88      2 26208       ds 0.620127171215881   0.0178575167879059
89      2 26432       ds 0.604208323645664   0.0316644422358822
90      2 26656       ds 0.596395881006865    0.105580589181744
91      2 26880       ds 0.684304032681315   0.0413287208595749
