method	tick	features	mean	sd
1	2	6720	ds	0.572222222222222	0.0353553390593273
2	2	6944	ds	0.582865168539326	0.00595876500999905
3	2	7168	ds	0.590909090909091	0.00401765216583269
4	2	7392	ds	0.576149425287356	0.00203191603789239
5	2	7616	ds	0.567055393586006	0.0144307506364602
6	2	7840	ds	0.591445427728614	0.00208586071146477
7	2	8064	ds	0.611940298507463	0.00844306604401849
8	2	8288	ds	0.595454545454545	0.0278557216831064
9	2	8512	ds	0.611963190184049	0.00650711761828107
10	2	8736	ds	0.552959501557632	0.00660847459052848
11	2	8960	ds	0.601880877742947	0.00886654271080307
12	2	9184	ds	0.638095238095238	0.0269374011880589
13	2	9408	ds	0.601286173633441	0.0045473104899456
14	2	9632	ds	0.616393442622951	0.00927353155654493
15	2	9856	ds	0.59468438538206	0.0140951517844494
16	2	10080	ds	0.592592592592593	0.0190466473046881
17	2	10304	ds	0.636054421768707	0.0432922519093804
18	2	10528	ds	0.579037800687285	0.00242992021026312
19	2	10752	ds	0.56401384083045	0
20	2	10976	ds	0.617543859649123	0.0198486114017276
21	2	11200	ds	0.620567375886525	0.0200597668421715
22	2	11424	ds	0.614285714285714	0.0606091526731327
23	2	11648	ds	0.581818181818182	0
24	2	11872	ds	0.575367647058823	0.00259965728377406
25	2	12096	ds	0.627340823970037	0.00794502001333201
26	2	12320	ds	0.615530303030303	0.00267843477722177
27	2	12544	ds	0.611538461538462	0.0217571317288168
28	2	12768	ds	0.626459143968872	0.0330166590437299
29	2	12992	ds	0.641732283464567	0.00556776993060273
30	2	13216	ds	0.607569721115538	0.00845147547234917
31	2	13440	ds	0.607287449392713	0.0343533658876056
32	2	13664	ds	0.663223140495868	0.0321412173266613
33	2	13888	ds	0.617154811715481	0.00887581733706962
34	2	14112	ds	0.58974358974359	0.0362618862146948
35	2	14336	ds	0.663755458515284	0.00617560507586506
36	2	14560	ds	0.599557522123894	0.00938637320159135
37	2	14784	ds	0.601351351351351	0.0414071538532663
38	2	15008	ds	0.611872146118722	0.00645759617521961
39	2	15232	ds	0.581395348837209	0.00657773749940972
40	2	15456	ds	0.571428571428571	0.0606091526731327
41	2	15680	ds	0.618932038834951	0.00343255719022596
42	2	15904	ds	0.61576354679803	0.0487659849094171
43	2	16128	ds	0.615577889447236	0.00355330040797262
44	2	16352	ds	0.617948717948718	0.0181309431073474
45	2	16576	ds	0.654450261780105	0.0444255569331862
46	2	16800	ds	0.61968085106383	0.00376120628290719
47	2	17024	ds	0.665760869565217	0.0192148581844171
48	2	17248	ds	0.645251396648045	0.0197515860666634
49	2	17472	ds	0.607954545454545	0.0401765216583265
50	2	17696	ds	0.604046242774567	0.0367859019114388
51	2	17920	ds	0.642857142857143	0.0841793787126842
52	2	18144	ds	0.636363636363636	0.00857099128710972
53	2	18368	ds	0.645962732919255	0.0175678703400385
54	2	18592	ds	0.650641025641026	0.0498600935452053
55	2	18816	ds	0.611111111111111	0.00462161294893175
56	2	19040	ds	0.658940397350993	0.0140484790964215
57	2	19264	ds	0.651006711409396	0.0474568309521173
58	2	19488	ds	0.608843537414966	0.0432922519093805
59	2	19712	ds	0.653846153846154	0.0346136186594814
60	2	19936	ds	0.617857142857143	0.0858629662869379
61	2	20160	ds	0.647058823529412	0.0103986291350963
62	2	20384	ds	0.66030534351145	0.0377843318191286
63	2	20608	ds	0.635658914728682	0.0877031666587966
64	2	20832	ds	0.672	0.0226274169979695
65	2	21056	ds	0.639344262295082	0.0115919144456811
66	2	21280	ds	0.588983050847458	0.0179772910471156
67	2	21504	ds	0.650862068965517	0.00609574811367711
68	2	21728	ds	0.619469026548673	0.0500606570751538
69	2	21952	ds	0.600917431192661	0.00648721817602341
70	2	22176	ds	0.584905660377358	0.106733099047026
71	2	22400	ds	0.6875	0.0611919329872973
72	2	22624	ds	0.617647058823529	0.0554593553871802
73	2	22848	ds	0.635	0.0212132034355964
74	2	23072	ds	0.663265306122449	0.0865845038187609
75	2	23296	ds	0.659574468085106	0.0300896502632573
76	2	23520	ds	0.639784946236559	0.068429688501924
77	2	23744	ds	0.598901098901099	0.0388520209443158
78	2	23968	ds	0.619318181818182	0.0241059129949959
79	2	24192	ds	0.656976744186047	0.0411108593713109
80	2	24416	ds	0.648809523809524	0.00841793787126839
81	2	24640	ds	0.623456790123457	0.0960268468278027
82	2	24864	ds	0.658227848101266	0.0358028749967872
83	2	25088	ds	0.545454545454545	0.0918320495047464
84	2	25312	ds	0.62	0.0659966329107444
85	2	25536	ds	0.616438356164384	0.0581183655769765
86	2	25760	ds	0.659722222222222	0.0294627825494395
87	2	25984	ds	0.628571428571429	0.0606091526731326
88	2	26208	ds	0.572463768115942	0.0512396218251121
89	2	26432	ds	0.671641791044776	0.0633229953301385
90	2	26656	ds	0.6	0.130542790372901
91	2	26880	ds	0.571428571428571	0.0897913372935298
