method	tick	features	mean	sd
1	5	6720	ds	0.533508343508344	0.0150630724164851
2	5	6944	ds	0.544737302393763	0.00417272038172508
3	5	7168	ds	0.547860579077898	0.00996207748915217
4	5	7392	ds	0.538130615822924	0.0204523236863907
5	5	7616	ds	0.560723148297999	0.00330913919555121
6	5	7840	ds	0.552950075642965	0.0224648145308888
7	5	8064	ds	0.537868363719757	0.00117567346946504
8	5	8288	ds	0.557730338157295	0.042237695723119
9	5	8512	ds	0.554693458129055	0.0217580745055346
10	5	8736	ds	0.557964217252396	0.0187182234702852
11	5	8960	ds	0.551136363636364	0.0264017142326146
12	5	9184	ds	0.533749674309536	0.0197250181763379
13	5	9408	ds	0.577298563380439	0.0373074719226709
14	5	9632	ds	0.568630373436444	0.0505535117067835
15	5	9856	ds	0.571065989847716	0.00358937452378959
16	5	10080	ds	0.548836697893302	0.0291774456660606
17	5	10304	ds	0.557291666666667	0.0294627825494395
18	5	10528	ds	0.555744149477384	0.0104846190939046
19	5	10752	ds	0.557621150914035	0.00236298749870734
20	5	10976	ds	0.545866692545328	0.00266021377883435
21	5	11200	ds	0.571818181818182	0.00128564869306646
22	5	11424	ds	0.558766747222203	0.0126589778310444
23	5	11648	ds	0.55689274091091	0.00776526530097482
24	5	11872	ds	0.565622213503585	0.00859261976496259
25	5	12096	ds	0.561957404399823	0.00331211614249863
26	5	12320	ds	0.565891472868217	0.0301479635389614
27	5	12544	ds	0.578063241106719	0.00139744423159396
28	5	12768	ds	0.56425702811245	0.00283978626982553
29	5	12992	ds	0.584443829830031	0.00229349227529585
30	5	13216	ds	0.559396959188191	0.0149063912439857
31	5	13440	ds	0.586202262893386	0.0183195177796725
32	5	13664	ds	0.562036847397036	0.0115364995347939
33	5	13888	ds	0.570217391304348	0.0144495733546816
34	5	14112	ds	0.574150393732103	0.0182478488960555
35	5	14336	ds	0.596150696150696	0.00098450575595179
36	5	14560	ds	0.600962101297347	0.0482838316758324
37	5	14784	ds	0.587379468065222	0.0490537788028337
38	5	15008	ds	0.562241197800912	0.0125060878834257
39	5	15232	ds	0.578696996039795	0.0419701648835249
40	5	15456	ds	0.549807213930348	0.0386182322909221
41	5	15680	ds	0.576512933294122	0.0102437313235607
42	5	15904	ds	0.584519892909946	0.00137508944221579
43	5	16128	ds	0.553940816764659	0.00352086770457643
44	5	16352	ds	0.572296529416907	0.0338130439119715
45	5	16576	ds	0.545352654817163	0.0118318105127784
46	5	16800	ds	0.561367072491446	0.0130876929501066
47	5	17024	ds	0.581520381136413	0.00901684531322651
48	5	17248	ds	0.594686907020873	0.0257617650830773
49	5	17472	ds	0.613545906829489	0.00227067306486859
50	5	17696	ds	0.552501112017199	0.00957338393611035
51	5	17920	ds	0.592758324021242	0.00403469648590962
52	5	18144	ds	0.599365131545155	0.00271676377514324
53	5	18368	ds	0.565359477124183	0
54	5	18592	ds	0.574434801242901	0.0287600700887618
55	5	18816	ds	0.600493709189361	0.0262391909565959
56	5	19040	ds	0.630089338461353	0.0484658386005512
57	5	19264	ds	0.615487980888867	0.0259010894815756
58	5	19488	ds	0.571773959788137	0.0223690134341998
59	5	19712	ds	0.556963971266456	0.0114435203149233
60	5	19936	ds	0.577726201002063	0.00657507189697487
61	5	20160	ds	0.55330052339661	0.0105836777810595
62	5	20384	ds	0.569398561989895	0.0126072769478946
63	5	20608	ds	0.584947786646039	0.0284175328186851
64	5	20832	ds	0.595697054906023	0.00122961442636401
65	5	21056	ds	0.560709134146817	0.00175046901116312
66	5	21280	ds	0.574389426500775	0.0115673913138681
67	5	21504	ds	0.537848561666483	0.04365934297594
68	5	21728	ds	0.580041011619959	0.0525859315058759
69	5	21952	ds	0.601590148254424	0.0712348366604238
70	5	22176	ds	0.551980198019802	0.0175026430986769
71	5	22400	ds	0.591612033414402	0.0646206022671539
72	5	22624	ds	0.567708333333333	0.0294627825494395
73	5	22848	ds	0.649836766858043	0.0163184611216078
74	5	23072	ds	0.58439226519337	0.0486380078771962
75	5	23296	ds	0.524139702105804	0.0301437405436484
76	5	23520	ds	0.603468208092486	0.00490478692152518
77	5	23744	ds	0.591252584301704	0.0328171750589892
78	5	23968	ds	0.621212121212121	0.0214274782177741
79	5	24192	ds	0.585344759808161	0.129646435547372
80	5	24416	ds	0.62861807627187	0.0207804903444728
81	5	24640	ds	0.632207792207792	0.0675883884354934
82	5	24864	ds	0.587387387387387	0.0293035242653885
83	5	25088	ds	0.621027863200075	0.054922514408628
84	5	25312	ds	0.599164724164724	0.0561784525068566
85	5	25536	ds	0.610285684495881	0.0694868252808176
86	5	25760	ds	0.671195652173913	0.0653305178270179
87	5	25984	ds	0.609848484848485	0.0267843477722177
88	5	26208	ds	0.679633795775528	0.0744578756592509
89	5	26432	ds	0.624550179928029	0.0209219919263513
90	5	26656	ds	0.682212885154062	0.0691261251075924
91	5	26880	ds	0.608333333333333	0.0235702260395516
