method	tick	features	mean	sd
1	5	6720	ds	0.597701149425287	0.0162553283031391
2	5	6944	ds	0.505813953488372	0.0041110859371311
3	5	7168	ds	0.532352941176471	0.0582323231565392
4	5	7392	ds	0.583333333333333	0.0336717514850736
5	5	7616	ds	0.569277108433735	0.0170387176189529
6	5	7840	ds	0.562691131498471	0
7	5	8064	ds	0.551083591331269	0.0175134806485832
8	5	8288	ds	0.5421875	0.0066291260736239
9	5	8512	ds	0.566666666666667	0.00224478343233824
10	5	8736	ds	0.577669902912621	0.0160186002210544
11	5	8960	ds	0.570491803278689	0.0231838288913622
12	5	9184	ds	0.596026490066225	0.00936565273094762
13	5	9408	ds	0.580536912751678	0.0237284154760587
14	5	9632	ds	0.54222972972973	0.026277616868419
15	5	9856	ds	0.522184300341297	0.0144800023451171
16	5	10080	ds	0.576124567474048	0.00734020880124447
17	5	10304	ds	0.536713286713287	0.00247240133282005
18	5	10528	ds	0.556338028169014	0.0298777513177415
19	5	10752	ds	0.567857142857143	0.0202030508910442
20	5	10976	ds	0.541516245487365	0.0255273206204529
21	5	11200	ds	0.560661764705882	0.0129982864188703
22	5	11424	ds	0.5817843866171	0.0236578476976912
23	5	11648	ds	0.603383458646617	0.0079748885096227
24	5	11872	ds	0.574427480916031	0.040483212663352
25	5	12096	ds	0.588803088803089	0.0191109940861229
26	5	12320	ds	0.582352941176471	0.00831890330807708
27	5	12544	ds	0.621513944223108	0.0394402188709628
28	5	12768	ds	0.560975609756098	0.0632371918134311
29	5	12992	ds	0.532921810699589	0.00872971334798203
30	5	13216	ds	0.533613445378151	0.0356524427489016
31	5	13440	ds	0.549356223175966	0.0485566888368445
32	5	13664	ds	0.575757575757576	0.00612213663364979
33	5	13888	ds	0.566371681415929	0.0187727464031827
34	5	14112	ds	0.573991031390135	0.0126835297073821
35	5	14336	ds	0.591324200913242	0.00322879808760977
36	5	14560	ds	0.579439252336449	0.0396508475431709
37	5	14784	ds	0.597619047619048	0.00336717514850736
38	5	15008	ds	0.548543689320388	0.0549209150436153
39	5	15232	ds	0.524752475247525	0.00700105723947077
40	5	15456	ds	0.603015075376884	0.0213198024478356
41	5	15680	ds	0.569230769230769	0.0362618862146948
42	5	15904	ds	0.557591623036649	0.0259149082110254
43	5	16128	ds	0.555851063829787	0.0413732691119789
44	5	16352	ds	0.557377049180328	0.0231838288913622
45	5	16576	ds	0.558333333333333	0.0274985970461435
46	5	16800	ds	0.559659090909091	0.012052956497498
47	5	17024	ds	0.576023391812865	0.0206756368767997
48	5	17248	ds	0.55952380952381	0
49	5	17472	ds	0.584848484848485	0.0299984695048839
50	5	17696	ds	0.549689440993789	0.0395277082650865
51	5	17920	ds	0.573248407643312	0.0630541078765074
52	5	18144	ds	0.535483870967742	0.00912395846692322
53	5	18368	ds	0.568627450980392	0.0184864517957267
54	5	18592	ds	0.54	0.0754247233265651
55	5	18816	ds	0.530821917808219	0.0435887741827324
56	5	19040	ds	0.520979020979021	0.0346136186594813
57	5	19264	ds	0.571942446043165	0.0152612974356809
58	5	19488	ds	0.562962962962963	0.0628539361054709
59	5	19712	ds	0.609848484848485	0.00535686955444354
60	5	19936	ds	0.578125	0.0110485434560398
61	5	20160	ds	0.536	0.0113137084989848
62	5	20384	ds	0.5625	0.11195857368787
63	5	20608	ds	0.567796610169492	0.0119848606980771
64	5	20832	ds	0.530434782608696	0.0737850554281615
65	5	21056	ds	0.545045045045045	0.0191109940861229
66	5	21280	ds	0.518518518518518	0.0392837100659193
67	5	21504	ds	0.542452830188679	0.0867206429757086
68	5	21728	ds	0.586538461538462	0.0543928293220421
69	5	21952	ds	0.558823529411765	0.0277296776935902
70	5	22176	ds	0.560606060606061	0.0642824346533225
71	5	22400	ds	0.578125	0.0220970869120796
72	5	22624	ds	0.610526315789474	0.0148864585512958
73	5	22848	ds	0.597826086956522	0.0153718865475336
74	5	23072	ds	0.550561797752809	0.031780080053328
75	5	23296	ds	0.625	0.0160706086633306
76	5	23520	ds	0.6	0.166378066161541
77	5	23744	ds	0.674698795180723	0.0170387176189529
78	5	23968	ds	0.567901234567901	0.0174594266959641
79	5	24192	ds	0.563291139240506	0.00895071874919685
80	5	24416	ds	0.61038961038961	0.0918320495047465
81	5	24640	ds	0.646666666666667	0.0848528137423857
82	5	24864	ds	0.574324324324324	0.0668884793014302
83	5	25088	ds	0.590277777777778	0.0883883476483184
84	5	25312	ds	0.584507042253521	0.00995925043924713
85	5	25536	ds	0.608695652173913	0.0204958487300449
86	5	25760	ds	0.634328358208955	0.0527691627751156
87	5	25984	ds	0.5	0.0883883476483184
88	5	26208	ds	0.579365079365079	0.0112239171616913
89	5	26432	ds	0.721311475409836	0.0695514866740866
90	5	26656	ds	0.65	0.0471404520791032
91	5	26880	ds	0.698275862068966	0.109723466046188
