method	tick	features	mean	sd
1	3	6720	ds	0.615471627385528	0.00715290318056972
2	3	6944	ds	0.595789271471476	0.0193792650503752
3	3	7168	ds	0.625306619585082	0.00703103334276376
4	3	7392	ds	0.627710523978095	0.00203378783628758
5	3	7616	ds	0.614370957213222	0.00204230532552071
6	3	7840	ds	0.641546994942703	0.0040509848326142
7	3	8064	ds	0.630641610286319	0.0170211814597025
8	3	8288	ds	0.659031538952614	0.00627868708948101
9	3	8512	ds	0.641704588989325	0.00523764497034892
10	3	8736	ds	0.653011523952647	0.019188398418347
11	3	8960	ds	0.644984779017423	0.0103779893472978
12	3	9184	ds	0.617466356932305	0.00998853368773004
13	3	9408	ds	0.633551047824992	0.0331110437654406
14	3	9632	ds	0.639112205022107	0.00628487193647188
15	3	9856	ds	0.647198879551821	0.0489230742165482
16	3	10080	ds	0.663122752261601	0.035420763156701
17	3	10304	ds	0.64913926758312	0.016440525179529
18	3	10528	ds	0.650444941412165	0.00569447700179814
19	3	10752	ds	0.657193043651585	0.00567644520874794
20	3	10976	ds	0.676892687999737	0.0139110718424667
21	3	11200	ds	0.644645829367249	0.0018701379564359
22	3	11424	ds	0.673621684949462	0.00400377938593515
23	3	11648	ds	0.646888813638981	0.00791635066093263
24	3	11872	ds	0.661008930505904	0.023627916408372
25	3	12096	ds	0.669953942456695	0.0107420958038898
26	3	12320	ds	0.680849474730198	0.0327005526406447
27	3	12544	ds	0.669315476190476	0.0320302536001764
28	3	12768	ds	0.678383513438824	0.0322010679994774
29	3	12992	ds	0.698533333100196	0.00995176239886159
30	3	13216	ds	0.666719382756796	0.0107461108432716
31	3	13440	ds	0.70196581802838	0.0216489736698491
32	3	13664	ds	0.681710399467572	0.0141875004683401
33	3	13888	ds	0.690965088262277	0.0103735322853695
34	3	14112	ds	0.664243248819994	0.00259436020798497
35	3	14336	ds	0.68754765795207	0.0151454107680615
36	3	14560	ds	0.687436876338222	0.0102625181247229
37	3	14784	ds	0.679943458302961	0.00900617691516984
38	3	15008	ds	0.712966435738175	0.0404069463912394
39	3	15232	ds	0.695766198477974	0.0164302391136051
40	3	15456	ds	0.688546058616713	0.0172100777573133
41	3	15680	ds	0.70003741727116	0.0129941942830275
42	3	15904	ds	0.688800451594694	0.0346947340788794
43	3	16128	ds	0.676929220155186	0.0316337078635283
44	3	16352	ds	0.710152629836914	0.011310112752279
45	3	16576	ds	0.715561827235661	0.0117362225868426
46	3	16800	ds	0.682373074776973	0.039017701440894
47	3	17024	ds	0.711453791732268	0.0167233494142649
48	3	17248	ds	0.672462406015038	0.033228702123428
49	3	17472	ds	0.667459098386691	0.0407459752304671
50	3	17696	ds	0.703373015873016	0.0224478343233825
51	3	17920	ds	0.689933625867075	0.00152397080137384
52	3	18144	ds	0.696933637197018	0.00448426757498056
53	3	18368	ds	0.675182128566458	0.000479000874955636
54	3	18592	ds	0.703261516205228	0.00742021897642098
55	3	18816	ds	0.694942984687844	0.00142857766192525
56	3	19040	ds	0.690113774813247	0.0138263363068812
57	3	19264	ds	0.693945067029744	0.00188292730536949
58	3	19488	ds	0.712463129769983	0.0376425890803473
59	3	19712	ds	0.661245131855559	0.0147411054295599
60	3	19936	ds	0.68605025338218	0.0133930659181778
61	3	20160	ds	0.662083100106289	0.0106276591363611
62	3	20384	ds	0.730674400594269	0.0334716506717724
63	3	20608	ds	0.704525347520997	0.0286311703118812
64	3	20832	ds	0.721732691595705	0.00748732097072761
65	3	21056	ds	0.702223675143759	0.0315094901375978
66	3	21280	ds	0.711128059830706	0.00161608423073048
67	3	21504	ds	0.701993550119771	0.00261194292422075
68	3	21728	ds	0.708129867469823	0.0154196868827636
69	3	21952	ds	0.685206852290679	0.0542094253803609
70	3	22176	ds	0.685339597567493	0.0275089245609596
71	3	22400	ds	0.67560610451077	0.00709633870040401
72	3	22624	ds	0.685584293196645	0.0291224309452534
73	3	22848	ds	0.720940170940171	0.0356575214444499
74	3	23072	ds	0.685513316151203	0.0413845785810426
75	3	23296	ds	0.714429679793611	0.0157172845218783
76	3	23520	ds	0.737245577578858	0.00373936210745763
77	3	23744	ds	0.736369853201997	0.0628104977483419
78	3	23968	ds	0.726179252455826	0.0282898625543902
79	3	24192	ds	0.710362184046395	0.0112190046254567
80	3	24416	ds	0.705561155913978	0.0771022011072026
81	3	24640	ds	0.722459210091918	0.0283267829234172
82	3	24864	ds	0.686915070616929	0.0634198217703141
83	3	25088	ds	0.74528469793686	0.0303404853992024
84	3	25312	ds	0.72241672744955	0.0468653801486634
85	3	25536	ds	0.713475177304965	0.019056778500063
86	3	25760	ds	0.684863238573334	0.0329097858169081
87	3	25984	ds	0.684644376618572	0.0109708807384427
88	3	26208	ds	0.688483054058741	0.0354186921501717
89	3	26432	ds	0.681928441479685	0.0130786881905334
90	3	26656	ds	0.683469430485762	0.0532254790277562
91	3	26880	ds	0.680457798764552	0.0310955204989897
