method	tick	features	mean	sd
1	1	6720	ds	0.587939510115419	0.0259327698107722
2	1	6944	ds	0.569682454947722	0.00480837447597001
3	1	7168	ds	0.581328445716368	0.0334662497508744
4	1	7392	ds	0.600287091825553	0.0171670587814696
5	1	7616	ds	0.61645363694544	0.0561478411281728
6	1	7840	ds	0.596383070413108	0.0503358160377858
7	1	8064	ds	0.573964862298196	0.00451930544860916
8	1	8288	ds	0.606073046569361	0.022642881095345
9	1	8512	ds	0.583389576302962	0.00344671471894455
10	1	8736	ds	0.59516288864115	0.0104668971078648
11	1	8960	ds	0.625701120203384	0.0188419491864597
12	1	9184	ds	0.636152599833894	0.0119861661140312
13	1	9408	ds	0.574978610873454	0.00907463785453691
14	1	9632	ds	0.624710958208787	0.0434888018094823
15	1	9856	ds	0.585359199405591	0.0299389155636126
16	1	10080	ds	0.620851200373385	0.0236960494217527
17	1	10304	ds	0.633219211344211	0.022749526152685
18	1	10528	ds	0.610755906436	0.0142204562443611
19	1	10752	ds	0.607241011834651	0.00575077027719165
20	1	10976	ds	0.589799661627745	0.0336526895574198
21	1	11200	ds	0.620689655172414	0.0205330462776492
22	1	11424	ds	0.57828798185941	0.0385621725340963
23	1	11648	ds	0.59782486943616	0.0211525130984593
24	1	11872	ds	0.599442935903552	0.00830165574953844
25	1	12096	ds	0.609615384615385	0.00271964146610217
26	1	12320	ds	0.606835556773879	0.00911558677927653
27	1	12544	ds	0.614034848366726	0.00815595605180864
28	1	12768	ds	0.622452065565838	0.0088960388608723
29	1	12992	ds	0.662909836065574	0.0478166470884346
30	1	13216	ds	0.618503118503118	0.0220511470224495
31	1	13440	ds	0.614650198341147	0.000344245998774573
32	1	13664	ds	0.622979832941068	0.00816783549453107
33	1	13888	ds	0.644162640901771	0.0205527816431838
34	1	14112	ds	0.630667663178874	0.0276571411674857
35	1	14336	ds	0.641145416487102	0.0371663125308142
36	1	14560	ds	0.661080299011333	0.0408656680068425
37	1	14784	ds	0.625128417564209	0.0222267036273552
38	1	15008	ds	0.644230769230769	0.0135982073305106
39	1	15232	ds	0.653532901833873	0.0128530197011794
40	1	15456	ds	0.628959164573174	0.0416580321313783
41	1	15680	ds	0.624482163406214	0.048944157524017
42	1	15904	ds	0.636831303411614	0.00433466306211528
43	1	16128	ds	0.635526315789474	0.057685026886271
44	1	16352	ds	0.597332727954107	0.0182183598744697
45	1	16576	ds	0.635989010989011	0.00971300523607899
46	1	16800	ds	0.630139350950976	0.0569245148999904
47	1	17024	ds	0.65227984977441	0.0258434603822979
48	1	17248	ds	0.629655154249996	0.0243656533997963
49	1	17472	ds	0.644253284475824	0.00770366579914554
50	1	17696	ds	0.6427240649259	0.0396618538946414
51	1	17920	ds	0.642633228840125	0.0576325276202202
52	1	18144	ds	0.630848586033473	0.0264020927965914
53	1	18368	ds	0.620799621729537	0.015729169441756
54	1	18592	ds	0.62046204620462	0.0653432009017272
55	1	18816	ds	0.623139772395681	0.0204270707141722
56	1	19040	ds	0.673618899892614	0.0358404678019384
57	1	19264	ds	0.647258445817128	0.0527916982217365
58	1	19488	ds	0.616116310160428	0.00736412008749089
59	1	19712	ds	0.606722028952979	0.0073797475760688
60	1	19936	ds	0.650171097657278	0.0558389140184165
61	1	20160	ds	0.618600109366456	0.00412078477279245
62	1	20384	ds	0.615080155332072	0.000880099050565729
63	1	20608	ds	0.645550847457627	0.0997739653114917
64	1	20832	ds	0.611608458591217	0.00674700325402732
65	1	21056	ds	0.612400793650794	0.0453165655403283
66	1	21280	ds	0.642403486924035	0.0213981255078868
67	1	21504	ds	0.565579191006282	0.0223674249091303
68	1	21728	ds	0.611904761904762	0.0235702260395516
69	1	21952	ds	0.608444540106184	0.0413468235519469
70	1	22176	ds	0.594059405940594	0
71	1	22400	ds	0.567637917637918	0.038514518540153
72	1	22624	ds	0.599342105263158	0.0362857427187834
73	1	22848	ds	0.67031798056466	0.0404560546995926
74	1	23072	ds	0.633834244080146	0.0385753152942388
75	1	23296	ds	0.611232781057576	0.0174835327412023
76	1	23520	ds	0.668661055335835	0.0137200179968589
77	1	23744	ds	0.577703671830178	0.0332153572631374
78	1	23968	ds	0.585424800148727	0.0136715198444694
79	1	24192	ds	0.61535606859643	0.0608522301243785
80	1	24416	ds	0.581332680058795	0.0606289498812571
81	1	24640	ds	0.638528138528139	0.0397938881187234
82	1	24864	ds	0.606203518955197	0.0600264780691646
83	1	25088	ds	0.56027397260274	0.0561810867244106
84	1	25312	ds	0.625874125874126	0.0346136186594814
85	1	25536	ds	0.69047619047619	0.0336717514850737
86	1	25760	ds	0.616176470588235	0.0228769840972118
87	1	25984	ds	0.645135566188198	0.0552603385616281
88	1	26208	ds	0.645365079365079	0.018901076500288
89	1	26432	ds	0.645161290322581	0.0912395846692319
90	1	26656	ds	0.661157024793388	0.0116877153915131
91	1	26880	ds	0.656779661016949	0.0419470124432697
