method	tick	features	mean	sd
1	1	6720	ds	0.589080459770115	0.0081276641515695
2	1	6944	ds	0.566860465116279	0.0328886874970488
3	1	7168	ds	0.561764705882353	0.0249567099242312
4	1	7392	ds	0.563988095238095	0.0231493291459882
5	1	7616	ds	0.596385542168675	0.0127790382142147
6	1	7840	ds	0.595092024539877	0.00867615682437477
7	1	8064	ds	0.631578947368421	0.043783701621458
8	1	8288	ds	0.6	0.00441941738241591
9	1	8512	ds	0.587301587301587	0.017958267458706
10	1	8736	ds	0.579288025889968	0.0183069716812051
11	1	8960	ds	0.585245901639344	0.00231838288913627
12	1	9184	ds	0.604304635761589	0.0117070659136845
13	1	9408	ds	0.562080536912752	0.035592623214088
14	1	9632	ds	0.614864864864865	0.0238887426076536
15	1	9856	ds	0.612627986348123	0.0410266733111649
16	1	10080	ds	0.641868512110727	0.00244673626708144
17	1	10304	ds	0.65034965034965	0.0346136186594814
18	1	10528	ds	0.600352112676056	0.0273879387079296
19	1	10752	ds	0.616071428571429	0.0176776695296637
20	1	10976	ds	0.564981949458484	0.0127636603102265
21	1	11200	ds	0.615808823529412	0.0441941738241592
22	1	11424	ds	0.598513011152416	0.00525729948837583
23	1	11648	ds	0.609022556390977	0.010633184679497
24	1	11872	ds	0.593511450381679	0.035085450974905
25	1	12096	ds	0.631274131274131	0.030031562135336
26	1	12320	ds	0.629411764705882	0.0249567099242311
27	1	12544	ds	0.579681274900398	0.0140857924539153
28	1	12768	ds	0.609756097560976	0.063237191813431
29	1	12992	ds	0.619341563786008	0.0145495222466368
30	1	13216	ds	0.640756302521008	0.0267393320616762
31	1	13440	ds	0.603004291845494	0.0394523096799361
32	1	13664	ds	0.642857142857143	0.0214274782177742
33	1	13888	ds	0.630530973451327	0.00312879106719712
34	1	14112	ds	0.618834080717489	0.0570758836832191
35	1	14336	ds	0.593607305936073	0.0129151923504392
36	1	14560	ds	0.621495327102804	0.0330423729526424
37	1	14784	ds	0.638095238095238	0.0336717514850736
38	1	15008	ds	0.601941747572815	0.0274604575218077
39	1	15232	ds	0.685643564356436	0.0525079292960307
40	1	15456	ds	0.613065326633166	0.035533004079726
41	1	15680	ds	0.605128205128205	0.007252377242939
42	1	15904	ds	0.596858638743455	0
43	1	16128	ds	0.643617021276596	0.0150448251316287
44	1	16352	ds	0.622950819672131	0.0231838288913622
45	1	16576	ds	0.633333333333333	0.0314269680527354
46	1	16800	ds	0.625	0.0401765216583266
47	1	17024	ds	0.628654970760234	0.00413512737535989
48	1	17248	ds	0.636904761904762	0
49	1	17472	ds	0.642424242424242	0.0942809041582063
50	1	17696	ds	0.583850931677019	0
51	1	17920	ds	0.662420382165605	0.0540463781798635
52	1	18144	ds	0.632258064516129	0
53	1	18368	ds	0.617647058823529	0.00462161294893167
54	1	18592	ds	0.606666666666667	0.0282842712474619
55	1	18816	ds	0.623287671232877	0.0290591827884883
56	1	19040	ds	0.615384615384615	0.0296688159938412
57	1	19264	ds	0.58273381294964	0.0508709914522696
58	1	19488	ds	0.618518518518518	0.0576161080966817
59	1	19712	ds	0.643939393939394	0.0214274782177741
60	1	19936	ds	0.56640625	0.0828640759202985
61	1	20160	ds	0.584	0
62	1	20384	ds	0.616666666666667	0.0707106781186547
63	1	20608	ds	0.601694915254237	0.0479394427923083
64	1	20832	ds	0.626086956521739	0.0860825646661885
65	1	21056	ds	0.626126126126126	0.00637033136204098
66	1	21280	ds	0.615740740740741	0.0065472850109865
67	1	21504	ds	0.617924528301887	0.0733790055948304
68	1	21728	ds	0.610576923076923	0.0611919329872974
69	1	21952	ds	0.651960784313726	0.0762566136573728
70	1	22176	ds	0.626262626262626	0.0571399419140644
71	1	22400	ds	0.572916666666667	0.0147313912747198
72	1	22624	ds	0.678947368421053	0.0521026049295351
73	1	22848	ds	0.646739130434783	0.00768594327376686
74	1	23072	ds	0.634831460674157	0.071505180119988
75	1	23296	ds	0.693181818181818	0
76	1	23520	ds	0.629411764705882	0.0582323231565392
77	1	23744	ds	0.626506024096386	0.0511161528568589
78	1	23968	ds	0.623456790123457	0.0261891400439462
79	1	24192	ds	0.664556962025316	0.00895071874919685
80	1	24416	ds	0.688311688311688	0.0734656396037972
81	1	24640	ds	0.613333333333333	0.0188561808316413
82	1	24864	ds	0.621621621621622	0.13377695860286
83	1	25088	ds	0.576388888888889	0.00982092751647987
84	1	25312	ds	0.563380281690141	0.0398370017569886
85	1	25536	ds	0.644927536231884	0.0512396218251121
86	1	25760	ds	0.641791044776119	0.0422153302200924
87	1	25984	ds	0.6328125	0.055242717280199
88	1	26208	ds	0.611111111111111	0.145910923101986
89	1	26432	ds	0.663934426229508	0.0347757433370433
90	1	26656	ds	0.608333333333333	0.058925565098879
91	1	26880	ds	0.71551724137931	0.0121914962273543
