method	tick	features	mean	sd
1	5	6720	ds	0.512931034482759	0.00203191603789239
2	5	6944	ds	0.546511627906977	0.0205554296856555
3	5	7168	ds	0.551470588235294	0.0103986291350963
4	5	7392	ds	0.55952380952381	0.0042089689356342
5	5	7616	ds	0.551204819277108	0.00425967940473821
6	5	7840	ds	0.562883435582822	0.0542259801523426
7	5	8064	ds	0.555727554179567	0.0284594060539477
8	5	8288	ds	0.546875	0.0397747564417432
9	5	8512	ds	0.550793650793651	0.0157134840263677
10	5	8736	ds	0.543689320388349	0
11	5	8960	ds	0.577049180327869	0.0278205946696347
12	5	9184	ds	0.53476821192053	0.0163898922791584
13	5	9408	ds	0.572147651006711	0.0213555739284528
14	5	9632	ds	0.540540540540541	0.00955549704306143
15	5	9856	ds	0.5580204778157	0.00241333372418621
16	5	10080	ds	0.565743944636678	0.0122336813354074
17	5	10304	ds	0.583916083916084	0
18	5	10528	ds	0.623239436619718	0.0248981260981179
19	5	10752	ds	0.555357142857143	0.042931483143469
20	5	10976	ds	0.546931407942238	0.0229745885584077
21	5	11200	ds	0.568014705882353	0.033795544689063
22	5	11424	ds	0.589219330855019	0.0341724466744428
23	5	11648	ds	0.616541353383459	0.0372161463782394
24	5	11872	ds	0.583969465648855	0
25	5	12096	ds	0.571428571428571	0.00546028402460653
26	5	12320	ds	0.570588235294118	0.008318903308077
27	5	12544	ds	0.549800796812749	0.0225372679262645
28	5	12768	ds	0.613821138211382	0.0402418493358198
29	5	12992	ds	0.539094650205761	0.0174594266959641
30	5	13216	ds	0.57563025210084	0.0118841475829672
31	5	13440	ds	0.609442060085837	0
32	5	13664	ds	0.584415584415584	0
33	5	13888	ds	0.619469026548673	0.0438030749407596
34	5	14112	ds	0.553811659192825	0.0158544121342275
35	5	14336	ds	0.577625570776256	0.0226015866132686
36	5	14560	ds	0.586448598130841	0.0231296610668497
37	5	14784	ds	0.55952380952381	0.0235702260395516
38	5	15008	ds	0.589805825242718	0.0308930147120336
39	5	15232	ds	0.561881188118812	0.0175026430986769
40	5	15456	ds	0.535175879396985	0.0248731028558082
41	5	15680	ds	0.574358974358974	0.0290095089717558
42	5	15904	ds	0.609947643979058	0.0259149082110253
43	5	16128	ds	0.563829787234043	0.045134475394886
44	5	16352	ds	0.57103825136612	0.0425036863008307
45	5	16576	ds	0.558333333333333	0.0274985970461435
46	5	16800	ds	0.585227272727273	0.0241059129949959
47	5	17024	ds	0.596491228070176	0.0413512737535993
48	5	17248	ds	0.535714285714286	0.0252538136138053
49	5	17472	ds	0.566666666666667	0.0128564869306645
50	5	17696	ds	0.583850931677019	0.0439196758500961
51	5	17920	ds	0.557324840764331	0.0225193242416098
52	5	18144	ds	0.558064516129032	0.0501817715680775
53	5	18368	ds	0.601307189542484	0.0739458071829069
54	5	18592	ds	0.556666666666667	0.0329983164553722
55	5	18816	ds	0.575342465753425	0.0290591827884883
56	5	19040	ds	0.597902097902098	0.024724013328201
57	5	19264	ds	0.525179856115108	0.0101741982904539
58	5	19488	ds	0.607407407407407	0.0104756560175785
59	5	19712	ds	0.628787878787879	0.0107137391088871
60	5	19936	ds	0.6015625	0.0994368911043582
61	5	20160	ds	0.576	0.0791959594928933
62	5	20384	ds	0.566666666666667	0.0707106781186547
63	5	20608	ds	0.627118644067797	0.0599243034903854
64	5	20832	ds	0.582608695652174	0.0368925277140808
65	5	21056	ds	0.536036036036036	0.00637033136204098
66	5	21280	ds	0.518518518518519	0.0916619901538117
67	5	21504	ds	0.570754716981132	0.0200124560713174
68	5	21728	ds	0.538461538461539	0.027196414661021
69	5	21952	ds	0.598039215686274	0.013864838846795
70	5	22176	ds	0.590909090909091	0.0499974491748064
71	5	22400	ds	0.661458333333333	0.00736569563735984
72	5	22624	ds	0.536842105263158	0.059545834205183
73	5	22848	ds	0.603260869565217	0.0230578298213004
74	5	23072	ds	0.578651685393258	0.00794502001333201
75	5	23296	ds	0.585227272727273	0.0401765216583266
76	5	23520	ds	0.611764705882353	0.0166378066161541
77	5	23744	ds	0.590361445783133	0.0511161528568589
78	5	23968	ds	0.598765432098765	0.0436485667399104
79	5	24192	ds	0.556962025316456	0.0179014374983936
80	5	24416	ds	0.558441558441558	0.0367328198018986
81	5	24640	ds	0.593333333333333	0.103708994574027
82	5	24864	ds	0.574324324324324	0.0859994733875531
83	5	25088	ds	0.625	0.0196418550329596
84	5	25312	ds	0.584507042253521	0.0298777513177414
85	5	25536	ds	0.630434782608696	0.0922313192852019
86	5	25760	ds	0.664179104477612	0.0105538325550231
87	5	25984	ds	0.5	0.0220970869120796
88	5	26208	ds	0.587301587301587	0.0673435029701474
89	5	26432	ds	0.581967213114754	0.0115919144456811
90	5	26656	ds	0.516666666666667	0.0471404520791032
91	5	26880	ds	0.646551724137931	0.0121914962273542
