method	tick	features	mean	sd
1	3	6720	ds	0.576368876080692	0.032604347259322
2	3	6944	ds	0.572886297376093	0.0391691802989633
3	3	7168	ds	0.557522123893805	0.0166868856917179
4	3	7392	ds	0.58955223880597	0.0189968985990416
5	3	7616	ds	0.59214501510574	0.00854509705361388
6	3	7840	ds	0.590769230769231	0.0130542790372901
7	3	8064	ds	0.59472049689441	0.0153718865475336
8	3	8288	ds	0.575235109717868	0.0110831783885039
9	3	8512	ds	0.553968253968254	0.0202030508910442
10	3	8736	ds	0.618506493506493	0.0114790061880933
11	3	8960	ds	0.570491803278689	0.00463676577827239
12	3	9184	ds	0.604651162790698	0.0234919196407491
13	3	9408	ds	0.588926174496644	0.035592623214088
14	3	9632	ds	0.572881355932203	0.00958788855846167
15	3	9856	ds	0.595890410958904	0.00968639426282938
16	3	10080	ds	0.560553633217993	0.00978694506832591
17	3	10304	ds	0.582456140350877	0.0148864585512957
18	3	10528	ds	0.606007067137809	0.027484715876509
19	3	10752	ds	0.591071428571429	0.04798224586623
20	3	10976	ds	0.572463768115942	0.0358677352775785
21	3	11200	ds	0.581180811808118	0.0339202514960337
22	3	11424	ds	0.587360594795539	0.0473156953953824
23	3	11648	ds	0.611320754716981	0.0106733099047026
24	3	11872	ds	0.616858237547893	0.010836885535426
25	3	12096	ds	0.605058365758755	0.00825416476093251
26	3	12320	ds	0.586614173228346	0.00556776993060273
27	3	12544	ds	0.582	0.00282842712474619
28	3	12768	ds	0.57520325203252	0.00862325342910425
29	3	12992	ds	0.58641975308642	0.0320089489426009
30	3	13216	ds	0.573529411764706	0.014855184478709
31	3	13440	ds	0.622317596566524	0
32	3	13664	ds	0.630434782608696	0.0368925277140808
33	3	13888	ds	0.634955752212389	0.0156439553359856
34	3	14112	ds	0.632882882882883	0.0286664911291844
35	3	14336	ds	0.598623853211009	0.00973082726403508
36	3	14560	ds	0.586854460093897	0.0796740035139772
37	3	14784	ds	0.604761904761905	0.00673435029701479
38	3	15008	ds	0.616504854368932	0.089246486945875
39	3	15232	ds	0.601485148514852	0.0665100437749723
40	3	15456	ds	0.577889447236181	0.00710660081594515
41	3	15680	ds	0.628205128205128	0.00362618862146946
42	3	15904	ds	0.630890052356021	0.0185106487221609
43	3	16128	ds	0.631016042780749	0
44	3	16352	ds	0.628415300546448	0.0618235437102992
45	3	16576	ds	0.627777777777778	0.0471404520791032
46	3	16800	ds	0.636363636363636	0.0080353043316653
47	3	17024	ds	0.661764705882353	0.0041594516540385
48	3	17248	ds	0.589820359281437	0.0465758957667786
49	3	17472	ds	0.625	0.0301813870018649
50	3	17696	ds	0.583850931677019	0.0614875461901345
51	3	17920	ds	0.624203821656051	0.0360309187865757
52	3	18144	ds	0.594155844155844	0.0413244222771359
53	3	18368	ds	0.631578947368421	0.0186080731891196
54	3	18592	ds	0.671140939597315	0.0379654647616939
55	3	18816	ds	0.658620689655173	0.0438893864184754
56	3	19040	ds	0.56993006993007	0.0445032239907617
57	3	19264	ds	0.60431654676259	0.0203483965809079
58	3	19488	ds	0.638059701492537	0.00527691627751149
59	3	19712	ds	0.629770992366412	0.124148518834279
60	3	19936	ds	0.673228346456693	0.00556776993060273
61	3	20160	ds	0.520161290322581	0.108347006794713
62	3	20384	ds	0.5875	0.0294627825494395
63	3	20608	ds	0.627118644067797	0
64	3	20832	ds	0.608695652173913	0.0122975092380269
65	3	21056	ds	0.572072072072072	0.0318516568102048
66	3	21280	ds	0.601851851851852	0.0130945700219732
67	3	21504	ds	0.636792452830189	0.00667081869043913
68	3	21728	ds	0.611650485436893	0.0274604575218077
69	3	21952	ds	0.623762376237624	0.0420063434368246
70	3	22176	ds	0.641414141414141	0.0071424927392581
71	3	22400	ds	0.625	0.0441941738241592
72	3	22624	ds	0.647368421052632	0.0669890634808309
73	3	22848	ds	0.619565217391304	0.0307437730950673
74	3	23072	ds	0.595505617977528	0.0953402401599839
75	3	23296	ds	0.655172413793103	0.016255328303139
76	3	23520	ds	0.694117647058824	0.0166378066161541
77	3	23744	ds	0.644578313253012	0.0425967940473824
78	3	23968	ds	0.592592592592593	0
79	3	24192	ds	0.613924050632911	0.00895071874919677
80	3	24416	ds	0.675324675324675	0.0367328198018986
81	3	24640	ds	0.666666666666667	0.0377123616632825
82	3	24864	ds	0.655405405405405	0.0286664911291844
83	3	25088	ds	0.597222222222222	0.0589255650988789
84	3	25312	ds	0.605633802816901	0.0199185008784943
85	3	25536	ds	0.676470588235294	0.0415945165403852
86	3	25760	ds	0.529850746268657	0.0105538325550231
87	3	25984	ds	0.640625	0.0220970869120796
88	3	26208	ds	0.666666666666667	0.0224478343233825
89	3	26432	ds	0.663934426229508	0.0115919144456811
90	3	26656	ds	0.635593220338983	0.0359545820942312
91	3	26880	ds	0.614035087719298	0.0496215285043191
