method	tick	features	mean	sd
1	5	6720	ds	0.521551724137931	0.00203191603789239
2	5	6944	ds	0.524709302325581	0.00205554296856555
3	5	7168	ds	0.520588235294118	0.0457539681944237
4	5	7392	ds	0.553571428571429	0.0252538136138053
5	5	7616	ds	0.539156626506024	0.0085193588094765
6	5	7840	ds	0.552147239263804	0.0303665488853118
7	5	8064	ds	0.554179566563467	0.00437837016214578
8	5	8288	ds	0.5390625	0.0110485434560398
9	5	8512	ds	0.553968253968254	0.0291821846203972
10	5	8736	ds	0.548543689320388	0.00228837146015061
11	5	8960	ds	0.59672131147541	0
12	5	9184	ds	0.592715231788079	0.0140484790964215
13	5	9408	ds	0.583892617449664	0.0237284154760586
14	5	9632	ds	0.532094594594595	0.0597218565191341
15	5	9856	ds	0.563139931740614	0.00965333489674474
16	5	10080	ds	0.583044982698962	0.00244673626708144
17	5	10304	ds	0.555944055944056	0.00988960533128036
18	5	10528	ds	0.549295774647887	0.0149388756588708
19	5	10752	ds	0.5875	0.00252538136138052
20	5	10976	ds	0.568592057761733	0.0127636603102265
21	5	11200	ds	0.575367647058824	0.0493934883917074
22	5	11424	ds	0.537174721189591	0.00262864974418792
23	5	11648	ds	0.535714285714286	0.0345578502083651
24	5	11872	ds	0.559160305343511	0.0188921659095642
25	5	12096	ds	0.604247104247104	0.0354918461599425
26	5	12320	ds	0.556862745098039	0.0443674843097442
27	5	12544	ds	0.607569721115538	0.0422573773617458
28	5	12768	ds	0.554878048780488	0.0661116096231325
29	5	12992	ds	0.563786008230453	0
30	5	13216	ds	0.579831932773109	0.0178262213744508
31	5	13440	ds	0.598712446351931	0.00303479305230284
32	5	13664	ds	0.571428571428571	0.0183664099009493
33	5	13888	ds	0.597345132743363	0.0187727464031826
34	5	14112	ds	0.55829596412556	0.0285379418416095
35	5	14336	ds	0.598173515981735	0.0387455770513177
36	5	14560	ds	0.539719626168224	0.0297381356573781
37	5	14784	ds	0.583333333333333	0.0303045763365663
38	5	15008	ds	0.570388349514563	0.0308930147120336
39	5	15232	ds	0.559405940594059	0.0490074006762953
40	5	15456	ds	0.600502512562814	0.0319797036717535
41	5	15680	ds	0.615384615384615	0.00725237724293892
42	5	15904	ds	0.557591623036649	0.0333191676998897
43	5	16128	ds	0.566489361702128	0.0263284439803502
44	5	16352	ds	0.560109289617486	0.0347757433370433
45	5	16576	ds	0.566666666666667	0.0314269680527355
46	5	16800	ds	0.565340909090909	0.0200882608291633
47	5	17024	ds	0.634502923976608	0.0124053821260797
48	5	17248	ds	0.604166666666667	0.0715524719057816
49	5	17472	ds	0.533333333333333	0.00857099128710972
50	5	17696	ds	0.521739130434783	0.0175678703400385
51	5	17920	ds	0.624203821656051	0.0180154593932878
52	5	18144	ds	0.583870967741935	0.00456197923346153
53	5	18368	ds	0.594771241830065	0.0369729035914535
54	5	18592	ds	0.576666666666667	0.0518544972870134
55	5	18816	ds	0.575342465753425	0.048431971314147
56	5	19040	ds	0.594405594405594	0.0197792106625608
57	5	19264	ds	0.586330935251798	0.0152612974356809
58	5	19488	ds	0.555555555555556	0.0314269680527354
59	5	19712	ds	0.526515151515151	0.0160706086633306
60	5	19936	ds	0.57421875	0.0497184455521791
61	5	20160	ds	0.572	0.00565685424949239
62	5	20384	ds	0.583333333333333	0.0235702260395516
63	5	20608	ds	0.588983050847458	0.0299621517451927
64	5	20832	ds	0.534782608695652	0.0184462638570403
65	5	21056	ds	0.599099099099099	0.0191109940861229
66	5	21280	ds	0.564814814814815	0.0130945700219731
67	5	21504	ds	0.608490566037736	0.0466957308330739
68	5	21728	ds	0.576923076923077	0.027196414661021
69	5	21952	ds	0.573529411764706	0.0762566136573727
70	5	22176	ds	0.606060606060606	0
71	5	22400	ds	0.567708333333333	0.0220970869120796
72	5	22624	ds	0.652631578947368	0
73	5	22848	ds	0.532608695652174	0.0307437730950673
74	5	23072	ds	0.584269662921348	0.015890040026664
75	5	23296	ds	0.625	0.0482118259899918
76	5	23520	ds	0.635294117647059	0.0166378066161541
77	5	23744	ds	0.596385542168675	0.0085193588094765
78	5	23968	ds	0.617283950617284	0.0523782800878924
79	5	24192	ds	0.588607594936709	0.044753593745984
80	5	24416	ds	0.584415584415584	0.0367328198018986
81	5	24640	ds	0.646666666666667	0.00942809041582062
82	5	24864	ds	0.506756756756757	0.0859994733875531
83	5	25088	ds	0.534722222222222	0.0294627825494395
84	5	25312	ds	0.542253521126761	0.0298777513177415
85	5	25536	ds	0.579710144927536	0
86	5	25760	ds	0.641791044776119	0.0211076651100462
87	5	25984	ds	0.578125	0.0220970869120796
88	5	26208	ds	0.650793650793651	0.157134840263677
89	5	26432	ds	0.647540983606557	0.0347757433370433
90	5	26656	ds	0.6	0.0471404520791032
91	5	26880	ds	0.706896551724138	0.0243829924547085
