method	tick	features	mean	sd
1	3	6720	ds	0.609722222222222	0.0176776695296637
2	3	6944	ds	0.620786516853933	0.027807570046662
3	3	7168	ds	0.578125	0.0220970869120796
4	3	7392	ds	0.577586206896552	0.0203191603789238
5	3	7616	ds	0.628279883381924	0.00618460741562583
6	3	7840	ds	0.629793510324484	0.0271161892490417
7	3	8064	ds	0.638805970149254	0.0337722641760739
8	3	8288	ds	0.603030303030303	0.0128564869306644
9	3	8512	ds	0.625766871165644	0.00433807841218746
10	3	8736	ds	0.633956386292835	0.0418536724066804
11	3	8960	ds	0.61128526645768	0.0753656130418264
12	3	9184	ds	0.636507936507936	0.0336717514850736
13	3	9408	ds	0.615755627009646	0.0204628972047554
14	3	9632	ds	0.637704918032787	0.011591914445681
15	3	9856	ds	0.606312292358804	0.00704757589222469
16	3	10080	ds	0.616161616161616	0.0142849854785161
17	3	10304	ds	0.642857142857143	0
18	3	10528	ds	0.628865979381443	0.0242992021026305
19	3	10752	ds	0.636678200692042	0.00978694506832591
20	3	10976	ds	0.67719298245614	0
21	3	11200	ds	0.625886524822695	0.00250747085527141
22	3	11424	ds	0.633928571428571	0.0277791949751858
23	3	11648	ds	0.654545454545455	0.0154277843167973
24	3	11872	ds	0.636029411764706	0
25	3	12096	ds	0.642322097378277	0.002648340004444
26	3	12320	ds	0.642045454545455	0.0187490434405524
27	3	12544	ds	0.65	0.0108785658644084
28	3	12768	ds	0.636186770428016	0.00275138825364414
29	3	12992	ds	0.627952755905512	0.00278388496530136
30	3	13216	ds	0.623505976095618	0.0591603283064442
31	3	13440	ds	0.601214574898785	0.014313902453169
32	3	13664	ds	0.621900826446281	0.0262973596309047
33	3	13888	ds	0.644351464435146	0.00591721155804644
34	3	14112	ds	0.653846153846154	0.0181309431073473
35	3	14336	ds	0.696506550218341	0.0154390126896626
36	3	14560	ds	0.657079646017699	0.0344167017391682
37	3	14784	ds	0.65990990990991	0.00318516568102045
38	3	15008	ds	0.641552511415525	0.00322879808760985
39	3	15232	ds	0.697674418604651	0.0328886874970487
40	3	15456	ds	0.611904761904762	0.0235702260395516
41	3	15680	ds	0.648058252427185	0.0102976715706779
42	3	15904	ds	0.655172413793103	0.0208997078183216
43	3	16128	ds	0.608040201005025	0.0497462057116164
44	3	16352	ds	0.605128205128205	0
45	3	16576	ds	0.643979057591623	0.0222127784665931
46	3	16800	ds	0.680851063829787	0.0300896502632574
47	3	17024	ds	0.627717391304348	0.0192148581844171
48	3	17248	ds	0.681564245810056	0.047403806559992
49	3	17472	ds	0.670454545454545	0
50	3	17696	ds	0.734104046242775	0.0163492897384173
51	3	17920	ds	0.657738095238095	0.0294627825494395
52	3	18144	ds	0.675757575757576	0.00428549564355486
53	3	18368	ds	0.714285714285714	0.0527036110201154
54	3	18592	ds	0.673076923076923	0.0453273577683684
55	3	18816	ds	0.699346405228758	0.0462161294893168
56	3	19040	ds	0.652317880794702	0.00468282636547385
57	3	19264	ds	0.644295302013423	0
58	3	19488	ds	0.663265306122449	0.0336717514850736
59	3	19712	ds	0.681818181818182	0.0840616453158833
60	3	19936	ds	0.682142857142857	0.0353553390593274
61	3	20160	ds	0.647058823529412	0.0831890330807703
62	3	20384	ds	0.67175572519084	0.0323865701306816
63	3	20608	ds	0.62015503875969	0.0109628958323496
64	3	20832	ds	0.632	0.0113137084989848
65	3	21056	ds	0.676229508196721	0.00579595722284056
66	3	21280	ds	0.648305084745763	0.0059924303490386
67	3	21504	ds	0.65948275862069	0.00609574811367719
68	3	21728	ds	0.65929203539823	0.056318239209548
69	3	21952	ds	0.587155963302752	0.0129744363520467
70	3	22176	ds	0.655660377358491	0.0466957308330739
71	3	22400	ds	0.663461538461538	0
72	3	22624	ds	0.691176470588235	0.0346620971169877
73	3	22848	ds	0.635	0.0212132034355964
74	3	23072	ds	0.683673469387755	0.0144307506364602
75	3	23296	ds	0.654255319148936	0.022567237697443
76	3	23520	ds	0.688172043010753	0.030413194889744
77	3	23744	ds	0.692307692307692	0.0932448502663579
78	3	23968	ds	0.664772727272727	0.0883883476483184
79	3	24192	ds	0.686046511627907	0.049333031245573
80	3	24416	ds	0.696428571428571	0.143104943811563
81	3	24640	ds	0.672839506172839	0.0785674201318387
82	3	24864	ds	0.734177215189873	0.125310062488755
83	3	25088	ds	0.62987012987013	0.0275496148514239
84	3	25312	ds	0.653333333333333	0
85	3	25536	ds	0.691780821917808	0.0290591827884882
86	3	25760	ds	0.715277777777778	0.0294627825494395
87	3	25984	ds	0.757142857142857	0.0202030508910442
88	3	26208	ds	0.702898550724638	0.0102479243650225
89	3	26432	ds	0.671641791044776	0.0633229953301385
90	3	26656	ds	0.746153846153846	0.0108785658644084
91	3	26880	ds	0.587301587301587	0
