method	tick	features	mean	sd
1	5	6720	ds	0.520114942528736	0.0121914962273543
2	5	6944	ds	0.537790697674419	0.00822217187426219
3	5	7168	ds	0.530882352941176	0.0187175324431733
4	5	7392	ds	0.546130952380952	0.0399852048885249
5	5	7616	ds	0.557228915662651	0.0170387176189529
6	5	7840	ds	0.593272171253823	0.0302736848214424
7	5	8064	ds	0.529411764705882	0.0306485911350207
8	5	8288	ds	0.553125	0.0353553390593274
9	5	8512	ds	0.550793650793651	0.0291821846203972
10	5	8736	ds	0.564724919093851	0.0114418573007531
11	5	8960	ds	0.560655737704918	0.0139102973348173
12	5	9184	ds	0.589403973509934	0
13	5	9408	ds	0.570469798657718	0.018982732380847
14	5	9632	ds	0.540540540540541	0.0238887426076536
15	5	9856	ds	0.556313993174061	0.0337866721386063
16	5	10080	ds	0.548442906574395	0.00244673626708144
17	5	10304	ds	0.564685314685315	0.00741720399846023
18	5	10528	ds	0.556338028169014	0.0348573765373651
19	5	10752	ds	0.582142857142857	0
20	5	10976	ds	0.575812274368231	0.0331855168065889
21	5	11200	ds	0.529411764705882	0.0259965728377408
22	5	11424	ds	0.54275092936803	0.0368010964186308
23	5	11648	ds	0.520676691729323	0.0345578502083651
24	5	11872	ds	0.536259541984733	0.00809664253267037
25	5	12096	ds	0.557915057915058	0.0245712781107294
26	5	12320	ds	0.547058823529412	0.00831890330807708
27	5	12544	ds	0.583665338645418	0.00845147547234917
28	5	12768	ds	0.591463414634146	0.0373674315261184
29	5	12992	ds	0.561728395061728	0.0552881845372198
30	5	13216	ds	0.569327731092437	0.00297103689574179
31	5	13440	ds	0.59656652360515	0.0485566888368444
32	5	13664	ds	0.547619047619048	0.0214274782177742
33	5	13888	ds	0.608407079646018	0.0219015374703797
34	5	14112	ds	0.594170403587444	0.0221961769879185
35	5	14336	ds	0.568493150684932	0.0161439904380491
36	5	14560	ds	0.563084112149533	0.00991271188579269
37	5	14784	ds	0.554761904761905	0.0303045763365663
38	5	15008	ds	0.54126213592233	0.0240279003315817
39	5	15232	ds	0.591584158415842	0.0105015858592062
40	5	15456	ds	0.592964824120603	0.0142132016318904
41	5	15680	ds	0.561538461538462	0.0181309431073473
42	5	15904	ds	0.547120418848168	0.00370212974443215
43	5	16128	ds	0.561170212765957	0.00376120628290719
44	5	16352	ds	0.562841530054645	0.0231838288913622
45	5	16576	ds	0.577777777777778	0.0628539361054709
46	5	16800	ds	0.565340909090909	0.0281235651608286
47	5	17024	ds	0.578947368421053	0.0165405095014397
48	5	17248	ds	0.550595238095238	0.0042089689356342
49	5	17472	ds	0.575757575757576	0.0428549564355484
50	5	17696	ds	0.618012422360248	0.0395277082650865
51	5	17920	ds	0.531847133757962	0.0495425133315415
52	5	18144	ds	0.52258064516129	0.0182479169338464
53	5	18368	ds	0.57516339869281	0.0184864517957267
54	5	18592	ds	0.516666666666667	0.0141421356237309
55	5	18816	ds	0.544520547945206	0.0532751684455618
56	5	19040	ds	0.576923076923077	0.0247240133282009
57	5	19264	ds	0.525179856115108	0.0610451897427235
58	5	19488	ds	0.57037037037037	0
59	5	19712	ds	0.571969696969697	0.0482118259899919
60	5	19936	ds	0.6171875	0.0220970869120796
61	5	20160	ds	0.556	0.0395979797464466
62	5	20384	ds	0.6	0.0471404520791032
63	5	20608	ds	0.593220338983051	0.0239697213961542
64	5	20832	ds	0.58695652173913	0.0061487546190135
65	5	21056	ds	0.513513513513514	0.0509626508963278
66	5	21280	ds	0.49537037037037	0.0196418550329597
67	5	21504	ds	0.556603773584906	0.0266832747617565
68	5	21728	ds	0.5625	0.0611919329872973
69	5	21952	ds	0.495098039215686	0.0346620971169877
70	5	22176	ds	0.575757575757576	0.0571399419140644
71	5	22400	ds	0.5625	0.0736569563735988
72	5	22624	ds	0.536842105263158	0.059545834205183
73	5	22848	ds	0.510869565217391	0.0768594327376682
74	5	23072	ds	0.573033707865169	0.047670120079992
75	5	23296	ds	0.590909090909091	0.0160706086633306
76	5	23520	ds	0.629411764705882	0.008318903308077
77	5	23744	ds	0.572289156626506	0.0425967940473824
78	5	23968	ds	0.604938271604938	0.0174594266959641
79	5	24192	ds	0.607594936708861	0
80	5	24416	ds	0.532467532467532	0.0183664099009493
81	5	24640	ds	0.613333333333333	0.0377123616632825
82	5	24864	ds	0.594594594594595	0.0191109940861229
83	5	25088	ds	0.597222222222222	0.0392837100659193
84	5	25312	ds	0.5	0.0497962521962357
85	5	25536	ds	0.644927536231884	0.0102479243650225
86	5	25760	ds	0.619402985074627	0.0316614976650693
87	5	25984	ds	0.5703125	0.055242717280199
88	5	26208	ds	0.674603174603175	0.0561195858084562
89	5	26432	ds	0.598360655737705	0.0115919144456811
90	5	26656	ds	0.608333333333333	0.0353553390593273
91	5	26880	ds	0.603448275862069	0.0731489773641256
