method	tick	features	mean	sd
1	3	6720	ds	0.590431228285305	0.0187925946914977
2	3	6944	ds	0.595237945426708	0.033379165511369
3	3	7168	ds	0.622529817711678	0.00245958344983888
4	3	7392	ds	0.605612998522895	0.06684613588765
5	3	7616	ds	0.64771689804248	0.0035458819952898
6	3	7840	ds	0.594187032148244	0.0352603696062194
7	3	8064	ds	0.665123456790123	0.0349188533919283
8	3	8288	ds	0.63166144200627	0.0110831783885039
9	3	8512	ds	0.659856439724925	0.000778448246740997
10	3	8736	ds	0.619486261980831	0.0320832193728399
11	3	8960	ds	0.636363636363636	0.0229580123761867
12	3	9184	ds	0.655115511551155	0.0653432009017272
13	3	9408	ds	0.64202657807309	0.010571363838337
14	3	9632	ds	0.656291697185458	0.0258017029729297
15	3	9856	ds	0.656474633823487	0.0232026089202331
16	3	10080	ds	0.686138877388064	0.0096570033581341
17	3	10304	ds	0.649860506404024	0.00497667832216936
18	3	10528	ds	0.664374845564616	0.041418251168834
19	3	10752	ds	0.654848127913388	0.00509481227986398
20	3	10976	ds	0.660656300838038	0.00511463012790405
21	3	11200	ds	0.673376556344758	0.0146411789606429
22	3	11424	ds	0.654059040590406	0.05348962735913
23	3	11648	ds	0.667289719626168	0.0105735593448455
24	3	11872	ds	0.635512001997361	0.0101966427090531
25	3	12096	ds	0.672092042781698	0.00858268782028669
26	3	12320	ds	0.67578125	0.00276213586400995
27	3	12544	ds	0.632062771494541	0.0218665432040704
28	3	12768	ds	0.669010671228413	0.0147429114242992
29	3	12992	ds	0.686100381226489	0.0245735182484607
30	3	13216	ds	0.626819126819127	0.0543928293220422
31	3	13440	ds	0.656748039463698	4.47196294704496e-05
32	3	13664	ds	0.680345572354212	0.0427623971343916
33	3	13888	ds	0.668845315904139	0.00924322589786333
34	3	14112	ds	0.674525162032982	0.00901379330688492
35	3	14336	ds	0.695538664904164	0.0269663326334856
36	3	14560	ds	0.648491879350348	0.00492185694561409
37	3	14784	ds	0.691141374983194	0.00681738655952831
38	3	15008	ds	0.705892017155506	0.0113848300581882
39	3	15232	ds	0.658115468409586	0.022568876567283
40	3	15456	ds	0.685016781354884	0.00949296786847851
41	3	15680	ds	0.706346459519048	0.00968949839881579
42	3	15904	ds	0.630154639175258	0.012757081103881
43	3	16128	ds	0.635790773721808	0.0311610078582763
44	3	16352	ds	0.64769647696477	0.0268278995572132
45	3	16576	ds	0.708668051708218	0.071184041383992
46	3	16800	ds	0.69532094527952	0.0484460344896264
47	3	17024	ds	0.690615763546798	0.0352160076738719
48	3	17248	ds	0.660356058443412	0.0297831548507971
49	3	17472	ds	0.702191649480806	0.0601791644432163
50	3	17696	ds	0.715267354596623	0.0328015293899389
51	3	17920	ds	0.694467591214809	0.0184973174413123
52	3	18144	ds	0.72688020578148	0.0190981192125961
53	3	18368	ds	0.657500816967627	0.0144979885667524
54	3	18592	ds	0.694352159468439	0.0798725267785469
55	3	18816	ds	0.68692739349519	0.0366429017964856
56	3	19040	ds	0.737024221453287	0.0146804176024889
57	3	19264	ds	0.698884136135391	0.0239077576380351
58	3	19488	ds	0.711397058823529	0.0285962301215148
59	3	19712	ds	0.691011235955056	0.060911820102212
60	3	19936	ds	0.717128232439789	0.0329932952817085
61	3	20160	ds	0.700396825396825	0.086985358003107
62	3	20384	ds	0.708818649410984	0.0423653988197216
63	3	20608	ds	0.681305158046482	0.0246633355696725
64	3	20832	ds	0.696814414681072	0.026449791171363
65	3	21056	ds	0.67829141437665	0.0393843436967356
66	3	21280	ds	0.683981492805022	0.00537586786887164
67	3	21504	ds	0.696124031007752	0.0416590041629284
68	3	21728	ds	0.65311004784689	0.0913487229284057
69	3	21952	ds	0.690188077482294	0.0674240460650181
70	3	22176	ds	0.701237623762376	0.0724609424285224
71	3	22400	ds	0.702564102564103	0.0145047544858779
72	3	22624	ds	0.691099476439791	0.0370212974443219
73	3	22848	ds	0.698572078734782	0.0501628260404838
74	3	23072	ds	0.703031824744209	0.0249446997066624
75	3	23296	ds	0.689529220779221	0.0350109688736846
76	3	23520	ds	0.685818218058601	0.0298092653420281
77	3	23744	ds	0.683613445378151	0.0433771386778302
78	3	23968	ds	0.68302300109529	0.114004510614085
79	3	24192	ds	0.75560141509434	0.0521157710190557
80	3	24416	ds	0.737682252388135	0.0264853972842623
81	3	24640	ds	0.646125397781027	0.0321716252900734
82	3	24864	ds	0.660765765765766	0.0649136765791974
83	3	25088	ds	0.669042959649613	0.0418425874618822
84	3	25312	ds	0.71875	0.0638360288571188
85	3	25536	ds	0.705035971223022	0.0712193880331774
86	3	25760	ds	0.694852941176471	0.0259965728377407
87	3	25984	ds	0.728065539112051	0.0118349443644683
88	3	26208	ds	0.689008128016256	0.0277939482826056
89	3	26432	ds	0.648	0.0452548339959391
90	3	26656	ds	0.714876033057851	0.0409070038702961
91	3	26880	ds	0.74036650731566	0.0196162463562544
