method	tick	features	mean	sd
1	5	6720	ds	0.516778072141838	0.00859710425220898
2	5	6944	ds	0.534611284169846	0.0203364904419146
3	5	7168	ds	0.523762126154821	0.0242870621760709
4	5	7392	ds	0.548656356663179	0.0155424649532589
5	5	7616	ds	0.542921686746988	0.0202334771725066
6	5	7840	ds	0.582229038475795	0.0346175135759557
7	5	8064	ds	0.524660493827161	0.00659093357772646
8	5	8288	ds	0.549030488443013	0.0505276642295311
9	5	8512	ds	0.569631693718188	0.0102253720194719
10	5	8736	ds	0.575182272466618	0.015669073835583
11	5	8960	ds	0.573066937487339	0.00989726329316492
12	5	9184	ds	0.558477722772277	0.00568835900706996
13	5	9408	ds	0.572945186421814	0.0547604425174324
14	5	9632	ds	0.534896584896585	0.0112579290318782
15	5	9856	ds	0.556106703534128	0.0130932444421327
16	5	10080	ds	0.588674605995971	0.0282080220270709
17	5	10304	ds	0.570578951362015	0.0174203983394528
18	5	10528	ds	0.573240687256505	0.0318783345838922
19	5	10752	ds	0.547848913060564	0.0186860516595801
20	5	10976	ds	0.553483783888509	0.0388222382254462
21	5	11200	ds	0.553333532766942	0.00973749017608611
22	5	11424	ds	0.582048374905518	0.0427043324390062
23	5	11648	ds	0.583177570093458	0.00793016950863411
24	5	11872	ds	0.558678255130334	0.025287964504399
25	5	12096	ds	0.582955214002059	0.0105067601955245
26	5	12320	ds	0.542801556420233	0.00275138825364414
27	5	12544	ds	0.579881656804734	0.0781025241547272
28	5	12768	ds	0.58082881676897	0.0145159131732742
29	5	12992	ds	0.584420781789534	0.0295516775988695
30	5	13216	ds	0.580368034913489	0.0259996995195824
31	5	13440	ds	0.601127664679333	0.0424297999747744
32	5	13664	ds	0.588362068965517	0
33	5	13888	ds	0.574159863299791	0.0556878475101918
34	5	14112	ds	0.57841128433556	0.0116748736552256
35	5	14336	ds	0.568259698001932	0.0218506025525031
36	5	14560	ds	0.554877075351213	0.0369695834672085
37	5	14784	ds	0.575305607228275	0.00690570667249686
38	5	15008	ds	0.582261198340598	0.0264628174513266
39	5	15232	ds	0.557065086476851	0.0113780249995812
40	5	15456	ds	0.585381363857405	0.0516317823243235
41	5	15680	ds	0.568878660017901	0.0240132414119865
42	5	15904	ds	0.567357512953368	0
43	5	16128	ds	0.582642291745194	0.0851566590987946
44	5	16352	ds	0.559534244974287	0.0195660975275731
45	5	16576	ds	0.552992462083371	0.0360906376375297
46	5	16800	ds	0.565220470210556	0.00310456664386506
47	5	17024	ds	0.565678566074195	0.0215615092695769
48	5	17248	ds	0.5795683954055	0.037213555626664
49	5	17472	ds	0.595877695877696	0.031542792259318
50	5	17696	ds	0.597531854648419	0.00956379440717617
51	5	17920	ds	0.544734922418722	0.00545097201245913
52	5	18144	ds	0.568416139404626	0.0192013852623834
53	5	18368	ds	0.525308168870154	0.0196681997321799
54	5	18592	ds	0.575153541844251	0.0454064153853535
55	5	18816	ds	0.543822404839354	0.04040149000308
56	5	19040	ds	0.51593252108716	0.0868144220575798
57	5	19264	ds	0.542223048788048	0.0122388080904646
58	5	19488	ds	0.557037076075786	0.034210336247556
59	5	19712	ds	0.6129884286433	0.0723945480319281
60	5	19936	ds	0.584963879383464	0.0903556353135043
61	5	20160	ds	0.515764393406765	0.00820842650451694
62	5	20384	ds	0.605691056910569	0.0172465068582085
63	5	20608	ds	0.550632911392405	0.00298357291639898
64	5	20832	ds	0.625270532995855	0.00189350335741968
65	5	21056	ds	0.547464036489805	0.00170911934948208
66	5	21280	ds	0.59314242029794	0.012257744776039
67	5	21504	ds	0.559378396000869	0.0377144108026905
68	5	21728	ds	0.614285714285714	0.0269374011880589
69	5	21952	ds	0.603350698555529	0.032333014313787
70	5	22176	ds	0.600095108032971	0.0544737433977541
71	5	22400	ds	0.558633401004381	0.0540586496355352
72	5	22624	ds	0.588541666666667	0.0736569563735987
73	5	22848	ds	0.59899885583524	0.00602739761995402
74	5	23072	ds	0.583965757998907	0.0288921658514083
75	5	23296	ds	0.619527314994188	0.0260267896988462
76	5	23520	ds	0.574566473988439	0.035968437424518
77	5	23744	ds	0.579539715749224	0.0187731978556128
78	5	23968	ds	0.642071391154681	0.0120646820407493
79	5	24192	ds	0.574344135802469	0.0432666417809362
80	5	24416	ds	0.616129032258064	0.0319338546342312
81	5	24640	ds	0.569636355660833	0.0106700325800839
82	5	24864	ds	0.607382550335571	0.033219781666482
83	5	25088	ds	0.538839860268432	0.0597381073644454
84	5	25312	ds	0.623785936285936	0.0375667646959053
85	5	25536	ds	0.651509778093019	0.0350006751048362
86	5	25760	ds	0.657182438192668	0.0480748216535611
87	5	25984	ds	0.60985478964587	0.00117695555612752
88	5	26208	ds	0.59750444500889	0.01243767960304
89	5	26432	ds	0.668	0.0282842712474618
90	5	26656	ds	0.6625	0.00589255650988788
91	5	26880	ds	0.625380269448066	0.0503978757560164
