method	tick	features	mean	sd
1	3	6720	ds	0.590778097982709	0.0163021736296611
2	3	6944	ds	0.580174927113703	0.0164922864416688
3	3	7168	ds	0.587020648967552	0.0208586071146475
4	3	7392	ds	0.56865671641791	0.0147753655770323
5	3	7616	ds	0.608761329305136	0.00213627426340345
6	3	7840	ds	0.624615384615385	0.0130542790372901
7	3	8064	ds	0.565217391304348	0.0351357406800769
8	3	8288	ds	0.575235109717868	0.0155164497439054
9	3	8512	ds	0.584126984126984	0
10	3	8736	ds	0.602272727272727	0.00229580123761868
11	3	8960	ds	0.540983606557377	0
12	3	9184	ds	0.57641196013289	0.025841111604824
13	3	9408	ds	0.570469798657718	0.0142370492856352
14	3	9632	ds	0.589830508474576	0.0383515542338467
15	3	9856	ds	0.571917808219178	0.0435887741827323
16	3	10080	ds	0.617647058823529	0.0318075714720592
17	3	10304	ds	0.582456140350877	0.0148864585512957
18	3	10528	ds	0.593639575971731	0.0499722106845617
19	3	10752	ds	0.519642857142857	0.00757614408414163
20	3	10976	ds	0.579710144927536	0
21	3	11200	ds	0.544280442804428	0.0495757521865107
22	3	11424	ds	0.628252788104089	0.0210291979535033
23	3	11648	ds	0.618867924528302	0.0160099648570539
24	3	11872	ds	0.599616858237548	0.0352198779901346
25	3	12096	ds	0.601167315175097	0.00275138825364414
26	3	12320	ds	0.608267716535433	0.00278388496530136
27	3	12544	ds	0.58	0.045254833995939
28	3	12768	ds	0.569105691056911	0.0172465068582085
29	3	12992	ds	0.590534979423868	0.0552881845372197
30	3	13216	ds	0.598739495798319	0.00891311068722536
31	3	13440	ds	0.553648068669528	0.00606958610460552
32	3	13664	ds	0.556521739130435	0.0122975092380269
33	3	13888	ds	0.575221238938053	0.0688334034783364
34	3	14112	ds	0.632882882882883	0.0414071538532663
35	3	14336	ds	0.584862385321101	0.00324360908801174
36	3	14560	ds	0.610328638497653	0.0398370017569886
37	3	14784	ds	0.60952380952381	0.00673435029701479
38	3	15008	ds	0.560679611650485	0.0171627859511298
39	3	15232	ds	0.606435643564356	0.0105015858592062
40	3	15456	ds	0.613065326633166	0.0213198024478356
41	3	15680	ds	0.569230769230769	0.0507666407005726
42	3	15904	ds	0.596858638743455	0.0148085189777288
43	3	16128	ds	0.606951871657754	0.0189065984274478
44	3	16352	ds	0.622950819672131	0.0463676577827244
45	3	16576	ds	0.619444444444444	0.0432120810725112
46	3	16800	ds	0.610795454545455	0.0522294781558245
47	3	17024	ds	0.597058823529412	0.0374350648863467
48	3	17248	ds	0.637724550898204	0.0127025170273033
49	3	17472	ds	0.61280487804878	0.00431162671455212
50	3	17696	ds	0.630434782608696	0.00439196758500962
51	3	17920	ds	0.547770700636943	0.0270231890899317
52	3	18144	ds	0.63961038961039	0.0321412173266612
53	3	18368	ds	0.601973684210526	0.0604762378646389
54	3	18592	ds	0.583892617449664	0
55	3	18816	ds	0.575862068965517	0.00487659849094172
56	3	19040	ds	0.604895104895105	0.0445032239907617
57	3	19264	ds	0.593525179856115	0.0152612974356809
58	3	19488	ds	0.593283582089552	0.047492246497604
59	3	19712	ds	0.618320610687023	0.0107955233768939
60	3	19936	ds	0.590551181102362	0
61	3	20160	ds	0.596774193548387	0.022809896167308
62	3	20384	ds	0.558333333333333	0.0235702260395516
63	3	20608	ds	0.614406779661017	0.0659167338394239
64	3	20832	ds	0.639130434782609	0.067636300809148
65	3	21056	ds	0.567567567567568	0
66	3	21280	ds	0.578703703703704	0.0196418550329597
67	3	21504	ds	0.669811320754717	0.0667081869043913
68	3	21728	ds	0.621359223300971	0.0137302287609039
69	3	21952	ds	0.608910891089109	0.0490074006762954
70	3	22176	ds	0.616161616161616	0.0142849854785161
71	3	22400	ds	0.598958333333333	0.00736569563735984
72	3	22624	ds	0.657894736842105	0.00744322927564781
73	3	22848	ds	0.646739130434783	0.0384297163688341
74	3	23072	ds	0.651685393258427	0.0158900400266639
75	3	23296	ds	0.637931034482759	0.0243829924547085
76	3	23520	ds	0.694117647058824	0
77	3	23744	ds	0.590361445783133	0.0511161528568589
78	3	23968	ds	0.561728395061728	0.0261891400439462
79	3	24192	ds	0.626582278481013	0.00895071874919685
80	3	24416	ds	0.649350649350649	0.0550992297028479
81	3	24640	ds	0.666666666666667	0.0188561808316413
82	3	24864	ds	0.655405405405405	0.00955549704306143
83	3	25088	ds	0.666666666666667	0.058925565098879
84	3	25312	ds	0.690140845070423	0.0597555026354829
85	3	25536	ds	0.661764705882353	0.124783549621155
86	3	25760	ds	0.649253731343284	0.0316614976650693
87	3	25984	ds	0.671875	0.0220970869120796
88	3	26208	ds	0.619047619047619	0.0897913372935298
89	3	26432	ds	0.647540983606557	0.011591914445681
90	3	26656	ds	0.711864406779661	0.0719091641884624
91	3	26880	ds	0.649122807017544	0.0496215285043191
