   method  tick features              mean                  sd
1       2  6720       ds 0.580555555555555  0.0392837100659192
2       2  6944       ds 0.542134831460674 0.00794502001333194
3       2  7168       ds 0.573863636363636 0.00401765216583261
4       2  7392       ds 0.580459770114943   0.048765984909417
5       2  7616       ds 0.612244897959184  0.0247384296625032
6       2  7840       ds 0.604719764011799  0.0125151642687885
7       2  8064       ds  0.58955223880597   0.044326096731097
8       2  8288       ds 0.575757575757576  0.0428549564355484
9       2  8512       ds 0.584355828220859   0.036873666503593
10      2  8736       ds 0.587227414330218 0.00660847459052848
11      2  8960       ds 0.639498432601881  0.0265996281324093
12      2  9184       ds 0.598412698412698 0.00224478343233824
13      2  9408       ds 0.580385852090032  0.0113682762248641
14      2  9632       ds 0.627868852459016 0.00231838288913627
15      2  9856       ds 0.602990033222591  0.0399362633892735
16      2 10080       ds 0.575757575757576  0.0476166182617204
17      2 10304       ds 0.649659863945578  0.0192410008486135
18      2 10528       ds 0.561855670103093  0.0267291223128936
19      2 10752       ds  0.57439446366782 0.00489347253416296
20      2 10976       ds 0.594736842105263  0.0521026049295351
21      2 11200       ds 0.645390070921986  0.0050149417105429
22      2 11424       ds 0.608928571428571  0.0429314831434689
23      2 11648       ds 0.610909090909091  0.0102851895445316
24      2 11872       ds 0.602941176470588  0.0311958874052888
25      2 12096       ds 0.614232209737828   0.063560160106656
26      2 12320       ds 0.598484848484849                   0
27      2 12544       ds 0.611538461538462  0.0598321122542464
28      2 12768       ds 0.587548638132296  0.0440222120583065
29      2 12992       ds 0.624015748031496 0.00278388496530136
30      2 13216       ds 0.601593625498008  0.0450745358525289
31      2 13440       ds 0.625506072874494  0.0200394634344366
32      2 13664       ds 0.601239669421488   0.049672790413931
33      2 13888       ds 0.598326359832636  0.0414204809063249
34      2 14112       ds 0.608974358974359 0.00906547155367373
35      2 14336       ds 0.655021834061135                   0
36      2 14560       ds 0.617256637168142  0.0344167017391682
37      2 14784       ds 0.596846846846847  0.0159258284051024
38      2 15008       ds 0.595890410958904   0.067804759839806
39      2 15232       ds 0.590697674418605                   0
40      2 15456       ds 0.554761904761905  0.0303045763365663
41      2 15680       ds  0.58252427184466  0.0274604575218077
42      2 15904       ds  0.61576354679803                   0
43      2 16128       ds  0.64070351758794   0.017766502039863
44      2 16352       ds 0.579487179487179   0.007252377242939
45      2 16576       ds 0.654450261780105  0.0148085189777288
46      2 16800       ds 0.651595744680851  0.0413732691119788
47      2 17024       ds 0.644021739130435  0.0422726880057175
48      2 17248       ds 0.606145251396648  0.0434534893466593
49      2 17472       ds 0.619318181818182  0.0642824346533225
50      2 17696       ds  0.65028901734104  0.0613098365190648
51      2 17920       ds 0.633928571428571  0.0462986582919763
52      2 18144       ds 0.642424242424242 0.00857099128710964
53      2 18368       ds 0.614906832298137 0.00878393517001916
54      2 18592       ds 0.641025641025641                   0
55      2 18816       ds 0.627450980392157  0.0184864517957267
56      2 19040       ds 0.635761589403974  0.0280969581928429
57      2 19264       ds  0.62751677852349  0.0142370492856352
58      2 19488       ds 0.656462585034014  0.0240512510607669
59      2 19712       ds 0.625874125874126  0.0148344079969205
60      2 19936       ds 0.667857142857143  0.0454568645048495
61      2 20160       ds 0.621323529411765  0.0155979437026444
62      2 20384       ds 0.637404580152672 0.00539776168844694
63      2 20608       ds  0.63953488372093  0.0493330312455731
64      2 20832       ds             0.632  0.0565685424949239
65      2 21056       ds 0.581967213114754  0.0579595722284055
66      2 21280       ds 0.597457627118644  0.0179772910471156
67      2 21504       ds  0.59051724137931  0.0182872443410314
68      2 21728       ds 0.641592920353982   0.056318239209548
69      2 21952       ds 0.605504587155963  0.0389233090561402
70      2 22176       ds 0.580188679245283  0.0466957308330739
71      2 22400       ds 0.600961538461538 0.00679910366525524
72      2 22624       ds 0.607843137254902  0.0970538719275654
73      2 22848       ds             0.625 0.00707106781186548
74      2 23072       ds 0.622448979591837  0.0432922519093804
75      2 23296       ds 0.601063829787234  0.0977913633555864
76      2 23520       ds 0.591397849462366   0.030413194889744
77      2 23744       ds 0.631868131868132  0.0543928293220421
78      2 23968       ds 0.556818181818182  0.0160706086633307
79      2 24192       ds 0.656976744186047  0.0246665156227865
80      2 24416       ds 0.577380952380952 0.00841793787126847
81      2 24640       ds 0.617283950617284  0.0698377067838565
82      2 24864       ds 0.645569620253165   0.089507187491968
83      2 25088       ds 0.668831168831169  0.0826488445542718
84      2 25312       ds              0.62  0.0659966329107444
85      2 25536       ds 0.657534246575342  0.0581183655769765
86      2 25760       ds 0.618055555555556  0.0687464926153588
87      2 25984       ds 0.578571428571429  0.0707106781186547
88      2 26208       ds 0.608695652173913  0.0819833949201794
89      2 26432       ds 0.671641791044776  0.0633229953301385
90      2 26656       ds 0.653846153846154  0.0326356975932253
91      2 26880       ds 0.603174603174603  0.0897913372935298
