   method  tick features              mean                  sd
1       2  6720       ds 0.576149425287356  0.0467340688715247
2       2  6944       ds 0.578488372093023  0.0123332578113933
3       2  7168       ds 0.572058823529412  0.0603120489835585
4       2  7392       ds 0.572916666666667  0.0484031427597934
5       2  7616       ds 0.551204819277108  0.0340774352379059
6       2  7840       ds 0.582822085889571   0.021690392060937
7       2  8064       ds  0.58359133126935  0.0328377762160935
8       2  8288       ds         0.5984375 0.00220970869120791
9       2  8512       ds 0.633333333333333  0.0381613183497502
10      2  8736       ds 0.587378640776699  0.0205953431413557
11      2  8960       ds  0.60655737704918  0.0139102973348173
12      2  9184       ds 0.615894039735099  0.0280969581928429
13      2  9408       ds  0.61744966442953  0.0189827323808469
14      2  9632       ds 0.638513513513514  0.0334442396507151
15      2  9856       ds 0.578498293515358 0.00241333372418613
16      2 10080       ds 0.603806228373702  0.0171271538695704
17      2 10304       ds  0.61013986013986   0.027196414661021
18      2 10528       ds  0.64612676056338  0.0124490630490589
19      2 10752       ds 0.605357142857143  0.0176776695296637
20      2 10976       ds 0.601083032490975   0.017869124434317
21      2 11200       ds 0.615808823529412  0.0493934883917073
22      2 11424       ds 0.630111524163569 0.00788594923256375
23      2 11648       ds  0.62406015037594  0.0159497770192454
24      2 11872       ds 0.637404580152672  0.0215910467537877
25      2 12096       ds 0.602316602316602  0.0436822721968523
26      2 12320       ds 0.664705882352941  0.0360485810016672
27      2 12544       ds 0.593625498007968  0.0338059018893967
28      2 12768       ds 0.621951219512195  0.0229953424776113
29      2 12992       ds 0.648148148148148  0.0320089489426009
30      2 13216       ds 0.596638655462185  0.0237682951659344
31      2 13440       ds 0.663090128755365  0.0394523096799361
32      2 13664       ds 0.614718614718615  0.0183664099009492
33      2 13888       ds 0.599557522123894 0.00312879106719712
34      2 14112       ds 0.652466367713004  0.0221961769879186
35      2 14336       ds  0.63013698630137  0.0387455770513177
36      2 14560       ds 0.616822429906542                   0
37      2 14784       ds 0.592857142857143  0.0168358757425368
38      2 15008       ds 0.652912621359223  0.0171627859511298
39      2 15232       ds 0.673267326732673  0.0210031717184122
40      2 15456       ds 0.653266331658291 0.00710660081594515
41      2 15680       ds 0.648717948717949 0.00362618862146946
42      2 15904       ds 0.620418848167539 0.00370212974443223
43      2 16128       ds 0.622340425531915  0.0150448251316287
44      2 16352       ds 0.631147540983607 0.00386397148189371
45      2 16576       ds              0.65  0.0392837100659193
46      2 16800       ds 0.633522727272727  0.0763353911508204
47      2 17024       ds 0.608187134502924   0.057891783255039
48      2 17248       ds 0.651785714285714  0.0126269068069026
49      2 17472       ds 0.627272727272727  0.0385694607919935
50      2 17696       ds 0.692546583850932  0.0395277082650865
51      2 17920       ds  0.67515923566879  0.0270231890899317
52      2 18144       ds 0.661290322580645 0.00456197923346161
53      2 18368       ds 0.620915032679739  0.0184864517957267
54      2 18592       ds              0.63 0.00471404520791027
55      2 18816       ds 0.616438356164384  0.0193727885256588
56      2 19040       ds 0.660839160839161  0.0346136186594814
57      2 19264       ds 0.654676258992806  0.0101741982904539
58      2 19488       ds 0.596296296296296  0.0366647960615247
59      2 19712       ds 0.636363636363636  0.0428549564355483
60      2 19936       ds         0.6171875  0.0441941738241592
61      2 20160       ds             0.576  0.0791959594928933
62      2 20384       ds 0.641666666666667  0.0824957911384305
63      2 20608       ds 0.644067796610169                   0
64      2 20832       ds 0.660869565217391  0.0860825646661885
65      2 21056       ds 0.662162162162162  0.0191109940861229
66      2 21280       ds 0.592592592592593  0.0130945700219731
67      2 21504       ds 0.599056603773585  0.0600373682139521
68      2 21728       ds 0.629807692307692  0.0883883476483184
69      2 21952       ds 0.598039215686274   0.013864838846795
70      2 22176       ds 0.580808080808081  0.0499974491748064
71      2 22400       ds 0.677083333333333   0.103119738923038
72      2 22624       ds               0.7  0.0372161463782394
73      2 22848       ds 0.668478260869565  0.0999172625589686
74      2 23072       ds 0.668539325842697  0.0556151400933239
75      2 23296       ds 0.596590909090909  0.0241059129949959
76      2 23520       ds 0.682352941176471                   0
77      2 23744       ds 0.656626506024096  0.0596355116663354
78      2 23968       ds 0.672839506172839 0.00872971334798211
79      2 24192       ds 0.664556962025316   0.044753593745984
80      2 24416       ds 0.636363636363636  0.0183664099009493
81      2 24640       ds 0.693333333333333  0.0565685424949238
82      2 24864       ds 0.668918918918919  0.0286664911291843
83      2 25088       ds 0.659722222222222  0.0491046375823991
84      2 25312       ds 0.591549295774648  0.0398370017569885
85      2 25536       ds 0.673913043478261  0.0307437730950673
86      2 25760       ds 0.574626865671642  0.0105538325550231
87      2 25984       ds         0.6015625  0.0773398041922786
88      2 26208       ds 0.714285714285714  0.0897913372935298
89      2 26432       ds 0.721311475409836                   0
90      2 26656       ds 0.616666666666667  0.0235702260395516
91      2 26880       ds  0.53448275862069  0.0487659849094171
