method	tick	features	mean	sd
1	3	6720	ds	0.599673530802036	0.000987427116296025
2	3	6944	ds	0.60988206258113	0.0417545419016395
3	3	7168	ds	0.613817269561963	0.0249409081951667
4	3	7392	ds	0.60849635717303	0.0101091647607312
5	3	7616	ds	0.608910075891366	0.0287908662923576
6	3	7840	ds	0.608888888888889	0.00628539361054705
7	3	8064	ds	0.627369649020586	0.0291645037991018
8	3	8288	ds	0.616968782271868	0.0165730392955536
9	3	8512	ds	0.627540530692124	0.0263677646244105
10	3	8736	ds	0.619132798947424	0.028534849201337
11	3	8960	ds	0.621415423808291	0.00702835922146883
12	3	9184	ds	0.66172816509758	0.00469942132107861
13	3	9408	ds	0.643426529647598	0.024825501683758
14	3	9632	ds	0.663667619677308	0.0321396799423855
15	3	9856	ds	0.676415249985998	0.00106696337035512
16	3	10080	ds	0.655189370428	0.00745732138638812
17	3	10304	ds	0.643600439504876	0.0149227906409506
18	3	10528	ds	0.675409015578389	0.0201753947424926
19	3	10752	ds	0.63915929768815	0.0162716961105617
20	3	10976	ds	0.6824483681795	0.00953296049343158
21	3	11200	ds	0.659511031604055	0.0101195961529381
22	3	11424	ds	0.679831044390322	0.0511472381926414
23	3	11648	ds	0.663114575623243	0.0139232570729257
24	3	11872	ds	0.673153006759425	0.02387743132833
25	3	12096	ds	0.671422855893031	0.00584841903950729
26	3	12320	ds	0.682529067546353	0.0124529010941487
27	3	12544	ds	0.648767094686293	0.0186229145795743
28	3	12768	ds	0.658887370340397	0.0207716282520086
29	3	12992	ds	0.637191731109637	0.00245162940744422
30	3	13216	ds	0.671615554838622	0.0344468475934025
31	3	13440	ds	0.67761247093833	0.0116236351523451
32	3	13664	ds	0.650365237202459	0.00484773493483571
33	3	13888	ds	0.661006183025507	0.0143799981406334
34	3	14112	ds	0.684779709512378	0.00234896411392923
35	3	14336	ds	0.654415852528569	0.00967146716664273
36	3	14560	ds	0.674302371653365	0.0472205003930429
37	3	14784	ds	0.662583754705084	0.00648890025213927
38	3	15008	ds	0.670464946445959	0.00283324674253426
39	3	15232	ds	0.66230096287138	0.0364786138531646
40	3	15456	ds	0.666889894239737	0.0454736011632756
41	3	15680	ds	0.690124451607127	0.0130418118832867
42	3	15904	ds	0.641436892939458	0.00652915426677522
43	3	16128	ds	0.656986268369068	0.000221449967608391
44	3	16352	ds	0.692922428630779	0.0241269920175765
45	3	16576	ds	0.656288615504784	0.0197050955925737
46	3	16800	ds	0.678828858426486	0.00918141738090897
47	3	17024	ds	0.676065236057188	0.000761124992893734
48	3	17248	ds	0.641054279601078	0.013193003390125
49	3	17472	ds	0.683859111018902	0.0054022563172759
50	3	17696	ds	0.667290235240665	0.00771380871109971
51	3	17920	ds	0.662078617500304	0.0263669852446827
52	3	18144	ds	0.679171696536354	0.0446496992484773
53	3	18368	ds	0.67809911734478	0.0229507256604515
54	3	18592	ds	0.658857104783903	0.0401310502519457
55	3	18816	ds	0.699793376571199	0.0220374781716292
56	3	19040	ds	0.652281339758114	0.0340690280421004
57	3	19264	ds	0.680562570145903	0.0355239812490043
58	3	19488	ds	0.701402472682062	0.00165977722367061
59	3	19712	ds	0.667846055081022	0.0270556658605382
60	3	19936	ds	0.708613445378151	0.0315920256580544
61	3	20160	ds	0.665872758560491	0.0735551882766564
62	3	20384	ds	0.675662422343616	0.0811906996942017
63	3	20608	ds	0.727296074269726	0.0197589868200887
64	3	20832	ds	0.734199586640988	0.0455289877547776
65	3	21056	ds	0.690919708607174	0.0181549904030199
66	3	21280	ds	0.671966504072363	0.0361660982515311
67	3	21504	ds	0.647543305370955	0.0545717881896231
68	3	21728	ds	0.688976286871024	0.000359892404536811
69	3	21952	ds	0.674325857301538	0.0468168091956163
70	3	22176	ds	0.664756149667338	0.0158573540504144
71	3	22400	ds	0.723663124156545	0.0395123348967685
72	3	22624	ds	0.701660176265628	0.0700874850136943
73	3	22848	ds	0.694808110407411	0.0382161170378494
74	3	23072	ds	0.706265950501513	0.0356826838805782
75	3	23296	ds	0.706963109354414	0.0518638135818908
76	3	23520	ds	0.71146461298909	0.0367208394821281
77	3	23744	ds	0.677263311559946	0.0324130731119348
78	3	23968	ds	0.722130999005174	0.0114826825402096
79	3	24192	ds	0.679980813416396	0.0361199463161473
80	3	24416	ds	0.695887031339454	0.0505852214949736
81	3	24640	ds	0.658522727272727	0.065085965086489
82	3	24864	ds	0.690226664436266	0.029470668205525
83	3	25088	ds	0.709904829883417	0.00143675753303193
84	3	25312	ds	0.71482366131273	0.121071075040471
85	3	25536	ds	0.740436730727705	0.0360233572341688
86	3	25760	ds	0.697183098591549	0.0199185008784943
87	3	25984	ds	0.693049549135075	0.0023504078460033
88	3	26208	ds	0.741047180126268	0.0691959896681781
89	3	26432	ds	0.687450723996692	0.0152155161845999
90	3	26656	ds	0.689320457389919	0.00682850017672188
91	3	26880	ds	0.713028699281442	0.0346540434478498
