method	tick	features	mean	sd
1	3	6720	ds	0.596264367816092	0.00203191603789239
2	3	6944	ds	0.627906976744186	0.0164443437485244
3	3	7168	ds	0.610294117647059	0.0228769840972118
4	3	7392	ds	0.630952380952381	0.0505076272276105
5	3	7616	ds	0.646084337349398	0.00638951910710736
6	3	7840	ds	0.598159509202454	0.0216903920609371
7	3	8064	ds	0.653250773993808	0.00875674032429155
8	3	8288	ds	0.6484375	0.0110485434560398
9	3	8512	ds	0.66031746031746	0.0224478343233825
10	3	8736	ds	0.616504854368932	0.0434790577428621
11	3	8960	ds	0.634426229508197	0.0718698695632229
12	3	9184	ds	0.632450331125828	0.0187313054618952
13	3	9408	ds	0.642617449664429	0.0450839894045114
14	3	9632	ds	0.652027027027027	0.00477774852153068
15	3	9856	ds	0.668941979522184	0.00482666744837233
16	3	10080	ds	0.650519031141868	0.0440412528074666
17	3	10304	ds	0.63986013986014	0
18	3	10528	ds	0.65669014084507	0.0124490630490589
19	3	10752	ds	0.655357142857143	0.0580837713117521
20	3	10976	ds	0.657039711191336	0.025527320620453
21	3	11200	ds	0.678308823529412	0.00259965728377406
22	3	11424	ds	0.680297397769517	0.00525729948837583
23	3	11648	ds	0.672932330827068	0.0372161463782394
24	3	11872	ds	0.681297709923664	0.0134944042211173
25	3	12096	ds	0.646718146718147	0.0409521301845491
26	3	12320	ds	0.662745098039216	0.011091871077436
27	3	12544	ds	0.633466135458167	0.0281715849078306
28	3	12768	ds	0.67479674796748	0.0229953424776113
29	3	12992	ds	0.662551440329218	0.0465584711892377
30	3	13216	ds	0.684873949579832	0.029710368957418
31	3	13440	ds	0.678111587982833	0.0364175166276334
32	3	13664	ds	0.651515151515152	0.00918320495047465
33	3	13888	ds	0.679203539823009	0.0156439553359855
34	3	14112	ds	0.670403587443946	0.0856138255248286
35	3	14336	ds	0.678082191780822	0.00322879808760985
36	3	14560	ds	0.682242990654206	0.0198254237715854
37	3	14784	ds	0.70952380952381	0
38	3	15008	ds	0.669902912621359	0.00686511438045192
39	3	15232	ds	0.655940594059406	0.00350052861973539
40	3	15456	ds	0.695979899497488	0.0604061069355342
41	3	15680	ds	0.661538461538462	0.0145047544858778
42	3	15904	ds	0.704188481675393	0.00370212974443223
43	3	16128	ds	0.686170212765957	0.0150448251316287
44	3	16352	ds	0.718579234972678	0.0193198574094685
45	3	16576	ds	0.669444444444445	0.0196418550329597
46	3	16800	ds	0.659090909090909	0.0482118259899919
47	3	17024	ds	0.675438596491228	0.0206756368767996
48	3	17248	ds	0.630952380952381	0.0168358757425369
49	3	17472	ds	0.66969696969697	0.0214274782177741
50	3	17696	ds	0.711180124223602	0.0395277082650865
51	3	17920	ds	0.656050955414013	0.00900772969664392
52	3	18144	ds	0.693548387096774	0.0410578131011543
53	3	18368	ds	0.686274509803922	0.0647025812850436
54	3	18592	ds	0.696666666666667	0.0424264068711929
55	3	18816	ds	0.660958904109589	0.00484319713141473
56	3	19040	ds	0.646853146853147	0.0148344079969205
57	3	19264	ds	0.636690647482014	0.00508709914522701
58	3	19488	ds	0.688888888888889	0.0314269680527355
59	3	19712	ds	0.651515151515151	0.0321412173266612
60	3	19936	ds	0.69140625	0.0386699020961393
61	3	20160	ds	0.712	0.0791959594928933
62	3	20384	ds	0.7	0.0353553390593273
63	3	20608	ds	0.652542372881356	0.0119848606980771
64	3	20832	ds	0.68695652173913	0.0491900369521077
65	3	21056	ds	0.662162162162162	0.0063703313620409
66	3	21280	ds	0.666666666666667	0.0392837100659193
67	3	21504	ds	0.650943396226415	0.0400249121426348
68	3	21728	ds	0.682692307692308	0.0135982073305105
69	3	21952	ds	0.67156862745098	0.0762566136573727
70	3	22176	ds	0.707070707070707	0.0428549564355483
71	3	22400	ds	0.739583333333333	0.0736569563735987
72	3	22624	ds	0.673684210526316	0
73	3	22848	ds	0.679347826086957	0.0691734894639014
74	3	23072	ds	0.724719101123595	0.087395220146652
75	3	23296	ds	0.704545454545455	0.0321412173266613
76	3	23520	ds	0.7	0.0748701297726932
77	3	23744	ds	0.746987951807229	0.0511161528568589
78	3	23968	ds	0.672839506172839	0.00872971334798211
79	3	24192	ds	0.708860759493671	0.0179014374983935
80	3	24416	ds	0.720779220779221	0.101015254455221
81	3	24640	ds	0.686666666666667	0.0282842712474619
82	3	24864	ds	0.668918918918919	0.0286664911291843
83	3	25088	ds	0.694444444444444	0.0785674201318387
84	3	25312	ds	0.669014084507042	0.0497962521962357
85	3	25536	ds	0.688405797101449	0.0102479243650224
86	3	25760	ds	0.708955223880597	0.0738768278851617
87	3	25984	ds	0.7265625	0.0773398041922786
88	3	26208	ds	0.73015873015873	0.0448956686467649
89	3	26432	ds	0.786885245901639	0.0463676577827245
90	3	26656	ds	0.725	0.0117851130197758
91	3	26880	ds	0.724137931034483	0.0243829924547086
