method	tick	features	mean	sd
1	1	6720	ds	0.537463976945245	0.00611331511112284
2	1	6944	ds	0.575801749271137	0.00206153580520866
3	1	7168	ds	0.556047197640118	0.0396313535178301
4	1	7392	ds	0.57910447761194	0.0379937971980831
5	1	7616	ds	0.564954682779456	0.0256352911608416
6	1	7840	ds	0.541538461538462	0.0217571317288168
7	1	8064	ds	0.527950310559006	0.0527036110201153
8	1	8288	ds	0.568965517241379	0.00664990703310236
9	1	8512	ds	0.571428571428571	0.00448956686467648
10	1	8736	ds	0.547077922077922	0.00688740371285597
11	1	8960	ds	0.550819672131148	0.0139102973348173
12	1	9184	ds	0.571428571428571	0
13	1	9408	ds	0.560402684563758	0.0379654647616939
14	1	9632	ds	0.593220338983051	0
15	1	9856	ds	0.539383561643836	0.0217943870913662
16	1	10080	ds	0.603806228373702	0.0122336813354073
17	1	10304	ds	0.564912280701754	0.0297729171025915
18	1	10528	ds	0.583038869257951	0.0449749896161055
19	1	10752	ds	0.566071428571429	0.00252538136138052
20	1	10976	ds	0.58695652173913	0.0409916974600897
21	1	11200	ds	0.514760147601476	0.0391387517261926
22	1	11424	ds	0.550185873605948	0.0157718984651275
23	1	11648	ds	0.549056603773585	0.00266832747617565
24	1	11872	ds	0.60727969348659	0.0568936490609866
25	1	12096	ds	0.57976653696498	0.00550277650728837
26	1	12320	ds	0.590551181102362	0.0167033097918083
27	1	12544	ds	0.544	0.0226274169979695
28	1	12768	ds	0.57520325203252	0.0201209246679099
29	1	12992	ds	0.596707818930041	0.0116396177973094
30	1	13216	ds	0.504201680672269	0.029710368957418
31	1	13440	ds	0.534334763948498	0.0515914818891472
32	1	13664	ds	0.56304347826087	0.0399669050235875
33	1	13888	ds	0.559734513274336	0.0406742838735625
34	1	14112	ds	0.558558558558559	0.0127406627240819
35	1	14336	ds	0.568807339449541	0.00648721817602341
36	1	14560	ds	0.605633802816901	0.0265580011713257
37	1	14784	ds	0.571428571428571	0.0134687005940295
38	1	15008	ds	0.577669902912621	0.0480558006631634
39	1	15232	ds	0.594059405940594	0.00700105723947077
40	1	15456	ds	0.560301507537688	0.0106599012239178
41	1	15680	ds	0.582051282051282	0.00362618862146946
42	1	15904	ds	0.539267015706806	0.0814468543775081
43	1	16128	ds	0.596256684491979	0.0113439590564686
44	1	16352	ds	0.595628415300546	0.0154558859275748
45	1	16576	ds	0.591666666666667	0.0196418550329597
46	1	16800	ds	0.627840909090909	0.012052956497498
47	1	17024	ds	0.538235294117647	0.0623917748105777
48	1	17248	ds	0.592814371257485	0.0423417234243442
49	1	17472	ds	0.582317073170732	0.0474278938600733
50	1	17696	ds	0.552795031055901	0.0175678703400384
51	1	17920	ds	0.54140127388535	0.0450386484832196
52	1	18144	ds	0.587662337662338	0.0137748074257119
53	1	18368	ds	0.605263157894737	0.0837363293510385
54	1	18592	ds	0.563758389261745	0.0759309295233876
55	1	18816	ds	0.579310344827586	0.00975319698188335
56	1	19040	ds	0.611888111888112	0.024724013328201
57	1	19264	ds	0.532374100719424	0.0101741982904539
58	1	19488	ds	0.57089552238806	0.00527691627751156
59	1	19712	ds	0.568702290076336	0.0269888084422346
60	1	19936	ds	0.578740157480315	0.0167033097918082
61	1	20160	ds	0.540322580645161	0
62	1	20384	ds	0.570833333333333	0.053033008588991
63	1	20608	ds	0.572033898305085	0.0179772910471156
64	1	20832	ds	0.569565217391304	0.0061487546190135
65	1	21056	ds	0.572072072072072	0.0573329822583687
66	1	21280	ds	0.546296296296296	0
67	1	21504	ds	0.575471698113208	0.053366549523513
68	1	21728	ds	0.567961165048544	0.00686511438045192
69	1	21952	ds	0.504950495049505	0.0420063434368246
70	1	22176	ds	0.560606060606061	0.0357124636962903
71	1	22400	ds	0.557291666666667	0.0662912607362388
72	1	22624	ds	0.531578947368421	0.00744322927564789
73	1	22848	ds	0.576086956521739	0.0307437730950673
74	1	23072	ds	0.544943820224719	0.071505180119988
75	1	23296	ds	0.574712643678161	0.0487659849094171
76	1	23520	ds	0.635294117647059	0.0499134198484622
77	1	23744	ds	0.620481927710843	0.0425967940473824
78	1	23968	ds	0.537037037037037	0.0261891400439462
79	1	24192	ds	0.537974683544304	0.0805564687427712
80	1	24416	ds	0.623376623376623	0
81	1	24640	ds	0.586666666666667	0.0377123616632825
82	1	24864	ds	0.554054054054054	0.0573329822583688
83	1	25088	ds	0.548611111111111	0.0687464926153588
84	1	25312	ds	0.570422535211268	0.00995925043924713
85	1	25536	ds	0.625	0.0935876622158666
86	1	25760	ds	0.559701492537313	0.0316614976650693
87	1	25984	ds	0.5859375	0.0110485434560398
88	1	26208	ds	0.531746031746032	0.0561195858084561
89	1	26432	ds	0.598360655737705	0.127511058902492
90	1	26656	ds	0.533898305084746	0.0838940248865395
91	1	26880	ds	0.578947368421053	0.0248107642521596
