method	tick	features	mean	sd
1	1	6720	ds	0.597222222222222	0.0157134840263677
2	1	6944	ds	0.539325842696629	0.015890040026664
3	1	7168	ds	0.576704545454545	0.0160706086633306
4	1	7392	ds	0.60632183908046	0.0568936490609866
5	1	7616	ds	0.588921282798834	0.0577230025458407
6	1	7840	ds	0.579646017699115	0.047974796363689
7	1	8064	ds	0.585074626865672	0.0042215330220092
8	1	8288	ds	0.583333333333333	0.0107137391088871
9	1	8512	ds	0.564417177914111	0.00433807841218746
10	1	8736	ds	0.587227414330218	0.0506649718607184
11	1	8960	ds	0.612852664576803	0.0465493492317163
12	1	9184	ds	0.607936507936508	0.0426508852144267
13	1	9408	ds	0.583601286173633	0.0159155867148097
14	1	9632	ds	0.583606557377049	0.0370941262261796
15	1	9856	ds	0.559800664451827	0.00704757589222477
16	1	10080	ds	0.577441077441077	0.0119041545654301
17	1	10304	ds	0.552721088435374	0.00240512510607669
18	1	10528	ds	0.596219931271478	0.0170094414718413
19	1	10752	ds	0.577854671280277	0.0244673626708148
20	1	10976	ds	0.624561403508772	0.00496215285043185
21	1	11200	ds	0.604609929078014	0.0376120628290717
22	1	11424	ds	0.557142857142857	0.0606091526731327
23	1	11648	ds	0.627272727272727	0.0282842712474618
24	1	11872	ds	0.568014705882353	0.0285962301215148
25	1	12096	ds	0.597378277153558	0.018538380031108
26	1	12320	ds	0.634469696969697	0.0133921738861088
27	1	12544	ds	0.651923076923077	0.05167318785594
28	1	12768	ds	0.587548638132296	0.00550277650728829
29	1	12992	ds	0.622047244094488	0
30	1	13216	ds	0.593625498007968	0.0338059018893967
31	1	13440	ds	0.564777327935223	0.00286278049063382
32	1	13664	ds	0.640495867768595	0.0175315730872698
33	1	13888	ds	0.552301255230126	0.0473376924643713
34	1	14112	ds	0.623931623931624	0.0362618862146948
35	1	14336	ds	0.602620087336245	0.0432292355310553
36	1	14560	ds	0.608407079646018	0.00312879106719704
37	1	14784	ds	0.587837837837838	0.00955549704306151
38	1	15008	ds	0.557077625570776	0.0193727885256588
39	1	15232	ds	0.588372093023256	0.0427552937461634
40	1	15456	ds	0.611904761904762	0.00336717514850736
41	1	15680	ds	0.606796116504854	0.0480558006631635
42	1	15904	ds	0.61576354679803	0.0348328463638693
43	1	16128	ds	0.653266331658291	0.0142132016318904
44	1	16352	ds	0.625641025641026	0.0580190179435115
45	1	16576	ds	0.649214659685864	0.0444255569331863
46	1	16800	ds	0.63563829787234	0.00376120628290719
47	1	17024	ds	0.584239130434783	0.0576445745532512
48	1	17248	ds	0.600558659217877	0.0592547581999901
49	1	17472	ds	0.639204545454545	0.0441941738241592
50	1	17696	ds	0.644508670520231	0.0122619673038129
51	1	17920	ds	0.610119047619048	0.0294627825494395
52	1	18144	ds	0.639393939393939	0.0385694607919935
53	1	18368	ds	0.611801242236025	0.021959837925048
54	1	18592	ds	0.57051282051282	0.0362618862146948
55	1	18816	ds	0.584967320261438	0.0231080647446584
56	1	19040	ds	0.599337748344371	0.0515110900202121
57	1	19264	ds	0.604026845637584	0.0189827323808469
58	1	19488	ds	0.615646258503401	0.0432922519093805
59	1	19712	ds	0.674825174825175	0.00494480266564018
60	1	19936	ds	0.607142857142857	0.0101015254455222
61	1	20160	ds	0.613970588235294	0.0571924602430296
62	1	20384	ds	0.645038167938931	0.0485798551960223
63	1	20608	ds	0.62015503875969	0.0219257916646992
64	1	20832	ds	0.616	0.0113137084989848
65	1	21056	ds	0.614754098360656	0.0231838288913622
66	1	21280	ds	0.567796610169492	0.0599243034903854
67	1	21504	ds	0.594827586206897	0.0609574811367714
68	1	21728	ds	0.610619469026549	0.0125151642687884
69	1	21952	ds	0.637614678899083	0.0843338362883039
70	1	22176	ds	0.584905660377358	0.106733099047026
71	1	22400	ds	0.600961538461539	0.0747901403178079
72	1	22624	ds	0.700980392156863	0.00693241942339758
73	1	22848	ds	0.645	0.0353553390593274
74	1	23072	ds	0.658163265306122	0.00721537531823009
75	1	23296	ds	0.590425531914894	0.0677017130923291
76	1	23520	ds	0.60752688172043	0.022809896167308
77	1	23744	ds	0.615384615384615	0.0155408083777263
78	1	23968	ds	0.545454545454545	0.0482118259899919
79	1	24192	ds	0.61046511627907	0.0246665156227865
80	1	24416	ds	0.666666666666667	0.0336717514850736
81	1	24640	ds	0.623456790123457	0.0261891400439462
82	1	24864	ds	0.620253164556962	0.0358028749967872
83	1	25088	ds	0.636363636363636	0.0183664099009493
84	1	25312	ds	0.553333333333333	0.0471404520791032
85	1	25536	ds	0.602739726027397	0.0193727885256588
86	1	25760	ds	0.569444444444444	0.0196418550329597
87	1	25984	ds	0.692857142857143	0.0303045763365664
88	1	26208	ds	0.630434782608696	0.071735470555157
89	1	26432	ds	0.686567164179104	0.0211076651100462
90	1	26656	ds	0.646153846153846	0
91	1	26880	ds	0.706349206349206	0.0561195858084562
