method	tick	features	mean	sd
1	3	6720	ds	0.575649631460259	0.0149527730055446
2	3	6944	ds	0.585479404531065	0.0319124322474058
3	3	7168	ds	0.606088618375953	0.00165984059232803
4	3	7392	ds	0.593882928665537	0.0031852855818555
5	3	7616	ds	0.617750834215444	0.0201677760415295
6	3	7840	ds	0.621412550523159	0.0314241413133542
7	3	8064	ds	0.611534025031073	0.0243364798596765
8	3	8288	ds	0.624286170860695	0.00771361305887595
9	3	8512	ds	0.623588524011611	0.0373874892863446
10	3	8736	ds	0.628021908196634	0.0115968322231701
11	3	8960	ds	0.646328714318297	0.0345202027197073
12	3	9184	ds	0.646514876422857	0.0105121171054841
13	3	9408	ds	0.624620669611414	0.0220247072551147
14	3	9632	ds	0.665844298245614	0.0174450686147996
15	3	9856	ds	0.636289896523247	0.0204490855216736
16	3	10080	ds	0.651804456521074	0.0058117417098643
17	3	10304	ds	0.660399613605166	0.011529266598532
18	3	10528	ds	0.638199426945513	0.0244544430831777
19	3	10752	ds	0.677281918260089	0.0248673795475402
20	3	10976	ds	0.627907973590102	0.0272777586148649
21	3	11200	ds	0.659672319782327	0.0071136303310759
22	3	11424	ds	0.698476635429726	0.00257401077707729
23	3	11648	ds	0.677232019788849	0.0271632643638267
24	3	11872	ds	0.640256230436344	0.000887768977628454
25	3	12096	ds	0.628556929888337	0.0279356083440431
26	3	12320	ds	0.667958623535091	0.0106016415023094
27	3	12544	ds	0.689202364899907	0.00753973416720026
28	3	12768	ds	0.683008256899815	0.0121688075336411
29	3	12992	ds	0.65272824960089	0.0344042144187328
30	3	13216	ds	0.658604874491974	0.0177414390825487
31	3	13440	ds	0.682074751064797	0.0291460234037691
32	3	13664	ds	0.675161069225497	0.00684328152868682
33	3	13888	ds	0.668893224883626	0.00515054653820227
34	3	14112	ds	0.687677562257846	0.0117135767865675
35	3	14336	ds	0.690239044344723	0.037391468861654
36	3	14560	ds	0.649302605262814	0.0616253926217429
37	3	14784	ds	0.672428483267971	0.0180207851666239
38	3	15008	ds	0.669502306558235	0.0314174399735355
39	3	15232	ds	0.70806252794514	0.0038655750628462
40	3	15456	ds	0.690506864205483	0.0381940334994143
41	3	15680	ds	0.68811376506288	0.0566273380602494
42	3	15904	ds	0.692188064236998	0.0186762833927441
43	3	16128	ds	0.668294293334255	0.021810951504034
44	3	16352	ds	0.650327898811236	0.0186324348514233
45	3	16576	ds	0.650447595938656	0.00655151115552001
46	3	16800	ds	0.718664637070709	0.00879957726738811
47	3	17024	ds	0.713687836624205	0.00612737006775448
48	3	17248	ds	0.695264784912573	0.0185384321468112
49	3	17472	ds	0.674987349092749	0.0153249919033997
50	3	17696	ds	0.701643959325348	0.0416697616010077
51	3	17920	ds	0.678705814247983	0.00853215063952067
52	3	18144	ds	0.657360406091371	0.0279971212855588
53	3	18368	ds	0.641791579490413	0.02880835428783
54	3	18592	ds	0.676930270196398	0.0286521880168123
55	3	18816	ds	0.692597861751065	0.0511135241249832
56	3	19040	ds	0.690901303786766	0.00570298153740321
57	3	19264	ds	0.711437082279907	0.00218774933426757
58	3	19488	ds	0.684018842879314	0.0207770470808128
59	3	19712	ds	0.679608788305861	0.0133057028795753
60	3	19936	ds	0.670282050419037	0.019789279679466
61	3	20160	ds	0.66229280026229	0.0458641024114381
62	3	20384	ds	0.708482728043797	0.00335997034394486
63	3	20608	ds	0.679565247866543	0.0119137710079532
64	3	20832	ds	0.674400028369549	0.00904343415640234
65	3	21056	ds	0.686389589575005	0.0405475799871753
66	3	21280	ds	0.690241467270318	0.014003549415863
67	3	21504	ds	0.643955916265933	0.0390912908850605
68	3	21728	ds	0.714536833956909	0.011335055807306
69	3	21952	ds	0.674547736066088	0.00468791905544564
70	3	22176	ds	0.691746614207082	0.028032999419125
71	3	22400	ds	0.669782142904673	0.0135152148512812
72	3	22624	ds	0.663543046357616	0.0332948954585189
73	3	22848	ds	0.688552188552189	0.00238083091308601
74	3	23072	ds	0.695346839561002	0.0156178513412825
75	3	23296	ds	0.683254136406501	0.0573068855339299
76	3	23520	ds	0.738970588235294	0.00519931456754812
77	3	23744	ds	0.773161801018752	0.03471628797588
78	3	23968	ds	0.705704919014401	0.0236577296480933
79	3	24192	ds	0.678800736437407	0.043756919155122
80	3	24416	ds	0.712301370417603	0.00974470752883138
81	3	24640	ds	0.700577110126446	0.00528209453319071
82	3	24864	ds	0.730851063829787	0.01053137759214
83	3	25088	ds	0.746052631578947	0.0179878040828157
84	3	25312	ds	0.691130877129613	0.0231253843163923
85	3	25536	ds	0.71477545236538	0.0883844937853296
86	3	25760	ds	0.717095111461309	0.0548339150058316
87	3	25984	ds	0.583119300706847	0.0929391576265208
88	3	26208	ds	0.728564161734966	0.0523568351524338
89	3	26432	ds	0.725476031590746	0.054860113798657
90	3	26656	ds	0.699944519130231	0.00490386240500243
91	3	26880	ds	0.75861816894689	0.0171120733377836
