method	tick	features	mean	sd
1	5	6720	ds	0.563218390804598	0.0284468245304933
2	5	6944	ds	0.537790697674419	0.0041110859371311
3	5	7168	ds	0.557352941176471	0.0103986291350962
4	5	7392	ds	0.558035714285714	0.0105224223390855
5	5	7616	ds	0.555722891566265	0.00638951910710736
6	5	7840	ds	0.564417177914111	0.0130142352365622
7	5	8064	ds	0.561919504643963	0.0153242955675103
8	5	8288	ds	0.521875	0.00883883476483181
9	5	8512	ds	0.566666666666667	0.00224478343233824
10	5	8736	ds	0.550161812297735	0.0137302287609038
11	5	8960	ds	0.531147540983607	0.0139102973348174
12	5	9184	ds	0.586092715231788	0.0234141318273691
13	5	9408	ds	0.580536912751678	0.0379654647616938
14	5	9632	ds	0.560810810810811	0.0286664911291843
15	5	9856	ds	0.587030716723549	0.0434400070353511
16	5	10080	ds	0.57439446366782	0.00489347253416296
17	5	10304	ds	0.56993006993007	0.0346136186594814
18	5	10528	ds	0.60387323943662	0.0124490630490589
19	5	10752	ds	0.535714285714286	0.0454568645048495
20	5	10976	ds	0.55956678700361	0.0408437129927248
21	5	11200	ds	0.573529411764706	0.0155979437026445
22	5	11424	ds	0.609665427509294	0.0630875938605098
23	5	11648	ds	0.582706766917293	0.00531659233974844
24	5	11872	ds	0.557251908396946	0.0161932850653408
25	5	12096	ds	0.608108108108108	0.0081904260369098
26	5	12320	ds	0.562745098039216	0.0360485810016672
27	5	12544	ds	0.617529880478088	0
28	5	12768	ds	0.601626016260163	0.0172465068582084
29	5	12992	ds	0.52880658436214	0.0436485667399103
30	5	13216	ds	0.514705882352941	0.0207972582701926
31	5	13440	ds	0.585836909871245	0.027313137470725
32	5	13664	ds	0.590909090909091	0.0275496148514239
33	5	13888	ds	0.553097345132743	0.00625758213439424
34	5	14112	ds	0.576233183856502	0.0792720606711377
35	5	14336	ds	0.611872146118722	0.0452031732265373
36	5	14560	ds	0.525700934579439	0.0561720340194921
37	5	14784	ds	0.580952380952381	0.0404061017820884
38	5	15008	ds	0.550970873786408	0.00343255719022596
39	5	15232	ds	0.574257425742574	0.0420063434368246
40	5	15456	ds	0.608040201005025	0
41	5	15680	ds	0.574358974358974	0.0435142634576337
42	5	15904	ds	0.554973821989529	0.0296170379554575
43	5	16128	ds	0.598404255319149	0.0188060314145358
44	5	16352	ds	0.598360655737705	0.0579595722284056
45	5	16576	ds	0.575	0.0274985970461435
46	5	16800	ds	0.596590909090909	0.0321412173266612
47	5	17024	ds	0.587719298245614	0.0702971653811188
48	5	17248	ds	0.595238095238095	0.0420896893563421
49	5	17472	ds	0.539393939393939	0.0171419825742194
50	5	17696	ds	0.583850931677019	0.0527036110201153
51	5	17920	ds	0.595541401273885	0.0225193242416098
52	5	18144	ds	0.580645161290323	0.045619792334616
53	5	18368	ds	0.594771241830065	0.0462161294893168
54	5	18592	ds	0.553333333333333	0
55	5	18816	ds	0.51027397260274	0.033902379919903
56	5	19040	ds	0.618881118881119	0.0642824346533225
57	5	19264	ds	0.597122302158273	0.0915677846140853
58	5	19488	ds	0.62962962962963	0.0104756560175785
59	5	19712	ds	0.553030303030303	0
60	5	19936	ds	0.60546875	0.0276213586400995
61	5	20160	ds	0.548	0.0509116882454314
62	5	20384	ds	0.55	0.0707106781186547
63	5	20608	ds	0.567796610169492	0.0359545820942312
64	5	20832	ds	0.547826086956522	0.0122975092380269
65	5	21056	ds	0.518018018018018	0.00637033136204098
66	5	21280	ds	0.518518518518519	0.0916619901538117
67	5	21504	ds	0.570754716981132	0.00667081869043913
68	5	21728	ds	0.538461538461538	0
69	5	21952	ds	0.534313725490196	0.0069324194233975
70	5	22176	ds	0.661616161616162	0.0642824346533225
71	5	22400	ds	0.546875	0.0368284781867993
72	5	22624	ds	0.589473684210526	0.0744322927564787
73	5	22848	ds	0.53804347826087	0.038429716368834
74	5	23072	ds	0.617977528089888	0.031780080053328
75	5	23296	ds	0.607954545454545	0.0241059129949959
76	5	23520	ds	0.552941176470588	0.0332756132323081
77	5	23744	ds	0.620481927710843	0.0425967940473824
78	5	23968	ds	0.537037037037037	0.0436485667399103
79	5	24192	ds	0.563291139240506	0.0268521562475904
80	5	24416	ds	0.675324675324675	0.0367328198018986
81	5	24640	ds	0.526666666666667	0.103708994574027
82	5	24864	ds	0.655405405405405	0.0477774852153073
83	5	25088	ds	0.604166666666667	0.108030202681278
84	5	25312	ds	0.549295774647887	0.159348007027954
85	5	25536	ds	0.623188405797101	0.0204958487300448
86	5	25760	ds	0.626865671641791	0.0422153302200924
87	5	25984	ds	0.6328125	0.0110485434560398
88	5	26208	ds	0.674603174603175	0.0785674201318386
89	5	26432	ds	0.647540983606557	0.0347757433370433
90	5	26656	ds	0.6	0.0942809041582063
91	5	26880	ds	0.568965517241379	0.0243829924547085
