method	tick	features	mean	sd
1	2	6720	ds	0.567528735632184	0.0101595801894619
2	2	6944	ds	0.582848837209302	0.00616662890569665
3	2	7168	ds	0.613235294117647	0.0187175324431733
4	2	7392	ds	0.586309523809524	0.0168358757425369
5	2	7616	ds	0.58433734939759	0.0298177558331676
6	2	7840	ds	0.582568807339449	0.0108120302933724
7	2	8064	ds	0.552631578947368	0.00218918508107285
8	2	8288	ds	0.615625	0.053033008588991
9	2	8512	ds	0.628571428571429	0.00897913372935295
10	2	8736	ds	0.59546925566343	0.00915348584060253
11	2	8960	ds	0.622950819672131	0
12	2	9184	ds	0.622516556291391	0.00468282636547377
13	2	9408	ds	0.620805369127517	0.00949136619042352
14	2	9632	ds	0.603040540540541	0.026277616868419
15	2	9856	ds	0.609215017064846	0.0168933360693032
16	2	10080	ds	0.600346020761246	0.0269140989378963
17	2	10304	ds	0.585664335664336	0.051920427989222
18	2	10528	ds	0.63556338028169	0.0124490630490589
19	2	10752	ds	0.623214285714286	0.0126269068069026
20	2	10976	ds	0.651624548736462	0.00255273206204526
21	2	11200	ds	0.575367647058824	0.0597921175268037
22	2	11424	ds	0.641263940520446	0.0131432487209395
23	2	11648	ds	0.612781954887218	0.0159497770192455
24	2	11872	ds	0.620229007633588	0.0458809743517989
25	2	12096	ds	0.588803088803089	0.00819042603690988
26	2	12320	ds	0.635294117647059	0.005545935538718
27	2	12544	ds	0.609561752988048	0.0169029509446983
28	2	12768	ds	0.634146341463415	0.0229953424776113
29	2	12992	ds	0.602880658436214	0.0494683756385651
30	2	13216	ds	0.59453781512605	0.00297103689574179
31	2	13440	ds	0.684549356223176	0.00910437915690829
32	2	13664	ds	0.62987012987013	0.0275496148514239
33	2	13888	ds	0.61283185840708	0.00938637320159127
34	2	14112	ds	0.634529147982063	0.0348797066953006
35	2	14336	ds	0.655251141552511	0.0290591827884882
36	2	14560	ds	0.658878504672897	0.00660847459052848
37	2	14784	ds	0.628571428571429	0.0269374011880589
38	2	15008	ds	0.621359223300971	0.00686511438045199
39	2	15232	ds	0.655940594059406	0.0175026430986769
40	2	15456	ds	0.590452261306533	0.0888325101993151
41	2	15680	ds	0.630769230769231	0.0435142634576337
42	2	15904	ds	0.678010471204189	0.0111063892332965
43	2	16128	ds	0.632978723404255	0.00752241256581438
44	2	16352	ds	0.672131147540984	0.0463676577827244
45	2	16576	ds	0.622222222222222	0.00785674201318383
46	2	16800	ds	0.650568181818182	0.0200882608291633
47	2	17024	ds	0.599415204678363	0.00413512737535997
48	2	17248	ds	0.657738095238095	0.0547165961632447
49	2	17472	ds	0.666666666666667	0.00857099128710964
50	2	17696	ds	0.701863354037267	0.035135740680077
51	2	17920	ds	0.614649681528662	0.0495425133315415
52	2	18144	ds	0.674193548387097	0.00456197923346153
53	2	18368	ds	0.656862745098039	0.0508377424382485
54	2	18592	ds	0.66	0.0377123616632825
55	2	18816	ds	0.589041095890411	0.0484319713141471
56	2	19040	ds	0.608391608391608	0.0197792106625608
57	2	19264	ds	0.658273381294964	0.0152612974356809
58	2	19488	ds	0.644444444444444	0.0104756560175785
59	2	19712	ds	0.613636363636364	0.0214274782177741
60	2	19936	ds	0.609375	0.0220970869120796
61	2	20160	ds	0.616	0.0452548339959391
62	2	20384	ds	0.670833333333333	0.00589255650988795
63	2	20608	ds	0.601694915254237	0.0239697213961542
64	2	20832	ds	0.582608695652174	0.0614875461901346
65	2	21056	ds	0.635135135135135	0.00637033136204098
66	2	21280	ds	0.689814814814815	0.0458309950769058
67	2	21504	ds	0.613207547169811	0.0933914616661478
68	2	21728	ds	0.663461538461539	0.027196414661021
69	2	21952	ds	0.632352941176471	0.0207972582701926
70	2	22176	ds	0.636363636363636	0.0285699709570322
71	2	22400	ds	0.661458333333333	0.00736569563735984
72	2	22624	ds	0.610526315789474	0
73	2	22848	ds	0.695652173913043	0.0614875461901345
74	2	23072	ds	0.629213483146067	0.063560160106656
75	2	23296	ds	0.664772727272727	0.0883883476483184
76	2	23520	ds	0.594117647058824	0.0915079363888473
77	2	23744	ds	0.716867469879518	0.0596355116663354
78	2	23968	ds	0.666666666666667	0.0523782800878924
79	2	24192	ds	0.639240506329114	0.0268521562475904
80	2	24416	ds	0.675324675324675	0.0367328198018986
81	2	24640	ds	0.633333333333333	0.0659966329107445
82	2	24864	ds	0.648648648648649	0
83	2	25088	ds	0.611111111111111	0.0196418550329597
84	2	25312	ds	0.598591549295775	0.0298777513177414
85	2	25536	ds	0.615942028985507	0.0307437730950673
86	2	25760	ds	0.656716417910448	0.0844306604401848
87	2	25984	ds	0.578125	0.0441941738241592
88	2	26208	ds	0.626984126984127	0.0112239171616912
89	2	26432	ds	0.639344262295082	0.0695514866740866
90	2	26656	ds	0.716666666666667	0.0707106781186548
91	2	26880	ds	0.681034482758621	0.0365744886820628
