method	tick	features	mean	sd
1	1	6720	ds	0.593157901674495	0.00224692375425261
2	1	6944	ds	0.566794222583454	0.0100849598538161
3	1	7168	ds	0.583774725439148	0.00981828250502908
4	1	7392	ds	0.606572676131179	0.00656897290676624
5	1	7616	ds	0.590178436377387	0.000597277282085688
6	1	7840	ds	0.595792725184548	0.00137683002788576
7	1	8064	ds	0.588777530344799	0.000479128719943691
8	1	8288	ds	0.61059468491742	0.0215310911223507
9	1	8512	ds	0.605057994672408	0.0263091842262895
10	1	8736	ds	0.607733964979483	0.0116664542279825
11	1	8960	ds	0.602741270418881	0.0152382883944039
12	1	9184	ds	0.586550894210092	0.00430116150621035
13	1	9408	ds	0.624530327428878	0.0201162959757847
14	1	9632	ds	0.600054824561403	0.0182204049976796
15	1	9856	ds	0.612664699615828	0.0407634045817207
16	1	10080	ds	0.633126027029589	0.00276585561382046
17	1	10304	ds	0.606701132517295	0.013781653930489
18	1	10528	ds	0.583846686411142	0.00701408905382204
19	1	10752	ds	0.611185542069243	0.0278962760083713
20	1	10976	ds	0.638504356543479	0.0290572946141567
21	1	11200	ds	0.602064373215191	0.00661455941727525
22	1	11424	ds	0.62499615229055	0.0393953237381744
23	1	11648	ds	0.592821803440782	0.0385555502781736
24	1	11872	ds	0.634518561345186	0.0267948005783151
25	1	12096	ds	0.612189897889616	0.00478912971565722
26	1	12320	ds	0.625023571263189	0.00284288176919791
27	1	12544	ds	0.608028715156198	0.060937749223839
28	1	12768	ds	0.614098062982404	0.0446701378552358
29	1	12992	ds	0.608150152444968	0.00528957608148824
30	1	13216	ds	0.627754675374541	0.0371878620493089
31	1	13440	ds	0.628329487120422	0.0306944140527543
32	1	13664	ds	0.651789350850317	0.0278155368002927
33	1	13888	ds	0.617002557177999	0.00528221592395973
34	1	14112	ds	0.656105225045493	0.0203506869815001
35	1	14336	ds	0.618484422681905	0.0127213764969418
36	1	14560	ds	0.647972386672316	0.0162280470230619
37	1	14784	ds	0.634203670979878	0.00781271774482061
38	1	15008	ds	0.611650960065968	0.00886194963487299
39	1	15232	ds	0.641244171554545	0.024755580351011
40	1	15456	ds	0.645426630693622	0.013743417682733
41	1	15680	ds	0.632623316533091	0.035830326924406
42	1	15904	ds	0.626760067538469	0.0208366102364589
43	1	16128	ds	0.617081512418308	0.0262817683076751
44	1	16352	ds	0.626323477612249	0.0219839986153039
45	1	16576	ds	0.626875377503665	0.036046741990605
46	1	16800	ds	0.654654022502756	0.00771214782303727
47	1	17024	ds	0.608578614341563	0.00198400214424173
48	1	17248	ds	0.630586803951017	0.000385473674182546
49	1	17472	ds	0.648674763257044	0.0406065275244478
50	1	17696	ds	0.654443828529194	0.0301421903953689
51	1	17920	ds	0.631826570457732	0.0202185728662562
52	1	18144	ds	0.682530591775326	0.00640722433424195
53	1	18368	ds	0.649998940453486	0.0105174454273117
54	1	18592	ds	0.629278624286612	0.0483564224115688
55	1	18816	ds	0.63809778433648	0.024041389502526
56	1	19040	ds	0.593528519472924	0.0372156022527006
57	1	19264	ds	0.697491825847531	0.0198649426998286
58	1	19488	ds	0.624711459386268	0.000200816905862578
59	1	19712	ds	0.625787220690737	0.0269727188323249
60	1	19936	ds	0.5899015180773	0.0401511703817744
61	1	20160	ds	0.610083209529022	0.000550598563555823
62	1	20384	ds	0.631979384391234	0.0496682348157437
63	1	20608	ds	0.586687542896362	0.00787790722416658
64	1	20832	ds	0.703533583691768	0.0165952897144264
65	1	21056	ds	0.647408151462576	0.00918186323483943
66	1	21280	ds	0.616525708982971	0.00129332100401579
67	1	21504	ds	0.673634335456215	0.0377063283201572
68	1	21728	ds	0.664876543209876	0.033085613588852
69	1	21952	ds	0.590835879828726	0.00176685632971813
70	1	22176	ds	0.633524525316456	0.0277192571264188
71	1	22400	ds	0.606781200631912	0.00690909232486384
72	1	22624	ds	0.588225399495374	0.00285459423860004
73	1	22848	ds	0.603850148861621	0.0724961266794898
74	1	23072	ds	0.641864446859014	0.00332299951348281
75	1	23296	ds	0.685163492921647	0.084450419422662
76	1	23520	ds	0.664405825772563	0.0487893549240148
77	1	23744	ds	0.649954381226963	0.0546361985740725
78	1	23968	ds	0.672217335155066	0.00428533522521866
79	1	24192	ds	0.564427742928157	0.041201167993625
80	1	24416	ds	0.685767891682785	0.0477550103905406
81	1	24640	ds	0.537030048794187	0.0581643544429171
82	1	24864	ds	0.593167801545269	0.00662086822653068
83	1	25088	ds	0.620652109062705	0.043221221724576
84	1	25312	ds	0.619846661490683	0.0211226191041556
85	1	25536	ds	0.664703326774996	0.0426727328824364
86	1	25760	ds	0.606314085267134	0.036824503175662
87	1	25984	ds	0.65913704998212	0.0789847679184682
88	1	26208	ds	0.604107684056923	0.0968469688771383
89	1	26432	ds	0.691056388817583	0.0182768869267783
90	1	26656	ds	0.622977022977023	0.0545341093982033
91	1	26880	ds	0.646299312277308	0.0487047712151549
