method	tick	features	mean	sd
1	3	6720	ds	0.62797647953898	0.0460112743407573
2	3	6944	ds	0.589889397692866	0.00450313229267013
3	3	7168	ds	0.615519765739385	0.0219482631934917
4	3	7392	ds	0.583586629465507	0.00645096158600961
5	3	7616	ds	0.614279188827382	0.00613688046373325
6	3	7840	ds	0.586092730458134	0.0265454835475722
7	3	8064	ds	0.63	0.00761499610508596
8	3	8288	ds	0.596900659577332	0.0013087519506414
9	3	8512	ds	0.632861635220126	0.0144534404959515
10	3	8736	ds	0.661914606741573	0.0490938676663811
11	3	8960	ds	0.657766297220695	0.0371553369677795
12	3	9184	ds	0.634710743801653	0.0187003446264211
13	3	9408	ds	0.660874792703151	0.015262014522625
14	3	9632	ds	0.652356902356902	0.00119041545654304
15	3	9856	ds	0.65534231175148	0.0192002219872042
16	3	10080	ds	0.658426060312853	0.0294428271089125
17	3	10304	ds	0.643880959246444	0.0273133927037047
18	3	10528	ds	0.656455399061033	0.0326995389421948
19	3	10752	ds	0.687080441460917	0.0162650382216271
20	3	10976	ds	0.693843332628029	0.0325305118267611
21	3	11200	ds	0.677858439201452	0.0346495155935332
22	3	11424	ds	0.630748724766659	0.00486836188751043
23	3	11648	ds	0.678552462407066	0.0361577465532112
24	3	11872	ds	0.667288396296935	0.0151913501880757
25	3	12096	ds	0.66735084079453	0.031731011146186
26	3	12320	ds	0.678294573643411	0.0219257916646992
27	3	12544	ds	0.67205661792276	0.0428850850607139
28	3	12768	ds	0.659337325349301	0.00471969077103352
29	3	12992	ds	0.63109756097561	0.0215581335727606
30	3	13216	ds	0.666978732196123	0.0229824998159443
31	3	13440	ds	0.654271062930143	0.0105536426610452
32	3	13664	ds	0.643240488812843	0.00360320136645698
33	3	13888	ds	0.664569935115197	0.0164635935321703
34	3	14112	ds	0.668475909537856	0.0245575334429782
35	3	14336	ds	0.700376211090497	0.04446566143083
36	3	14560	ds	0.630926271396938	0.0332848896265667
37	3	14784	ds	0.665553091367587	0.0173258196655618
38	3	15008	ds	0.711031175059952	0.049175291737194
39	3	15232	ds	0.676721301578677	0.0526301397883965
40	3	15456	ds	0.685386533665835	0.00761770896440371
41	3	15680	ds	0.631856540084388	0.00208850104147921
42	3	15904	ds	0.711571675302245	0.0635052722309162
43	3	16128	ds	0.716841732979664	0.0459500618833656
44	3	16352	ds	0.659464081271829	0.00514423436887737
45	3	16576	ds	0.633197479150157	0.0227937134416223
46	3	16800	ds	0.663405249740346	0.0112331900608665
47	3	17024	ds	0.687249897076986	0.00621229259387444
48	3	17248	ds	0.673209737139256	0.0634856774999818
49	3	17472	ds	0.700735373928145	0.0155228857587082
50	3	17696	ds	0.694224150830465	0.0159768253717146
51	3	17920	ds	0.666666666666667	0
52	3	18144	ds	0.709378542718747	0.026949200008532
53	3	18368	ds	0.645058420543857	0.00147852571613626
54	3	18592	ds	0.646839055420007	0.0109830763111277
55	3	18816	ds	0.665540540540541	0.0334442396507151
56	3	19040	ds	0.684360730593607	0.025023185178976
57	3	19264	ds	0.711866946359005	0.0589079068534193
58	3	19488	ds	0.694139194139194	0.0181309431073474
59	3	19712	ds	0.71809766094269	0.0197676095426046
60	3	19936	ds	0.680032076984763	0.0298644403708834
61	3	20160	ds	0.663419359838797	0.0120454212589943
62	3	20384	ds	0.735801041064199	0.0099788348530664
63	3	20608	ds	0.70600074148615	0.0398475512516544
64	3	20832	ds	0.706196581196581	0.0619473889501035
65	3	21056	ds	0.691546343735445	0.0268417338922699
66	3	21280	ds	0.664469354175236	0.0438196777399232
67	3	21504	ds	0.703547858440005	0.00369573460512967
68	3	21728	ds	0.656398104265403	0.0435658206418252
69	3	21952	ds	0.608146101165445	0.087404956924753
70	3	22176	ds	0.612888527658736	0.00837688689598367
71	3	22400	ds	0.652509551473282	0.0371187576035017
72	3	22624	ds	0.710823014487936	0.0797231114277196
73	3	22848	ds	0.684491978609626	0.0151252787419582
74	3	23072	ds	0.70471756672874	0.00904183717718369
75	3	23296	ds	0.747118084227911	0.00205533928140101
76	3	23520	ds	0.733366174055829	0.0780720196502192
77	3	23744	ds	0.67986230636833	0.0523332041153555
78	3	23968	ds	0.705884513664414	0.0410903220627798
79	3	24192	ds	0.707298136645963	0.0603895542938821
80	3	24416	ds	0.663262790219848	0.043847303587857
81	3	24640	ds	0.715686274509804	0.0323512906425218
82	3	24864	ds	0.703333333333333	0.0518544972870135
83	3	25088	ds	0.672351132233715	0.00158145212454354
84	3	25312	ds	0.670146754653797	0.0115610879224827
85	3	25536	ds	0.637989515880358	0.000436081887873357
86	3	25760	ds	0.636307110029738	0.0534105527611574
87	3	25984	ds	0.61236409900532	0.0731969198660607
88	3	26208	ds	0.689865379730759	0.073638247469262
89	3	26432	ds	0.688368738526095	0.038294663077635
90	3	26656	ds	0.632231404958678	0.00584385769575657
91	3	26880	ds	0.700363196125908	0.0196894140039838
