method	tick	features	mean	sd
1	1	6720	ds	0.570419829386831	0.00490486377381932
2	1	6944	ds	0.594239254643879	0.0302184653588676
3	1	7168	ds	0.580527086383602	0.0176000223721396
4	1	7392	ds	0.576411865059711	0.00225857011612278
5	1	7616	ds	0.574324324324324	0.00743205325571449
6	1	7840	ds	0.600175002302662	0.0216749688476451
7	1	8064	ds	0.593250237416904	0.0274415181511759
8	1	8288	ds	0.598444547802115	0.00175917662116968
9	1	8512	ds	0.580851619644723	0.00350967315635961
10	1	8736	ds	0.600371526918955	0.0444929554428896
11	1	8960	ds	0.594797542437965	0.00873935369242771
12	1	9184	ds	0.569421487603306	0.0151940300089671
13	1	9408	ds	0.621257372001913	0.0168411015997232
14	1	9632	ds	0.660783373752185	0.00990212699614344
15	1	9856	ds	0.596741980685036	0.0306271372714223
16	1	10080	ds	0.623794320825207	0.045293862023595
17	1	10304	ds	0.605902777777778	0.0417389419450393
18	1	10528	ds	0.60120594832089	0.0339594619987308
19	1	10752	ds	0.612473687870187	0.00664657220822394
20	1	10976	ds	0.60880036230126	0.00989745917542239
21	1	11200	ds	0.622337662337662	0.0290189276434999
22	1	11424	ds	0.595939640896316	0.00889659460556021
23	1	11648	ds	0.581308411214953	0.0185037288534797
24	1	11872	ds	0.633117915799214	0.0141589013986724
25	1	12096	ds	0.640649569242354	0.0395029534149019
26	1	12320	ds	0.619786257243923	0.000521535821150626
27	1	12544	ds	0.598031869044938	0.00110642441126199
28	1	12768	ds	0.579379032258065	0.0217492359955282
29	1	12992	ds	0.625766871165644	0.00867615682437485
30	1	13216	ds	0.620402748782185	0.0477493905910853
31	1	13440	ds	0.624579419914355	0.0305569418063765
32	1	13664	ds	0.613114563738127	0.0209903594536019
33	1	13888	ds	0.630293213840607	0.0298723032019376
34	1	14112	ds	0.629432721293505	0.00666606557216147
35	1	14336	ds	0.616111738148984	0.01256990045563
36	1	14560	ds	0.582893818142757	0.0176140568835234
37	1	14784	ds	0.623884698395746	0.0191711637602253
38	1	15008	ds	0.666618394985924	0.0113458865802028
39	1	15232	ds	0.597799511002445	0.00172886743566398
40	1	15456	ds	0.593479219143577	0.00138482499338167
41	1	15680	ds	0.616931978007927	0.00962428293789894
42	1	15904	ds	0.650649350649351	0.0128564869306645
43	1	16128	ds	0.65919452887538	0.0231045528807154
44	1	16352	ds	0.62533692722372	0.0419308603399031
45	1	16576	ds	0.641885755714122	0.0647504427630586
46	1	16800	ds	0.632496655913132	0.0140876101185329
47	1	17024	ds	0.661822660098522	0.0337878609729532
48	1	17248	ds	0.611192087454451	0.000809804746804027
49	1	17472	ds	0.654845385589031	0.0395047415009197
50	1	17696	ds	0.643619631901841	0.00511893252638116
51	1	17920	ds	0.567452830188679	0.0246820291546247
52	1	18144	ds	0.631236386266985	0.00311710799714016
53	1	18368	ds	0.577192351622319	0.0377648086318379
54	1	18592	ds	0.656685074278603	0.00780968833541957
55	1	18816	ds	0.607021794521794	0.0510189543300831
56	1	19040	ds	0.647058823529412	0.0587216704099555
57	1	19264	ds	0.60031296534666	0.0336590037938928
58	1	19488	ds	0.607509157509158	0.0577600044705495
59	1	19712	ds	0.658385182624726	0.0438530043753496
60	1	19936	ds	0.607692307692308	0.0380749805254294
61	1	20160	ds	0.603537082568236	0.00947401168033393
62	1	20384	ds	0.643724696356275	0.0171766829438028
63	1	20608	ds	0.64286849213495	0.0038199720184857
64	1	20832	ds	0.644192686745878	0.0685158270063782
65	1	21056	ds	0.600038379186361	0.0241529828098908
66	1	21280	ds	0.611363636363636	0.0417835825246596
67	1	21504	ds	0.587962962962963	0.0523782800878924
68	1	21728	ds	0.612959285004965	0.0263321790412071
69	1	21952	ds	0.665865384615385	0.0441941738241592
70	1	22176	ds	0.624786616592694	0.0545599633144964
71	1	22400	ds	0.619474407783418	0.00691702382188614
72	1	22624	ds	0.652083333333333	0.0677643998637108
73	1	22848	ds	0.643617021276596	0.0526568879607003
74	1	23072	ds	0.678463994106452	0.0351187541273201
75	1	23296	ds	0.578246753246753	0.0500484669800868
76	1	23520	ds	0.597123269256621	0.0106460491319926
77	1	23744	ds	0.676458157227388	0.0475190102318939
78	1	23968	ds	0.684848484848485	0.0171419825742194
79	1	24192	ds	0.659420289855073	0.0102479243650224
80	1	24416	ds	0.619620253164557	0.0277472281225101
81	1	24640	ds	0.664304635761589	0.0626562167700397
82	1	24864	ds	0.607382550335571	0.0237284154760586
83	1	25088	ds	0.639314058956916	0.0190405737564405
84	1	25312	ds	0.575667290456023	0.0921753003940112
85	1	25536	ds	0.669254658385093	0.0373317244725817
86	1	25760	ds	0.649243393009378	0.0758798517321881
87	1	25984	ds	0.63587786259542	0.0507389598714011
88	1	26208	ds	0.612423447069116	0.0804233434420395
89	1	26432	ds	0.642054468535167	0.0386085537585991
90	1	26656	ds	0.662511854762227	0.0136037343081546
91	1	26880	ds	0.705015744489429	0.0666391680875311
