method	tick	features	mean	sd
1	1	6720	ds	0.551873198847262	0.00611331511112292
2	1	6944	ds	0.545189504373178	0.0206153580520859
3	1	7168	ds	0.573746312684366	0.0104293035573237
4	1	7392	ds	0.52089552238806	0.0189968985990415
5	1	7616	ds	0.552870090634441	0.00427254852680698
6	1	7840	ds	0.561538461538462	0.0108785658644084
7	1	8064	ds	0.59472049689441	0.00658795137751439
8	1	8288	ds	0.584639498432602	0.0509826205871179
9	1	8512	ds	0.53968253968254	0.0134687005940295
10	1	8736	ds	0.551948051948052	0.0229580123761867
11	1	8960	ds	0.537704918032787	0.0231838288913622
12	1	9184	ds	0.569767441860465	0.0540314151737229
13	1	9408	ds	0.521812080536913	0.035592623214088
14	1	9632	ds	0.574576271186441	0.0263666935357695
15	1	9856	ds	0.518835616438356	0.0653831612740986
16	1	10080	ds	0.56401384083045	0.00489347253416296
17	1	10304	ds	0.543859649122807	0.0347350699530234
18	1	10528	ds	0.553003533568905	0.0174902737395966
19	1	10752	ds	0.576785714285714	0.0176776695296637
20	1	10976	ds	0.570652173913043	0.0333057541863229
21	1	11200	ds	0.551660516605166	0.0339202514960337
22	1	11424	ds	0.563197026022305	0.00262864974418792
23	1	11648	ds	0.573584905660377	0.0266832747617565
24	1	11872	ds	0.515325670498084	0.0460567635255605
25	1	12096	ds	0.581712062256809	0.00825416476093251
26	1	12320	ds	0.572834645669291	0.0194871947571095
27	1	12544	ds	0.592	0
28	1	12768	ds	0.552845528455285	0.0229953424776113
29	1	12992	ds	0.551440329218107	0.0232792355946188
30	1	13216	ds	0.567226890756303	0.0118841475829671
31	1	13440	ds	0.605150214592275	0.00606958610460552
32	1	13664	ds	0.571739130434783	0.0153718865475336
33	1	13888	ds	0.566371681415929	0.0312879106719712
34	1	14112	ds	0.565315315315315	0.0350368224912253
35	1	14336	ds	0.575688073394495	0.042166918144152
36	1	14560	ds	0.572769953051643	0.0331975014641571
37	1	14784	ds	0.578571428571429	0.0168358757425369
38	1	15008	ds	0.550970873786408	0.0102976715706779
39	1	15232	ds	0.554455445544555	0.00700105723947077
40	1	15456	ds	0.585427135678392	0.0390863044876986
41	1	15680	ds	0.61025641025641	0.0217571317288168
42	1	15904	ds	0.573298429319372	0.0259149082110253
43	1	16128	ds	0.620320855614973	0.0605011149678329
44	1	16352	ds	0.551912568306011	0.0154558859275747
45	1	16576	ds	0.566666666666667	0.0314269680527355
46	1	16800	ds	0.539772727272727	0.0160706086633306
47	1	17024	ds	0.585294117647059	0.0041594516540385
48	1	17248	ds	0.568862275449102	0
49	1	17472	ds	0.588414634146341	0.00431162671455212
50	1	17696	ds	0.605590062111801	0.0395277082650865
51	1	17920	ds	0.576433121019108	0.0405347836348976
52	1	18144	ds	0.577922077922078	0
53	1	18368	ds	0.532894736842105	0.0651282561619189
54	1	18592	ds	0.567114093959732	0.0427111478569056
55	1	18816	ds	0.572413793103448	0.0292595909456502
56	1	19040	ds	0.545454545454545	0.0494480266564019
57	1	19264	ds	0.546762589928058	0.0508709914522696
58	1	19488	ds	0.51865671641791	0.0369384139425809
59	1	19712	ds	0.622137404580153	0.0485798551960223
60	1	19936	ds	0.559055118110236	0.0445421594448219
61	1	20160	ds	0.532258064516129	0.045619792334616
62	1	20384	ds	0.575	0
63	1	20608	ds	0.610169491525424	0.0479394427923083
64	1	20832	ds	0.526086956521739	0.0061487546190135
65	1	21056	ds	0.468468468468468	0.0637033136204097
66	1	21280	ds	0.50462962962963	0.0720201351208521
67	1	21504	ds	0.533018867924528	0.00667081869043913
68	1	21728	ds	0.480582524271845	0.0617860294240673
69	1	21952	ds	0.51980198019802	0.0490074006762954
70	1	22176	ds	0.606060606060606	0.0142849854785161
71	1	22400	ds	0.5625	0.0441941738241592
72	1	22624	ds	0.573684210526316	0.0223296878269436
73	1	22848	ds	0.635869565217391	0.130661035654036
74	1	23072	ds	0.567415730337079	0.023835060039996
75	1	23296	ds	0.597701149425287	0.146297954728251
76	1	23520	ds	0.617647058823529	0.0582323231565392
77	1	23744	ds	0.542168674698795	0.0681548704758118
78	1	23968	ds	0.530864197530864	0.0349188533919283
79	1	24192	ds	0.588607594936709	0.00895071874919677
80	1	24416	ds	0.564935064935065	0.0826488445542718
81	1	24640	ds	0.546666666666667	0
82	1	24864	ds	0.533783783783784	0.105110467473676
83	1	25088	ds	0.576388888888889	0.0491046375823992
84	1	25312	ds	0.605633802816901	0.0398370017569886
85	1	25536	ds	0.573529411764706	0
86	1	25760	ds	0.574626865671642	0.0949844929952078
87	1	25984	ds	0.5078125	0.121533978016438
88	1	26208	ds	0.611111111111111	0.0336717514850736
89	1	26432	ds	0.581967213114754	0.0347757433370434
90	1	26656	ds	0.652542372881356	0.0838940248865395
91	1	26880	ds	0.535087719298246	0.0372161463782393
