method	tick	features	mean	sd
1	5	6720	ds	0.535213894723096	0.00413747999377938
2	5	6944	ds	0.54944210923208	0.00708992820583923
3	5	7168	ds	0.555045405449296	0.0184394842771056
4	5	7392	ds	0.547956455786645	0.00403703230063132
5	5	7616	ds	0.543158002339226	0.0026811599992216
6	5	7840	ds	0.559111811460625	0.007960925486392
7	5	8064	ds	0.564234354174444	0.000466988012144985
8	5	8288	ds	0.554771849308284	0.00902940362610683
9	5	8512	ds	0.550457499913879	0.0193804594199401
10	5	8736	ds	0.553321184479784	0.0160571790536193
11	5	8960	ds	0.568759549274255	6.07712092310606e-05
12	5	9184	ds	0.571209318732207	0.0211836719674675
13	5	9408	ds	0.54484993835722	0.0081250808094039
14	5	9632	ds	0.566867226619286	0.00143340172894382
15	5	9856	ds	0.560804218281606	0.0124478987073653
16	5	10080	ds	0.569098163833371	0.00759421549316913
17	5	10304	ds	0.548933357592528	0.00794397128214126
18	5	10528	ds	0.562738044100802	0.00408277218661909
19	5	10752	ds	0.5642208266365	0.00520994938933685
20	5	10976	ds	0.564517963744904	0.0302917986716991
21	5	11200	ds	0.571304550673949	0.0144948733366421
22	5	11424	ds	0.576802637788747	0.0067013653034044
23	5	11648	ds	0.601318504695177	0.00419008974231697
24	5	11872	ds	0.570668409540361	0.00655695664612297
25	5	12096	ds	0.597891060475313	0.0269974381636177
26	5	12320	ds	0.577736752579669	0.0173970352482458
27	5	12544	ds	0.594182020562272	0.0167713149677717
28	5	12768	ds	0.580175923627396	0.005451771069554
29	5	12992	ds	0.580683957603054	0.0166683733226268
30	5	13216	ds	0.574365821094793	0.0362522034680419
31	5	13440	ds	0.578842462115616	0.014682325114998
32	5	13664	ds	0.584695730717582	0.00111619038910996
33	5	13888	ds	0.585609276360926	0.0087761430428904
34	5	14112	ds	0.59368871858447	0.013887652624228
35	5	14336	ds	0.564945534986983	0.0222192740016189
36	5	14560	ds	0.577808395356887	0.0113472092399817
37	5	14784	ds	0.586487313031713	0.0149440903610172
38	5	15008	ds	0.581332149843122	0.00273838789086554
39	5	15232	ds	0.566817414557328	0.00136567710457381
40	5	15456	ds	0.590404031541017	0.0125308858252881
41	5	15680	ds	0.598659331055851	0.00327795985399505
42	5	15904	ds	0.58289603960396	0.00645264108904554
43	5	16128	ds	0.602435145042473	0.00657047778331055
44	5	16352	ds	0.577795700862711	0.00371072605535803
45	5	16576	ds	0.58732885992295	0.00212329336129181
46	5	16800	ds	0.587207046723873	0.0152814261675295
47	5	17024	ds	0.593604108309991	0.0102335715297773
48	5	17248	ds	0.593998103325646	0.00992970132151398
49	5	17472	ds	0.620439147334125	0.00474696868164774
50	5	17696	ds	0.584398179743219	0.0057517740003486
51	5	17920	ds	0.598733737989815	0.028463555082745
52	5	18144	ds	0.602321901876995	0.0144485090384172
53	5	18368	ds	0.608044134288948	0.0207650935176811
54	5	18592	ds	0.580967228791168	0.0129563551324817
55	5	18816	ds	0.602822052605979	0.0103908477685867
56	5	19040	ds	0.575698664955394	0.0031852859167866
57	5	19264	ds	0.605427878872137	0.00637125390678455
58	5	19488	ds	0.580635313761327	0.0120882098657497
59	5	19712	ds	0.599918183100578	0.0231772226938223
60	5	19936	ds	0.595844596670148	0.0105075537690912
61	5	20160	ds	0.6334436300762	0.0171150482268865
62	5	20384	ds	0.610227069870399	0.000825534354843111
63	5	20608	ds	0.61094422192553	0.00584797553050741
64	5	20832	ds	0.594801703033918	0.0116483200276882
65	5	21056	ds	0.639326114517048	0.0241199386185346
66	5	21280	ds	0.614805427165648	0.00511326657038136
67	5	21504	ds	0.621803951723146	0.000869638574063412
68	5	21728	ds	0.612697396203125	0.00800976204738141
69	5	21952	ds	0.562402796561051	0.0631141641210979
70	5	22176	ds	0.630771663504111	0.0195673128886221
71	5	22400	ds	0.607508733830611	0.035135014974924
72	5	22624	ds	0.600935274607355	0.0571407257697207
73	5	22848	ds	0.617271664146664	0.0356535307065628
74	5	23072	ds	0.620352366351319	0.039815464283616
75	5	23296	ds	0.589807689905438	0.00956391224975621
76	5	23520	ds	0.614544913451593	0.00612334629415784
77	5	23744	ds	0.596967654986523	0.0143899088893758
78	5	23968	ds	0.622842985558503	0.0016906583443489
79	5	24192	ds	0.610941662091543	0.00347953071528795
80	5	24416	ds	0.592320744171191	0.0136605306378222
81	5	24640	ds	0.620428316856888	0.0100730239629761
82	5	24864	ds	0.60582480719129	0.0256568533072571
83	5	25088	ds	0.603601192131561	0.0514152512647346
84	5	25312	ds	0.642013589301122	0.0194088304370121
85	5	25536	ds	0.619221192529115	0.0245332907149323
86	5	25760	ds	0.616430260047281	0.0175522959869001
87	5	25984	ds	0.657535014005602	0.0331171579312019
88	5	26208	ds	0.602496215533778	0.0184916351671784
89	5	26432	ds	0.604716336295284	0.00985986215735171
90	5	26656	ds	0.637385437203602	0.00413047268543589
91	5	26880	ds	0.621908694887509	0.0700845685791894
