method	tick	features	mean	sd
1	3	6720	ds	0.608974358974359	0.0231673161927217
2	3	6944	ds	0.575158239412943	0.013437395891513
3	3	7168	ds	0.622998544395924	0.0226438852781718
4	3	7392	ds	0.597485437960215	0.011109790684518
5	3	7616	ds	0.620788691674946	0.00780537076428584
6	3	7840	ds	0.625357132133693	0.0212231821691904
7	3	8064	ds	0.619898941861848	0.00420850855620006
8	3	8288	ds	0.631981867939769	0.00520012943836176
9	3	8512	ds	0.637270341207349	0.0415726821485004
10	3	8736	ds	0.635609661835749	0.0107343591748821
11	3	8960	ds	0.652712660863993	0.0281793021199081
12	3	9184	ds	0.633946824706394	0.0106073706464424
13	3	9408	ds	0.653611500895734	0.00593376868388205
14	3	9632	ds	0.663636622161555	0.0258213771764605
15	3	9856	ds	0.601037135683751	0.00768831385788437
16	3	10080	ds	0.678632478632479	0.0290095089717558
17	3	10304	ds	0.612849069399442	0.00150468657227859
18	3	10528	ds	0.659001806629223	0.0372120299020585
19	3	10752	ds	0.661390184700573	0.0301499904710045
20	3	10976	ds	0.660410838795875	0.0130787150459538
21	3	11200	ds	0.626134301270417	0.064165769617654
22	3	11424	ds	0.645127784611179	0.019984923103646
23	3	11648	ds	0.656740920164655	0.0264192328077665
24	3	11872	ds	0.668561187002889	0.0089053537980872
25	3	12096	ds	0.688076791299639	0.00847943564349084
26	3	12320	ds	0.657929432208832	0.0132734448857843
27	3	12544	ds	0.632546961025649	0.0165771478789085
28	3	12768	ds	0.66566265060241	0.00141989313491269
29	3	12992	ds	0.626139360956228	0.00450927832815699
30	3	13216	ds	0.644765786749482	0.0426844349668122
31	3	13440	ds	0.666986037640793	0.0454903072462576
32	3	13664	ds	0.654758136590452	0.0554476094616658
33	3	13888	ds	0.695175438596491	0.0310134553151994
34	3	14112	ds	0.665311410064773	0.0420811330069364
35	3	14336	ds	0.659042542201285	0.0150482444807154
36	3	14560	ds	0.660183066361556	0.0113266532455511
37	3	14784	ds	0.695436959170724	0.0362084350423125
38	3	15008	ds	0.672275641025641	0.00793228760946453
39	3	15232	ds	0.698044009779951	0.0190175417923032
40	3	15456	ds	0.695874060150376	0.00477164162492427
41	3	15680	ds	0.714435039445588	0.0556805113469978
42	3	15904	ds	0.666191719309433	0.0249084132814695
43	3	16128	ds	0.674552145535342	0.0211022423659199
44	3	16352	ds	0.680881701373505	0.0455844203201784
45	3	16576	ds	0.685365485490018	0.0381318385718546
46	3	16800	ds	0.709678815346363	0.001407626094799
47	3	17024	ds	0.673943462544352	0.0605559787789649
48	3	17248	ds	0.68101446998656	0.066179793697479
49	3	17472	ds	0.698665731599863	0.0142029144339317
50	3	17696	ds	0.672220518111598	0.0165039562715244
51	3	17920	ds	0.738507628514176	0.0673956109124492
52	3	18144	ds	0.692926045016077	0.0341048286745924
53	3	18368	ds	0.678917394081328	0.0831381136704857
54	3	18592	ds	0.66995254529767	0.00155575693876244
55	3	18816	ds	0.658333333333333	0.0117851130197758
56	3	19040	ds	0.689655172413793	0.0487659849094171
57	3	19264	ds	0.664369107822938	0.0116372196741446
58	3	19488	ds	0.646897635643023	0.0401341323256489
59	3	19712	ds	0.712002295717053	0.0443977225693712
60	3	19936	ds	0.679573521176575	0.027249318176233
61	3	20160	ds	0.722196078431373	0.0823016833945754
62	3	20384	ds	0.720610411749279	0.0130507840875959
63	3	20608	ds	0.694092827004219	0.0328193020803883
64	3	20832	ds	0.698923338759805	0.000915670317505169
65	3	21056	ds	0.632714598997494	0.0045966371270742
66	3	21280	ds	0.721412109784203	0.0519404226867805
67	3	21504	ds	0.648764863323242	0.0319564733720392
68	3	21728	ds	0.670009157509157	0.0451330976636468
69	3	21952	ds	0.651008947268228	0.0610456739516656
70	3	22176	ds	0.7003767024051	0.0754028674229642
71	3	22400	ds	0.720253436426117	0.0126052110907395
72	3	22624	ds	0.739258705227292	0.0577649768059816
73	3	22848	ds	0.688642898217366	0.064204807791464
74	3	23072	ds	0.650500910746812	0.0621455413337904
75	3	23296	ds	0.728075243965075	0.0149356786729824
76	3	23520	ds	0.624745484400657	0.0511578403597362
77	3	23744	ds	0.673247622402254	0.0544713818406122
78	3	23968	ds	0.724972617743702	0.048173101631767
79	3	24192	ds	0.668776124067346	0.00591120165529591
80	3	24416	ds	0.676888525928951	0.0631170038249813
81	3	24640	ds	0.677410808901448	0.0468323989659052
82	3	24864	ds	0.674496644295302	0.0616938802377525
83	3	25088	ds	0.691780821917808	0
84	3	25312	ds	0.714650597629321	0.027739992259017
85	3	25536	ds	0.682194994786236	0.0150785544059071
86	3	25760	ds	0.703703703703704	0.0419026240703139
87	3	25984	ds	0.667773892773893	0.0305753631492085
88	3	26208	ds	0.710645669291339	0.0584838553510511
89	3	26432	ds	0.738675958188153	0.0328504892537304
90	3	26656	ds	0.607438016528926	0.00584385769575657
91	3	26880	ds	0.676412429378531	0.00978763623676296
