method	tick	features	mean	sd
1	5	6720	ds	0.530172413793103	0.0304787405683857
2	5	6944	ds	0.527616279069767	0.0267220585913521
3	5	7168	ds	0.535294117647059	0.0499134198484622
4	5	7392	ds	0.556547619047619	0.0294627825494395
5	5	7616	ds	0.493975903614458	0.00851935880947646
6	5	7840	ds	0.530581039755352	0.023786466645419
7	5	8064	ds	0.565015479876161	0.0197026657296561
8	5	8288	ds	0.5640625	0.0331456303681194
9	5	8512	ds	0.565079365079365	0
10	5	8736	ds	0.535598705501618	0.025172086061657
11	5	8960	ds	0.575409836065574	0.0162286802239536
12	5	9184	ds	0.554635761589404	0.0257555450101061
13	5	9408	ds	0.540268456375839	0.0237284154760586
14	5	9632	ds	0.569256756756757	0.0167221198253575
15	5	9856	ds	0.585324232081911	0.0265466709660479
16	5	10080	ds	0.52076124567474	0.0415945165403852
17	5	10304	ds	0.545454545454545	0.0346136186594814
18	5	10528	ds	0.52112676056338	0.0149388756588707
19	5	10752	ds	0.558928571428571	0.0328299576979469
20	5	10976	ds	0.55956678700361	0.0102109282481812
21	5	11200	ds	0.542279411764706	0.00259965728377406
22	5	11424	ds	0.587360594795539	0.0105145989767517
23	5	11648	ds	0.567669172932331	0.0159497770192455
24	5	11872	ds	0.540076335877863	0.00269888084422351
25	5	12096	ds	0.573359073359073	0.00273014201230327
26	5	12320	ds	0.574509803921569	0.0360485810016671
27	5	12544	ds	0.549800796812749	0.0619774867972273
28	5	12768	ds	0.542682926829268	0.0258697602873127
29	5	12992	ds	0.530864197530864	0.0581980889865471
30	5	13216	ds	0.605042016806723	0.0118841475829672
31	5	13440	ds	0.583690987124464	0.00606958610460552
32	5	13664	ds	0.595238095238095	0.0214274782177741
33	5	13888	ds	0.59070796460177	0.0344167017391682
34	5	14112	ds	0.580717488789238	0.00951264728053654
35	5	14336	ds	0.600456621004566	0.0419743751389274
36	5	14560	ds	0.579439252336449	0.0330423729526424
37	5	14784	ds	0.573809523809524	0.0707106781186547
38	5	15008	ds	0.597087378640777	0.0205953431413557
39	5	15232	ds	0.551980198019802	0.00350052861973539
40	5	15456	ds	0.547738693467337	0.035533004079726
41	5	15680	ds	0.605128205128205	0.0290095089717558
42	5	15904	ds	0.604712041884817	0.040723427188754
43	5	16128	ds	0.547872340425532	0.00752241256581438
44	5	16352	ds	0.497267759562842	0.0695514866740867
45	5	16576	ds	0.536111111111111	0.0353553390593274
46	5	16800	ds	0.502840909090909	0.0441941738241592
47	5	17024	ds	0.543859649122807	0.00827025475071985
48	5	17248	ds	0.541666666666667	0.058925565098879
49	5	17472	ds	0.587878787878788	0.0428549564355483
50	5	17696	ds	0.540372670807453	0.00878393517001924
51	5	17920	ds	0.560509554140127	0
52	5	18144	ds	0.587096774193548	0.0273718754007696
53	5	18368	ds	0.568627450980392	0.0554593553871802
54	5	18592	ds	0.593333333333333	0.00942809041582062
55	5	18816	ds	0.565068493150685	0.0145295913942441
56	5	19040	ds	0.520979020979021	0.0939512506471637
57	5	19264	ds	0.561151079136691	0.0610451897427235
58	5	19488	ds	0.603703703703704	0.0366647960615247
59	5	19712	ds	0.549242424242424	0.00535686955444354
60	5	19936	ds	0.578125	0.0110485434560398
61	5	20160	ds	0.576	0.0113137084989848
62	5	20384	ds	0.5875	0.0766032346285427
63	5	20608	ds	0.508474576271186	0.011984860698077
64	5	20832	ds	0.58695652173913	0.0307437730950673
65	5	21056	ds	0.536036036036036	0.0573329822583687
66	5	21280	ds	0.527777777777778	0.0261891400439462
67	5	21504	ds	0.589622641509434	0.00667081869043913
68	5	21728	ds	0.528846153846154	0.0407946219915316
69	5	21952	ds	0.465686274509804	0.0207972582701926
70	5	22176	ds	0.55050505050505	0.0785674201318386
71	5	22400	ds	0.588541666666667	0.00736569563735984
72	5	22624	ds	0.552631578947368	0.0223296878269436
73	5	22848	ds	0.483695652173913	0.0691734894639014
74	5	23072	ds	0.51685393258427	0.063560160106656
75	5	23296	ds	0.579545454545455	0
76	5	23520	ds	0.576470588235294	0.0998268396969244
77	5	23744	ds	0.614457831325301	0
78	5	23968	ds	0.574074074074074	0.00872971334798211
79	5	24192	ds	0.620253164556962	0.0358028749967872
80	5	24416	ds	0.538961038961039	0.0826488445542718
81	5	24640	ds	0.586666666666667	0.0565685424949239
82	5	24864	ds	0.641891891891892	0.0286664911291844
83	5	25088	ds	0.597222222222222	0.0392837100659193
84	5	25312	ds	0.514084507042254	0.109551754831719
85	5	25536	ds	0.528985507246377	0.071735470555157
86	5	25760	ds	0.582089552238806	0.0211076651100462
87	5	25984	ds	0.5546875	0.0331456303681194
88	5	26208	ds	0.619047619047619	0.0224478343233825
89	5	26432	ds	0.598360655737705	0.0115919144456811
90	5	26656	ds	0.683333333333333	0.0471404520791032
91	5	26880	ds	0.517241379310345	0
