method	tick	features	mean	sd
1	5	6720	ds	0.543103448275862	0.0081276641515695
2	5	6944	ds	0.565406976744186	0.00205554296856555
3	5	7168	ds	0.538235294117647	0.0124783549621156
4	5	7392	ds	0.516369047619048	0.0273582980816224
5	5	7616	ds	0.560240963855422	0.0383371146426442
6	5	7840	ds	0.519877675840979	0.0216240605867446
7	5	8064	ds	0.541795665634675	0.00437837016214578
8	5	8288	ds	0.590625	0.0353553390593273
9	5	8512	ds	0.576190476190476	0.0516300189437797
10	5	8736	ds	0.601941747572815	0.0549209150436154
11	5	8960	ds	0.577049180327869	0.0556411893392693
12	5	9184	ds	0.582781456953642	0.0093656527309477
13	5	9408	ds	0.557046979865772	0.0332197816664821
14	5	9632	ds	0.596283783783784	0.0167221198253576
15	5	9856	ds	0.564846416382253	0.0362000058627925
16	5	10080	ds	0.567474048442907	0.0293608352049777
17	5	10304	ds	0.555944055944056	0.0395584213251215
18	5	10528	ds	0.573943661971831	0.0298777513177414
19	5	10752	ds	0.596428571428571	0
20	5	10976	ds	0.546931407942238	0.0127636603102265
21	5	11200	ds	0.573529411764706	0.0155979437026445
22	5	11424	ds	0.589219330855019	0.00788594923256375
23	5	11648	ds	0.554511278195489	0.0345578502083651
24	5	11872	ds	0.574427480916031	0.0242899275980112
25	5	12096	ds	0.55984555984556	0.00546028402460653
26	5	12320	ds	0.541176470588235	0.005545935538718
27	5	12544	ds	0.609561752988048	0.0225372679262644
28	5	12768	ds	0.58130081300813	0
29	5	12992	ds	0.545267489711934	0.0203693311452915
30	5	13216	ds	0.550420168067227	0.0950731806637375
31	5	13440	ds	0.592274678111588	0.0242783444184223
32	5	13664	ds	0.573593073593074	0.0275496148514239
33	5	13888	ds	0.564159292035398	0.0156439553359856
34	5	14112	ds	0.569506726457399	0.025367059414764
35	5	14336	ds	0.536529680365297	0.0419743751389274
36	5	14560	ds	0.537383177570093	0.013216949181057
37	5	14784	ds	0.580952380952381	0.0336717514850736
38	5	15008	ds	0.558252427184466	0.0137302287609038
39	5	15232	ds	0.554455445544555	0.0140021144789415
40	5	15456	ds	0.557788944723618	0.0284264032637808
41	5	15680	ds	0.574358974358974	0.0145047544858779
42	5	15904	ds	0.568062827225131	0.0185106487221609
43	5	16128	ds	0.601063829787234	0.0150448251316286
44	5	16352	ds	0.612021857923497	0
45	5	16576	ds	0.577777777777778	0.0157134840263677
46	5	16800	ds	0.588068181818182	0.0602647824874899
47	5	17024	ds	0.535087719298246	0.0206756368767996
48	5	17248	ds	0.583333333333333	0
49	5	17472	ds	0.563636363636364	0.00857099128710964
50	5	17696	ds	0.590062111801242	0.0175678703400385
51	5	17920	ds	0.576433121019108	0.00450386484832196
52	5	18144	ds	0.558064516129032	0.00456197923346161
53	5	18368	ds	0.620915032679739	0.0184864517957267
54	5	18592	ds	0.563333333333333	0.0329983164553722
55	5	18816	ds	0.544520547945206	0.00484319713141465
56	5	19040	ds	0.559440559440559	0.0494480266564019
57	5	19264	ds	0.586330935251799	0.0254354957261348
58	5	19488	ds	0.574074074074074	0.0157134840263677
59	5	19712	ds	0.59469696969697	0.058925565098879
60	5	19936	ds	0.6171875	0.0110485434560398
61	5	20160	ds	0.548	0.0282842712474618
62	5	20384	ds	0.554166666666667	0.0294627825494395
63	5	20608	ds	0.504237288135593	0.0179772910471156
64	5	20832	ds	0.573913043478261	0.0614875461901345
65	5	21056	ds	0.540540540540541	0.012740662724082
66	5	21280	ds	0.532407407407407	0.0327364250549327
67	5	21504	ds	0.528301886792453	0
68	5	21728	ds	0.524038461538461	0.0747901403178079
69	5	21952	ds	0.57843137254902	0.0138648388467951
70	5	22176	ds	0.555555555555556	0.0428549564355483
71	5	22400	ds	0.609375	0.00736569563735992
72	5	22624	ds	0.547368421052632	0.0148864585512957
73	5	22848	ds	0.635869565217391	0.0230578298213005
74	5	23072	ds	0.544943820224719	0.0556151400933239
75	5	23296	ds	0.602272727272727	0.0642824346533225
76	5	23520	ds	0.541176470588235	0.0499134198484622
77	5	23744	ds	0.650602409638554	0.0340774352379059
78	5	23968	ds	0.58641975308642	0.0436485667399103
79	5	24192	ds	0.537974683544304	0.00895071874919685
80	5	24416	ds	0.577922077922078	0.0459160247523732
81	5	24640	ds	0.58	0.0848528137423857
82	5	24864	ds	0.641891891891892	0.00955549704306151
83	5	25088	ds	0.583333333333333	0.0785674201318386
84	5	25312	ds	0.535211267605634	0.119511005270966
85	5	25536	ds	0.623188405797101	0.0819833949201795
86	5	25760	ds	0.574626865671642	0.0105538325550231
87	5	25984	ds	0.5390625	0.0331456303681194
88	5	26208	ds	0.619047619047619	0
89	5	26432	ds	0.565573770491803	0.0811434011197678
90	5	26656	ds	0.608333333333333	0.0824957911384305
91	5	26880	ds	0.629310344827586	0.0609574811367714
