method	tick	features	mean	sd
1	5	6720	ds	0.525936599423631	0.00203777170370767
2	5	6944	ds	0.543731778425656	0.00206153580520858
3	5	7168	ds	0.507374631268437	0.0333737713834359
4	5	7392	ds	0.543283582089552	0.0464368632421016
5	5	7616	ds	0.533232628398792	0.00640882279021035
6	5	7840	ds	0.54	0.0152299922101718
7	5	8064	ds	0.509316770186335	0.0570955786051249
8	5	8288	ds	0.537617554858934	0.0421160778763147
9	5	8512	ds	0.519047619047619	0.0291821846203972
10	5	8736	ds	0.519480519480519	0.013774807425712
11	5	8960	ds	0.514754098360656	0.0185470631130898
12	5	9184	ds	0.526578073089701	0.0305394955329739
13	5	9408	ds	0.503355704697987	0.00949136619042348
14	5	9632	ds	0.533898305084746	0.011984860698077
15	5	9856	ds	0.518835616438356	0.0266375842227809
16	5	10080	ds	0.517301038062284	0.0122336813354073
17	5	10304	ds	0.512280701754386	0.0148864585512957
18	5	10528	ds	0.560070671378092	0.0074958316026843
19	5	10752	ds	0.507142857142857	0.0151522881682832
20	5	10976	ds	0.543478260869565	0
21	5	11200	ds	0.555350553505535	0.0287017512658746
22	5	11424	ds	0.54275092936803	0
23	5	11648	ds	0.533962264150943	0.0400249121426348
24	5	11872	ds	0.494252873563218	0.043347542141704
25	5	12096	ds	0.521400778210117	0.0440222120583065
26	5	12320	ds	0.561023622047244	0.0361905045489177
27	5	12544	ds	0.536	0.0282842712474619
28	5	12768	ds	0.48780487804878	0.0172465068582085
29	5	12992	ds	0.495884773662551	0.0203693311452915
30	5	13216	ds	0.523109243697479	0.0326814058531597
31	5	13440	ds	0.48068669527897	0
32	5	13664	ds	0.53695652173913	0.00307437730950671
33	5	13888	ds	0.559734513274336	0.0219015374703798
34	5	14112	ds	0.497747747747748	0.0222961597671434
35	5	14336	ds	0.555045871559633	0.00648721817602333
36	5	14560	ds	0.518779342723005	0.02323825102491
37	5	14784	ds	0.55	0.0168358757425369
38	5	15008	ds	0.504854368932039	0.0617860294240672
39	5	15232	ds	0.49009900990099	0.00700105723947077
40	5	15456	ds	0.545226130653266	0.0248731028558082
41	5	15680	ds	0.507692307692308	0.0507666407005726
42	5	15904	ds	0.531413612565445	0.0629362056553472
43	5	16128	ds	0.53475935828877	0.0378131968548956
44	5	16352	ds	0.510928961748634	0.0193198574094685
45	5	16576	ds	0.547222222222222	0.003928371006592
46	5	16800	ds	0.551136363636364	0.0401765216583266
47	5	17024	ds	0.567647058823529	0.0041594516540385
48	5	17248	ds	0.574850299401198	0.0254050340546065
49	5	17472	ds	0.573170731707317	0.0172465068582084
50	5	17696	ds	0.506211180124224	0.057095578605125
51	5	17920	ds	0.487261146496815	0.0315270539382537
52	5	18144	ds	0.519480519480519	0.0734656396037971
53	5	18368	ds	0.546052631578947	0.0279121097836795
54	5	18592	ds	0.570469798657718	0.00949136619042352
55	5	18816	ds	0.475862068965517	0.0585191818913005
56	5	19040	ds	0.513986013986014	0.0939512506471637
57	5	19264	ds	0.528776978417266	0.0356096940165887
58	5	19488	ds	0.552238805970149	0.0738768278851617
59	5	19712	ds	0.557251908396947	0
60	5	19936	ds	0.559055118110236	0.0222710797224109
61	5	20160	ds	0.548387096774194	0.05702474041827
62	5	20384	ds	0.520833333333333	0.0294627825494395
63	5	20608	ds	0.495762711864407	0.0419470124432698
64	5	20832	ds	0.547826086956522	0.0122975092380269
65	5	21056	ds	0.518018018018018	0.0955549704306145
66	5	21280	ds	0.49537037037037	0.0720201351208521
67	5	21504	ds	0.584905660377358	0
68	5	21728	ds	0.563106796116505	0.0686511438045191
69	5	21952	ds	0.504950495049505	0
70	5	22176	ds	0.494949494949495	0.0142849854785161
71	5	22400	ds	0.625	0.0294627825494395
72	5	22624	ds	0.521052631578947	0.00744322927564781
73	5	22848	ds	0.494565217391304	0.0538016029163678
74	5	23072	ds	0.48314606741573	0.031780080053328
75	5	23296	ds	0.574712643678161	0.0487659849094171
76	5	23520	ds	0.605882352941177	0.0582323231565392
77	5	23744	ds	0.530120481927711	0.0170387176189529
78	5	23968	ds	0.481481481481481	0.0872971334798207
79	5	24192	ds	0.518987341772152	0.0358028749967872
80	5	24416	ds	0.538961038961039	0.0826488445542718
81	5	24640	ds	0.526666666666667	0.00942809041582062
82	5	24864	ds	0.608108108108108	0.0764439763444916
83	5	25088	ds	0.534722222222222	0.108030202681278
84	5	25312	ds	0.542253521126761	0.0298777513177415
85	5	25536	ds	0.580882352941176	0.0103986291350963
86	5	25760	ds	0.507462686567164	0
87	5	25984	ds	0.5546875	0.121533978016438
88	5	26208	ds	0.555555555555556	0.112239171616912
89	5	26432	ds	0.590163934426229	0.0695514866740866
90	5	26656	ds	0.584745762711864	0.011984860698077
91	5	26880	ds	0.56140350877193	0.0744322927564787
