method	tick	features	mean	sd
1	1	6720	ds	0.58764367816092	0.0507979009473095
2	1	6944	ds	0.558139534883721	0.0041110859371311
3	1	7168	ds	0.591176470588235	0.0374350648863467
4	1	7392	ds	0.611607142857143	0.0147313912747198
5	1	7616	ds	0.600903614457831	0.00212983970236915
6	1	7840	ds	0.639570552147239	0.0108451960304685
7	1	8064	ds	0.602167182662539	0.0065675552432187
8	1	8288	ds	0.5921875	0.0375650477505353
9	1	8512	ds	0.598412698412698	0.0426508852144267
10	1	8736	ds	0.567961165048544	0.0114418573007532
11	1	8960	ds	0.573770491803279	0.00463676577827246
12	1	9184	ds	0.607615894039735	0.0117070659136846
13	1	9408	ds	0.582214765100671	0.00711852464281754
14	1	9632	ds	0.579391891891892	0.0167221198253576
15	1	9856	ds	0.590443686006826	0.0386133395869786
16	1	10080	ds	0.595155709342561	0.0195738901366518
17	1	10304	ds	0.596153846153846	0.00247240133282013
18	1	10528	ds	0.595070422535211	0.0199185008784943
19	1	10752	ds	0.601785714285714	0.0378807204207079
20	1	10976	ds	0.586642599277978	0.0536073733029512
21	1	11200	ds	0.604779411764706	0.0649914320943518
22	1	11424	ds	0.574349442379182	0.0184005482093153
23	1	11648	ds	0.599624060150376	0.0079748885096227
24	1	11872	ds	0.599236641221374	0.0323865701306815
25	1	12096	ds	0.606177606177606	0.0109205680492131
26	1	12320	ds	0.611764705882353	0.0110918710774361
27	1	12544	ds	0.591633466135458	0.0591603283064442
28	1	12768	ds	0.630081300813008	0.0402418493358198
29	1	12992	ds	0.604938271604938	0.00581980889865469
30	1	13216	ds	0.613445378151261	0.0653628117063195
31	1	13440	ds	0.620171673819742	0.00303479305230276
32	1	13664	ds	0.623376623376623	0
33	1	13888	ds	0.646017699115044	0.0250303285375769
34	1	14112	ds	0.585201793721973	0.0158544121342275
35	1	14336	ds	0.60958904109589	0.0355167789637079
36	1	14560	ds	0.679906542056075	0.0165211864763212
37	1	14784	ds	0.645238095238095	0.00336717514850736
38	1	15008	ds	0.563106796116505	0.0549209150436153
39	1	15232	ds	0.606435643564356	0.00350052861973539
40	1	15456	ds	0.633165829145729	0.0213198024478356
41	1	15680	ds	0.635897435897436	0.0362618862146947
42	1	15904	ds	0.62565445026178	0.0259149082110253
43	1	16128	ds	0.627659574468085	0.045134475394886
44	1	16352	ds	0.614754098360656	0.00386397148189371
45	1	16576	ds	0.652777777777778	0.0432120810725112
46	1	16800	ds	0.644886363636364	0.00401765216583261
47	1	17024	ds	0.611111111111111	0.0537566558796791
48	1	17248	ds	0.681547619047619	0.0126269068069026
49	1	17472	ds	0.648484848484848	0.077138921583987
50	1	17696	ds	0.614906832298137	0.00878393517001916
51	1	17920	ds	0.640127388535032	0.0405347836348976
52	1	18144	ds	0.570967741935484	0.0136859377003848
53	1	18368	ds	0.611111111111111	0.0415945165403851
54	1	18592	ds	0.643333333333333	0.0235702260395516
55	1	18816	ds	0.647260273972603	0.0145295913942441
56	1	19040	ds	0.604895104895105	0.024724013328201
57	1	19264	ds	0.579136690647482	0.0457838923070426
58	1	19488	ds	0.603703703703704	0.0890430761494171
59	1	19712	ds	0.606060606060606	0.0428549564355483
60	1	19936	ds	0.58203125	0.0055242717280199
61	1	20160	ds	0.62	0.0282842712474619
62	1	20384	ds	0.608333333333333	0.0117851130197758
63	1	20608	ds	0.64406779661017	0.0479394427923083
64	1	20832	ds	0.604347826086957	0.116826337761256
65	1	21056	ds	0.635135135135135	0.0445923195342867
66	1	21280	ds	0.666666666666667	0.0392837100659193
67	1	21504	ds	0.613207547169811	0.0266832747617565
68	1	21728	ds	0.639423076923077	0.0475937256567869
69	1	21952	ds	0.637254901960784	0.0415945165403852
70	1	22176	ds	0.555555555555556	0.0142849854785161
71	1	22400	ds	0.635416666666667	0.058925565098879
72	1	22624	ds	0.621052631578947	0
73	1	22848	ds	0.608695652173913	0.0461156596426009
74	1	23072	ds	0.612359550561798	0.03972510006666
75	1	23296	ds	0.619318181818182	0.13660017363831
76	1	23520	ds	0.7	0.00831890330807708
77	1	23744	ds	0.656626506024096	0.0766742292852882
78	1	23968	ds	0.654320987654321	0.0174594266959641
79	1	24192	ds	0.670886075949367	0.0537043124951808
80	1	24416	ds	0.642857142857143	0.0275496148514239
81	1	24640	ds	0.62	0.103708994574027
82	1	24864	ds	0.560810810810811	0.0286664911291843
83	1	25088	ds	0.659722222222222	0.0294627825494395
84	1	25312	ds	0.570422535211268	0.0497962521962357
85	1	25536	ds	0.528985507246377	0.0102479243650225
86	1	25760	ds	0.723880597014925	0.1371998232153
87	1	25984	ds	0.5546875	0.0110485434560398
88	1	26208	ds	0.603174603174603	0.0673435029701474
89	1	26432	ds	0.60655737704918	0
90	1	26656	ds	0.675	0.0353553390593273
91	1	26880	ds	0.71551724137931	0.0121914962273543
