method	tick	features	mean	sd
1	5	6720	ds	0.545977011494253	0.0325106566062781
2	5	6944	ds	0.526162790697674	0.0041110859371311
3	5	7168	ds	0.538235294117647	0.0124783549621156
4	5	7392	ds	0.563988095238095	0.0147313912747197
5	5	7616	ds	0.543674698795181	0.053245992559228
6	5	7840	ds	0.567484662576687	0
7	5	8064	ds	0.569659442724458	0.021891850810729
8	5	8288	ds	0.540625	0.0353553390593274
9	5	8512	ds	0.588888888888889	0.0112239171616912
10	5	8736	ds	0.58252427184466	0.0045767429203013
11	5	8960	ds	0.557377049180328	0.00463676577827246
12	5	9184	ds	0.543046357615894	0.0187313054618952
13	5	9408	ds	0.552013422818792	0.016609890833241
14	5	9632	ds	0.498310810810811	0.0214998683468882
15	5	9856	ds	0.537542662116041	0.0313733384144202
16	5	10080	ds	0.579584775086505	0.00734020880124439
17	5	10304	ds	0.538461538461538	0.0445032239907617
18	5	10528	ds	0.580985915492958	0.0149388756588707
19	5	10752	ds	0.571428571428571	0.0555583899503716
20	5	10976	ds	0.575812274368231	0.00255273206204526
21	5	11200	ds	0.573529411764706	0.036395201972837
22	5	11424	ds	0.594795539033457	0.0105145989767517
23	5	11648	ds	0.573308270676692	0.0345578502083651
24	5	11872	ds	0.555343511450382	0.00809664253267037
25	5	12096	ds	0.561776061776062	0.0191109940861229
26	5	12320	ds	0.6	0
27	5	12544	ds	0.583665338645418	0.00845147547234917
28	5	12768	ds	0.601626016260163	0
29	5	12992	ds	0.553497942386831	0.0261891400439462
30	5	13216	ds	0.607142857142857	0.014855184478709
31	5	13440	ds	0.592274678111588	0.0424871027322389
32	5	13664	ds	0.543290043290043	0.0642824346533225
33	5	13888	ds	0.557522123893805	0.0625758213439423
34	5	14112	ds	0.544843049327354	0.00951264728053654
35	5	14336	ds	0.563926940639269	0.00968639426282946
36	5	14560	ds	0.572429906542056	0.0495635594289636
37	5	14784	ds	0.583333333333333	0.0437732769305958
38	5	15008	ds	0.611650485436893	0.0205953431413558
39	5	15232	ds	0.586633663366337	0.0595089865355015
40	5	15456	ds	0.555276381909548	0.017766502039863
41	5	15680	ds	0.558974358974359	0.0435142634576337
42	5	15904	ds	0.565445026178011	0.0148085189777288
43	5	16128	ds	0.569148936170213	0.0376120628290717
44	5	16352	ds	0.557377049180328	0
45	5	16576	ds	0.541666666666667	0.058925565098879
46	5	16800	ds	0.545454545454545	0.0080353043316653
47	5	17024	ds	0.614035087719298	0.0413512737535993
48	5	17248	ds	0.556547619047619	0.0715524719057816
49	5	17472	ds	0.587878787878788	0.0428549564355483
50	5	17696	ds	0.608695652173913	0.0439196758500961
51	5	17920	ds	0.557324840764331	0.00450386484832196
52	5	18144	ds	0.574193548387097	0.0364958338676928
53	5	18368	ds	0.581699346405229	0
54	5	18592	ds	0.546666666666667	0.00942809041582062
55	5	18816	ds	0.633561643835616	0.00484319713141473
56	5	19040	ds	0.587412587412587	0.00988960533128036
57	5	19264	ds	0.633093525179856	0.0712193880331774
58	5	19488	ds	0.625925925925926	0.00523782800878925
59	5	19712	ds	0.541666666666667	0.00535686955444354
60	5	19936	ds	0.59375	0.0220970869120796
61	5	20160	ds	0.588	0.0509116882454314
62	5	20384	ds	0.595833333333333	0.0648181216087669
63	5	20608	ds	0.610169491525424	0.0239697213961542
64	5	20832	ds	0.543478260869565	0.0307437730950673
65	5	21056	ds	0.531531531531532	0.0509626508963277
66	5	21280	ds	0.523148148148148	0.0720201351208521
67	5	21504	ds	0.599056603773585	0.0733790055948304
68	5	21728	ds	0.620192307692308	0.0475937256567868
69	5	21952	ds	0.558823529411765	0.0277296776935902
70	5	22176	ds	0.565656565656566	0.0285699709570322
71	5	22400	ds	0.5625	0.0294627825494395
72	5	22624	ds	0.589473684210526	0.0446593756538873
73	5	22848	ds	0.630434782608696	0.0768594327376682
74	5	23072	ds	0.595505617977528	0.015890040026664
75	5	23296	ds	0.568181818181818	0.0482118259899919
76	5	23520	ds	0.611764705882353	0.0499134198484622
77	5	23744	ds	0.608433734939759	0.0255580764284294
78	5	23968	ds	0.604938271604938	0.0174594266959641
79	5	24192	ds	0.651898734177215	0.00895071874919677
80	5	24416	ds	0.597402597402597	0.0918320495047465
81	5	24640	ds	0.613333333333333	0.0377123616632825
82	5	24864	ds	0.635135135135135	0.0382219881722458
83	5	25088	ds	0.569444444444444	0.0785674201318387
84	5	25312	ds	0.556338028169014	0.00995925043924713
85	5	25536	ds	0.550724637681159	0.0409916974600897
86	5	25760	ds	0.649253731343284	0.0105538325550231
87	5	25984	ds	0.6171875	0.0331456303681194
88	5	26208	ds	0.682539682539683	0.0673435029701474
89	5	26432	ds	0.60655737704918	0.0695514866740866
90	5	26656	ds	0.633333333333333	0.0707106781186547
91	5	26880	ds	0.672413793103448	0
