method	tick	features	mean	sd
1	5	6720	ds	0.538793103448276	0.0386064047199552
2	5	6944	ds	0.497093023255814	0.00822217187426219
3	5	7168	ds	0.533823529411765	0.0103986291350962
4	5	7392	ds	0.504464285714286	0.0357762359528908
5	5	7616	ds	0.576807228915663	0.0276879161307985
6	5	7840	ds	0.548929663608563	0.0194616545280701
7	5	8064	ds	0.565015479876161	0.0634863673511142
8	5	8288	ds	0.5265625	0.0198873782208717
9	5	8512	ds	0.533333333333333	0.0179582674587059
10	5	8736	ds	0.52588996763754	0.0114418573007532
11	5	8960	ds	0.559016393442623	0.0115919144456811
12	5	9184	ds	0.55794701986755	0.00234141318273692
13	5	9408	ds	0.528523489932886	0.0640667217853583
14	5	9632	ds	0.564189189189189	0.0191109940861229
15	5	9856	ds	0.592150170648464	0.0168933360693032
16	5	10080	ds	0.56401384083045	0.0146804176024889
17	5	10304	ds	0.552447552447553	0.0148344079969205
18	5	10528	ds	0.542253521126761	0.0149388756588708
19	5	10752	ds	0.516071428571429	0.0126269068069027
20	5	10976	ds	0.554151624548737	0.0280800526824983
21	5	11200	ds	0.573529411764706	0.0155979437026445
22	5	11424	ds	0.559479553903346	0.00788594923256375
23	5	11648	ds	0.558270676691729	0.00265829616987426
24	5	11872	ds	0.559160305343511	0.0404832126633519
25	5	12096	ds	0.590733590733591	0.00546028402460653
26	5	12320	ds	0.558823529411765	0.0305026454629492
27	5	12544	ds	0.557768924302789	0.0507088528340951
28	5	12768	ds	0.585365853658537	0.0517395205746254
29	5	12992	ds	0.561728395061728	0.00290990444932734
30	5	13216	ds	0.600840336134454	0.0178262213744508
31	5	13440	ds	0.553648068669528	0
32	5	13664	ds	0.601731601731602	0.0183664099009492
33	5	13888	ds	0.608407079646018	0.0344167017391682
34	5	14112	ds	0.553811659192825	0.00317088242684551
35	5	14336	ds	0.607305936073059	0.103321538803514
36	5	14560	ds	0.581775700934579	0.0165211864763212
37	5	14784	ds	0.595238095238095	0.026937401188059
38	5	15008	ds	0.589805825242718	0.0102976715706779
39	5	15232	ds	0.532178217821782	0.0315047575776185
40	5	15456	ds	0.620603015075377	0.00355330040797262
41	5	15680	ds	0.546153846153846	0.00362618862146954
42	5	15904	ds	0.531413612565445	0.0777447246330759
43	5	16128	ds	0.518617021276596	0.0413732691119788
44	5	16352	ds	0.532786885245902	0.0347757433370433
45	5	16576	ds	0.547222222222222	0.003928371006592
46	5	16800	ds	0.5625	0.0160706086633306
47	5	17024	ds	0.526315789473684	0.0165405095014397
48	5	17248	ds	0.571428571428571	0
49	5	17472	ds	0.572727272727273	0.0214274782177741
50	5	17696	ds	0.552795031055901	0.0614875461901346
51	5	17920	ds	0.554140127388535	0.0180154593932878
52	5	18144	ds	0.503225806451613	0.0182479169338464
53	5	18368	ds	0.607843137254902	0.0184864517957267
54	5	18592	ds	0.56	0.075424723326565
55	5	18816	ds	0.571917808219178	0.0629615627083912
56	5	19040	ds	0.56993006993007	0.0148344079969205
57	5	19264	ds	0.561151079136691	0.0712193880331774
58	5	19488	ds	0.596296296296296	0.0366647960615247
59	5	19712	ds	0.590909090909091	0
60	5	19936	ds	0.58203125	0.0828640759202985
61	5	20160	ds	0.536	0.0339411254969543
62	5	20384	ds	0.579166666666667	0.0883883476483184
63	5	20608	ds	0.559322033898305	0
64	5	20832	ds	0.578260869565217	0.0307437730950673
65	5	21056	ds	0.549549549549549	0.0254813254481638
66	5	21280	ds	0.518518518518518	0.0654728501098655
67	5	21504	ds	0.533018867924528	0.0333540934521956
68	5	21728	ds	0.5	0.0407946219915316
69	5	21952	ds	0.514705882352941	0.0762566136573728
70	5	22176	ds	0.585858585858586	0.0285699709570322
71	5	22400	ds	0.546875	0.0662912607362388
72	5	22624	ds	0.594736842105263	0.0372161463782394
73	5	22848	ds	0.614130434782609	0.0538016029163677
74	5	23072	ds	0.578651685393258	0.03972510006666
75	5	23296	ds	0.579545454545455	0.0160706086633306
76	5	23520	ds	0.6	0.0332756132323082
77	5	23744	ds	0.55421686746988	0.0681548704758119
78	5	23968	ds	0.648148148148148	0.00872971334798211
79	5	24192	ds	0.556962025316456	0.0358028749967872
80	5	24416	ds	0.577922077922078	0.0642824346533225
81	5	24640	ds	0.6	0.0377123616632825
82	5	24864	ds	0.621621621621622	0.0382219881722458
83	5	25088	ds	0.534722222222222	0.0294627825494395
84	5	25312	ds	0.612676056338028	0.0896332539532243
85	5	25536	ds	0.63768115942029	0.0204958487300449
86	5	25760	ds	0.641791044776119	0.0422153302200924
87	5	25984	ds	0.5703125	0.0331456303681194
88	5	26208	ds	0.626984126984127	0.0561195858084561
89	5	26432	ds	0.598360655737705	0.0579595722284056
90	5	26656	ds	0.65	0.0471404520791032
91	5	26880	ds	0.612068965517241	0.0365744886820629
