method	tick	features	mean	sd
1	2	6720	ds	0.566688207179087	0.0179759758921912
2	2	6944	ds	0.582369942196532	0.0367859019114389
3	2	7168	ds	0.577464668313911	0.0100174921678317
4	2	7392	ds	0.595882515373725	0.0175731449593368
5	2	7616	ds	0.591954151398695	0.0245044824743126
6	2	7840	ds	0.560949028082773	0.0246604588798208
7	2	8064	ds	0.597849002849003	0.00566088334796072
8	2	8288	ds	0.58011164644647	0.0166716900384243
9	2	8512	ds	0.611752664486127	0.0352113783302292
10	2	8736	ds	0.602254662379421	0.00545131581534684
11	2	8960	ds	0.580675451998981	0.0245560701004113
12	2	9184	ds	0.6310759715883	0.0091723171470521
13	2	9408	ds	0.602938729554795	0.0610064367231507
14	2	9632	ds	0.594538606403013	0.0234370609206841
15	2	9856	ds	0.601765030336459	0.0292515215603923
16	2	10080	ds	0.639794168096055	0.0388120360171004
17	2	10304	ds	0.629123924855632	0.016957916458733
18	2	10528	ds	0.628947368421053	0.00124053821260798
19	2	10752	ds	0.600173874025464	0.00424367185972067
20	2	10976	ds	0.590979923642314	0.00868663500249944
21	2	11200	ds	0.578150671572468	0.0242263765507237
22	2	11424	ds	0.629992469364004	0.030913835179416
23	2	11648	ds	0.623364485981308	0.00132169491810571
24	2	11872	ds	0.637067610062893	0.0123966047330661
25	2	12096	ds	0.626736590811127	0.0210461937215859
26	2	12320	ds	0.568339868592373	0.0196082979120926
27	2	12544	ds	0.611263528673231	0.0309324794829748
28	2	12768	ds	0.59514859437751	0.0294883406258679
29	2	12992	ds	0.599225483758997	0.015034191946003
30	2	13216	ds	0.61325992847732	0.0316088576193874
31	2	13440	ds	0.629626975310854	0.00354731606285584
32	2	13664	ds	0.639676634979831	0.0432825161574858
33	2	13888	ds	0.623712075805577	0.0792334167576672
34	2	14112	ds	0.627621178225205	0.0112209040295673
35	2	14336	ds	0.602494844091483	0.00416815798926415
36	2	14560	ds	0.662514138494407	0.0264154192167527
37	2	14784	ds	0.671671538665958	0.0559972949225595
38	2	15008	ds	0.667042276310011	0.00736314182845707
39	2	15232	ds	0.610261739846092	0.0186819631008599
40	2	15456	ds	0.671934026320338	0.043891914962667
41	2	15680	ds	0.671319796954315	0.00179468726189476
42	2	15904	ds	0.656396866840731	0.0797572139615114
43	2	16128	ds	0.656369393139842	0.034463526285166
44	2	16352	ds	0.684259987761168	0.0172774145765924
45	2	16576	ds	0.65247367825201	0.000592391054090437
46	2	16800	ds	0.65396083108405	0.0508880751133248
47	2	17024	ds	0.639699381078692	0.0706481576251812
48	2	17248	ds	0.643574929971989	0.0200297404054593
49	2	17472	ds	0.622584934331922	0.0268436553478774
50	2	17696	ds	0.664055944055944	0.0122631106107877
51	2	17920	ds	0.677615595611285	0.00513982397766872
52	2	18144	ds	0.649581182927828	0.0166320991683614
53	2	18368	ds	0.699862681228843	0.0223779402234103
54	2	18592	ds	0.637490229286086	0.0614204594002255
55	2	18816	ds	0.642959183673469	0.0193853083549781
56	2	19040	ds	0.619528256704981	0.0617533149182791
57	2	19264	ds	0.584777722277722	0.00372626200875025
58	2	19488	ds	0.608809294614685	0.00528467686351249
59	2	19712	ds	0.628245800374542	0.0525631127418627
60	2	19936	ds	0.630675009985355	0.0346445607078484
61	2	20160	ds	0.605349353573847	0.0679347191789227
62	2	20384	ds	0.696356275303644	0
63	2	20608	ds	0.679052790884002	0.0456002984324343
64	2	20832	ds	0.662282162282162	0.0182879209697487
65	2	21056	ds	0.616693836360814	0.0148480348013476
66	2	21280	ds	0.626224574512246	0.123618937690625
67	2	21504	ds	0.650358617691806	0.00544046512801648
68	2	21728	ds	0.625592417061611	0.033512169724481
69	2	21952	ds	0.599514563106796	0.0240279003315817
70	2	22176	ds	0.658415841584158	0.0700105723947077
71	2	22400	ds	0.696669310071372	0.0061682589952831
72	2	22624	ds	0.616573348264278	0.0457679417162177
73	2	22848	ds	0.691489361702128	0.0225672376974431
74	2	23072	ds	0.688971881848205	0.0211265583563868
75	2	23296	ds	0.681289640591966	0.0313937471562738
76	2	23520	ds	0.681034482758621	0.0528298169852018
77	2	23744	ds	0.688145438898451	0.112729372818251
78	2	23968	ds	0.640243902439024	0.112102294578355
79	2	24192	ds	0.662724956203217	0.0237053635037057
80	2	24416	ds	0.611464968152866	0.0180154593932878
81	2	24640	ds	0.679050567595459	0.156161869116534
82	2	24864	ds	0.647432432432433	0.0460574957475562
83	2	25088	ds	0.612702366127024	0.0334620892715925
84	2	25312	ds	0.651587995337995	0.00813832105386609
85	2	25536	ds	0.655116514690983	0.124083986323718
86	2	25760	ds	0.621384157880508	0.0116608579757717
87	2	25984	ds	0.604447115384615	0.0372250925672726
88	2	26208	ds	0.67278125	0.100718522145259
89	2	26432	ds	0.56552380952381	0.0756940973384457
90	2	26656	ds	0.715993767782143	0.019112288693499
91	2	26880	ds	0.683760683760684	0.108785658644084
