method	tick	features	mean	sd
1	2	6720	ds	0.581896551724138	0.0507979009473094
2	2	6944	ds	0.603197674418605	0.0184998867170899
3	2	7168	ds	0.610294117647059	0.00623917748105783
4	2	7392	ds	0.599702380952381	0.018940360210354
5	2	7616	ds	0.582831325301205	0.0234282367260603
6	2	7840	ds	0.596330275229358	0.00432481211734894
7	2	8064	ds	0.578947368421053	0.0131351104864374
8	2	8288	ds	0.6171875	0.0243067956032876
9	2	8512	ds	0.6	0.0224478343233825
10	2	8736	ds	0.606796116504854	0.00686511438045192
11	2	8960	ds	0.616393442622951	0.0510044235609969
12	2	9184	ds	0.629139072847682	0.0327797845583168
13	2	9408	ds	0.649328859060403	0.0166098908332411
14	2	9632	ds	0.655405405405405	0.0191109940861229
15	2	9856	ds	0.585324232081911	0.0313733384144202
16	2	10080	ds	0.577854671280277	0.00489347253416296
17	2	10304	ds	0.629370629370629	0.00988960533128036
18	2	10528	ds	0.600352112676056	0.00746943782943535
19	2	10752	ds	0.591071428571429	0.0328299576979469
20	2	10976	ds	0.608303249097473	0.0433964450547701
21	2	11200	ds	0.612132352941176	0.0493934883917074
22	2	11424	ds	0.62453531598513	0.0105145989767517
23	2	11648	ds	0.605263157894737	0.0212663693589939
24	2	11872	ds	0.618320610687023	0.0215910467537877
25	2	12096	ds	0.629343629343629	0.0109205680492131
26	2	12320	ds	0.62156862745098	0.0526863876178212
27	2	12544	ds	0.621513944223108	0.050708852834095
28	2	12768	ds	0.644308943089431	0.00862325342910425
29	2	12992	ds	0.609053497942387	0.0349188533919283
30	2	13216	ds	0.613445378151261	0.00594207379148365
31	2	13440	ds	0.572961373390558	0.00910437915690836
32	2	13664	ds	0.619047619047619	0.00612213663364979
33	2	13888	ds	0.628318584070797	0.0438030749407596
34	2	14112	ds	0.645739910313901	0.019025294561073
35	2	14336	ds	0.636986301369863	0.00968639426282946
36	2	14560	ds	0.647196261682243	0.0363466102479066
37	2	14784	ds	0.65	0.00336717514850736
38	2	15008	ds	0.631067961165048	0.0411906862827116
39	2	15232	ds	0.599009900990099	0.00700105723947077
40	2	15456	ds	0.658291457286432	0.0497462057116164
41	2	15680	ds	0.638461538461538	0.0108785658644085
42	2	15904	ds	0.62303664921466	0.00740425948886438
43	2	16128	ds	0.643617021276596	0.00752241256581431
44	2	16352	ds	0.647540983606557	0.0193198574094685
45	2	16576	ds	0.613888888888889	0.0432120810725112
46	2	16800	ds	0.613636363636364	0.0080353043316653
47	2	17024	ds	0.646198830409357	0.0289458916275194
48	2	17248	ds	0.642857142857143	0.0252538136138053
49	2	17472	ds	0.63030303030303	0.0342839651484386
50	2	17696	ds	0.673913043478261	0.0658795137751442
51	2	17920	ds	0.592356687898089	0
52	2	18144	ds	0.67741935483871	0.0364958338676928
53	2	18368	ds	0.611111111111111	0.00462161294893175
54	2	18592	ds	0.646666666666667	0.0565685424949238
55	2	18816	ds	0.599315068493151	0.111393534022538
56	2	19040	ds	0.664335664335664	0.0791168426502431
57	2	19264	ds	0.62589928057554	0.0508709914522696
58	2	19488	ds	0.62962962962963	0.0104756560175785
59	2	19712	ds	0.65530303030303	0.058925565098879
60	2	19936	ds	0.62109375	0.0276213586400995
61	2	20160	ds	0.588	0.00565685424949239
62	2	20384	ds	0.620833333333333	0.0176776695296637
63	2	20608	ds	0.601694915254237	0.0119848606980771
64	2	20832	ds	0.630434782608696	0.067636300809148
65	2	21056	ds	0.63963963963964	0.012740662724082
66	2	21280	ds	0.62037037037037	0.0392837100659193
67	2	21504	ds	0.575471698113208	0
68	2	21728	ds	0.639423076923077	0.0747901403178079
69	2	21952	ds	0.647058823529412	0.0277296776935901
70	2	22176	ds	0.621212121212121	0.0214274782177741
71	2	22400	ds	0.65625	0.0294627825494395
72	2	22624	ds	0.605263157894737	0.0223296878269437
73	2	22848	ds	0.657608695652174	0.0538016029163677
74	2	23072	ds	0.662921348314607	0
75	2	23296	ds	0.642045454545455	0.0241059129949959
76	2	23520	ds	0.623529411764706	0.0665512264646162
77	2	23744	ds	0.704819277108434	0.0255580764284294
78	2	23968	ds	0.611111111111111	0.148405126915695
79	2	24192	ds	0.620253164556962	0.0358028749967872
80	2	24416	ds	0.688311688311688	0
81	2	24640	ds	0.706666666666667	0.0754247233265651
82	2	24864	ds	0.655405405405405	0.0286664911291844
83	2	25088	ds	0.652777777777778	0.0196418550329597
84	2	25312	ds	0.584507042253521	0.0298777513177414
85	2	25536	ds	0.579710144927536	0.0409916974600897
86	2	25760	ds	0.619402985074627	0.0105538325550231
87	2	25984	ds	0.6328125	0.0994368911043582
88	2	26208	ds	0.563492063492063	0.0112239171616912
89	2	26432	ds	0.598360655737705	0.0115919144456811
90	2	26656	ds	0.641666666666667	0.0353553390593273
91	2	26880	ds	0.689655172413793	0
