method	tick	features	mean	sd
1	3	6720	ds	0.609722222222222	0.00589255650988795
2	3	6944	ds	0.632022471910112	0.0158900400266639
3	3	7168	ds	0.59375	0.0160706086633306
4	3	7392	ds	0.620689655172414	0.0121914962273543
5	3	7616	ds	0.639941690962099	0.0144307506364601
6	3	7840	ds	0.653392330383481	0.0271161892490417
7	3	8064	ds	0.602985074626866	0.00844306604401849
8	3	8288	ds	0.604545454545454	0.00642824346533229
9	3	8512	ds	0.634969325153374	0.0173523136487497
10	3	8736	ds	0.669781931464174	0.013216949181057
11	3	8960	ds	0.639498432601881	0.039899442198614
12	3	9184	ds	0.646031746031746	0.00224478343233824
13	3	9408	ds	0.618971061093248	0.0204628972047554
14	3	9632	ds	0.618032786885246	0.0440492748935882
15	3	9856	ds	0.586378737541528	0.0211427276766742
16	3	10080	ds	0.661616161616162	0.0214274782177741
17	3	10304	ds	0.634353741496599	0.0216461259546903
18	3	10528	ds	0.627147766323024	0.0315889627334197
19	3	10752	ds	0.614186851211073	0.00244673626708152
20	3	10976	ds	0.63859649122807	0.0148864585512958
21	3	11200	ds	0.622340425531915	0.0175522959869001
22	3	11424	ds	0.623214285714286	0.00252538136138052
23	3	11648	ds	0.62	0.00771389215839875
24	3	11872	ds	0.632352941176471	0.0311958874052888
25	3	12096	ds	0.644194756554307	0.010593360017776
26	3	12320	ds	0.659090909090909	0.0428549564355484
27	3	12544	ds	0.675	0.0353553390593273
28	3	12768	ds	0.673151750972763	0
29	3	12992	ds	0.624015748031496	0.0361905045489177
30	3	13216	ds	0.637450199203187	0.00563431698156611
31	3	13440	ds	0.62753036437247	0.028627804906338
32	3	13664	ds	0.642561983471074	0.0146096442393915
33	3	13888	ds	0.650627615062761	0.0207102404531625
34	3	14112	ds	0.66025641025641	0.0151091192561228
35	3	14336	ds	0.668122270742358	0.0741072609103805
36	3	14560	ds	0.639380530973451	0.0156439553359856
37	3	14784	ds	0.65990990990991	0.0350368224912254
38	3	15008	ds	0.655251141552511	0.00322879808760977
39	3	15232	ds	0.676744186046512	0.0295998187473438
40	3	15456	ds	0.642857142857143	0.0269374011880589
41	3	15680	ds	0.672330097087379	0.0102976715706779
42	3	15904	ds	0.642857142857143	0.0174164231819346
43	3	16128	ds	0.64321608040201	0.0497462057116165
44	3	16352	ds	0.643589743589744	0.0543928293220422
45	3	16576	ds	0.641361256544503	0.0333191676998897
46	3	16800	ds	0.603723404255319	0.0413732691119788
47	3	17024	ds	0.66304347826087	0.0307437730950673
48	3	17248	ds	0.656424581005587	0.0513541237733247
49	3	17472	ds	0.678977272727273	0.0200882608291633
50	3	17696	ds	0.716763005780347	0.0408732243460432
51	3	17920	ds	0.699404761904762	0.0631345340345132
52	3	18144	ds	0.657575757575757	0.0128564869306645
53	3	18368	ds	0.680124223602484	0.00439196758500962
54	3	18592	ds	0.657051282051282	0.0589255650988789
55	3	18816	ds	0.633986928104575	0.00924322589786333
56	3	19040	ds	0.655629139072848	0.0374626109237906
57	3	19264	ds	0.63758389261745	0.0189827323808469
58	3	19488	ds	0.67687074829932	0.0432922519093804
59	3	19712	ds	0.660839160839161	0.0346136186594814
60	3	19936	ds	0.660714285714286	0.0252538136138053
61	3	20160	ds	0.6875	0.0467938311079333
62	3	20384	ds	0.740458015267176	0.0107955233768939
63	3	20608	ds	0.666666666666667	0.0219257916646991
64	3	20832	ds	0.636	0.00565685424949239
65	3	21056	ds	0.639344262295082	0.0115919144456811
66	3	21280	ds	0.665254237288136	0.0419470124432698
67	3	21504	ds	0.560344827586207	0.0121914962273543
68	3	21728	ds	0.699115044247788	0.0375454928063653
69	3	21952	ds	0.68348623853211	0.0194616545280702
70	3	22176	ds	0.632075471698113	0
71	3	22400	ds	0.615384615384615	0
72	3	22624	ds	0.647058823529412	0.0277296776935901
73	3	22848	ds	0.7	0.0282842712474618
74	3	23072	ds	0.663265306122449	0.0288615012729203
75	3	23296	ds	0.686170212765957	0.022567237697443
76	3	23520	ds	0.731182795698925	0.07603298722436
77	3	23744	ds	0.686813186813187	0.0388520209443158
78	3	23968	ds	0.6875	0.0723177389849878
79	3	24192	ds	0.662790697674419	0.0493330312455731
80	3	24416	ds	0.708333333333333	0.00841793787126847
81	3	24640	ds	0.617283950617284	0.0349188533919283
82	3	24864	ds	0.670886075949367	0.0179014374983936
83	3	25088	ds	0.681818181818182	0.0275496148514239
84	3	25312	ds	0.693333333333333	0
85	3	25536	ds	0.664383561643836	0.00968639426282946
86	3	25760	ds	0.729166666666667	0.00982092751647987
87	3	25984	ds	0.771428571428571	0
88	3	26208	ds	0.731884057971014	0.0102479243650224
89	3	26432	ds	0.76865671641791	0.0527691627751155
90	3	26656	ds	0.761538461538461	0.119664224508493
91	3	26880	ds	0.714285714285714	0.0224478343233825
