method	tick	features	mean	sd
1	2	6720	ds	0.613505747126437	0.00203191603789239
2	2	6944	ds	0.54796511627907	0.0267220585913521
3	2	7168	ds	0.617647058823529	0.0166378066161541
4	2	7392	ds	0.571428571428571	0.0042089689356342
5	2	7616	ds	0.573795180722892	0.0191685573213221
6	2	7840	ds	0.579510703363914	0.00648721817602341
7	2	8064	ds	0.602167182662539	0.0065675552432187
8	2	8288	ds	0.6125	0.00883883476483189
9	2	8512	ds	0.607936507936508	0.00224478343233832
10	2	8736	ds	0.606796116504854	0.0160186002210544
11	2	8960	ds	0.583606557377049	0.00927353155654485
12	2	9184	ds	0.584437086092715	0.025755545010106
13	2	9408	ds	0.597315436241611	0.00474568309521172
14	2	9632	ds	0.606418918918919	0.00238887426076538
15	2	9856	ds	0.595563139931741	0.00724000117255854
16	2	10080	ds	0.617647058823529	0.00244673626708152
17	2	10304	ds	0.61013986013986	0.0716996386517828
18	2	10528	ds	0.595070422535211	0.00497962521962357
19	2	10752	ds	0.6	0.00505076272276104
20	2	10976	ds	0.637184115523466	0.0382909809306795
21	2	11200	ds	0.628676470588235	0.0259965728377407
22	2	11424	ds	0.596654275092937	0.0131432487209395
23	2	11648	ds	0.62406015037594	0.0584825157372332
24	2	11872	ds	0.629770992366412	0.00539776168844686
25	2	12096	ds	0.567567567567568	0.0436822721968523
26	2	12320	ds	0.6	0.0499134198484622
27	2	12544	ds	0.663346613545817	0.0366230603801798
28	2	12768	ds	0.642276422764228	0.0114976712388056
29	2	12992	ds	0.621399176954732	0.0290990444932735
30	2	13216	ds	0.642857142857143	0.0118841475829672
31	2	13440	ds	0.59656652360515	0.0364175166276334
32	2	13664	ds	0.658008658008658	0.0183664099009493
33	2	13888	ds	0.665929203539823	0.028159119604774
34	2	14112	ds	0.567264573991031	0.0412214715489915
35	2	14336	ds	0.627853881278539	0.00968639426282946
36	2	14560	ds	0.691588785046729	0.0264338983621139
37	2	14784	ds	0.65952380952381	0.0168358757425368
38	2	15008	ds	0.677184466019418	0.00343255719022596
39	2	15232	ds	0.658415841584158	0.0350052861973539
40	2	15456	ds	0.64572864321608	0.0319797036717534
41	2	15680	ds	0.641025641025641	0.0435142634576336
42	2	15904	ds	0.638743455497382	0.0296170379554575
43	2	16128	ds	0.63563829787234	0.0188060314145358
44	2	16352	ds	0.644808743169399	0.0309117718551496
45	2	16576	ds	0.622222222222222	0.0235702260395516
46	2	16800	ds	0.633522727272727	0.0200882608291633
47	2	17024	ds	0.611111111111111	0.0206756368767997
48	2	17248	ds	0.651785714285714	0.0126269068069026
49	2	17472	ds	0.624242424242424	0.00857099128710964
50	2	17696	ds	0.605590062111801	0.0307437730950673
51	2	17920	ds	0.624203821656051	0.0180154593932878
52	2	18144	ds	0.629032258064516	0.0501817715680776
53	2	18368	ds	0.61437908496732	0.0739458071829069
54	2	18592	ds	0.653333333333333	0.00942809041582069
55	2	18816	ds	0.63013698630137	0.0290591827884883
56	2	19040	ds	0.643356643356643	0
57	2	19264	ds	0.607913669064748	0.0254354957261348
58	2	19488	ds	0.585185185185185	0.0104756560175785
59	2	19712	ds	0.583333333333333	0.0749961737622096
60	2	19936	ds	0.65625	0.0331456303681194
61	2	20160	ds	0.648	0.0226274169979695
62	2	20384	ds	0.583333333333333	0.0471404520791032
63	2	20608	ds	0.639830508474576	0.0659167338394239
64	2	20832	ds	0.621739130434783	0.0061487546190135
65	2	21056	ds	0.621621621621622	0.0254813254481638
66	2	21280	ds	0.62962962962963	0.0261891400439462
67	2	21504	ds	0.570754716981132	0.0200124560713174
68	2	21728	ds	0.644230769230769	0.027196414661021
69	2	21952	ds	0.647058823529412	0.0277296776935901
70	2	22176	ds	0.631313131313131	0.0214274782177742
71	2	22400	ds	0.588541666666667	0.0368284781867994
72	2	22624	ds	0.589473684210526	0.0148864585512957
73	2	22848	ds	0.673913043478261	0.0307437730950673
74	2	23072	ds	0.674157303370786	0.0476701200799919
75	2	23296	ds	0.664772727272727	0.0080353043316653
76	2	23520	ds	0.641176470588235	0.0748701297726932
77	2	23744	ds	0.698795180722892	0.0681548704758118
78	2	23968	ds	0.672839506172839	0.00872971334798211
79	2	24192	ds	0.658227848101266	0.0537043124951809
80	2	24416	ds	0.642857142857143	0.11938166435617
81	2	24640	ds	0.706666666666667	0.0754247233265651
82	2	24864	ds	0.614864864864865	0.0668884793014302
83	2	25088	ds	0.583333333333333	0.0196418550329597
84	2	25312	ds	0.647887323943662	0.0796740035139772
85	2	25536	ds	0.630434782608696	0.0102479243650224
86	2	25760	ds	0.649253731343284	0.0105538325550231
87	2	25984	ds	0.6640625	0.0773398041922786
88	2	26208	ds	0.666666666666667	0.0897913372935298
89	2	26432	ds	0.581967213114754	0.0347757433370434
90	2	26656	ds	0.633333333333333	0.0235702260395516
91	2	26880	ds	0.577586206896552	0.0365744886820628
