   method  tick features              mean                  sd
1       2  6720       ds 0.579931986120683  0.0312868281007034
2       2  6944       ds 0.588401380361224 0.00039296034090943
3       2  7168       ds  0.59735751070709 0.00835599339152954
4       2  7392       ds  0.58999560614303  0.0350416874762593
5       2  7616       ds  0.59626882906926  0.0127199018094324
6       2  7840       ds 0.592585915123104  0.0100662799691915
7       2  8064       ds 0.602630038467971  0.0272896621105194
8       2  8288       ds  0.60853603938943 0.00935351684798055
9       2  8512       ds   0.6065303487062  0.0206098737571578
10      2  8736       ds 0.582429852061943  0.0143587019104625
11      2  8960       ds 0.589585265298996 0.00414255859578336
12      2  9184       ds 0.602873529179499 0.00790839436828123
13      2  9408       ds  0.59835898105315  0.0222578267049361
14      2  9632       ds 0.626278471103618   0.012160699517177
15      2  9856       ds 0.616708210303808  0.0205750280613291
16      2 10080       ds 0.623288146167872  0.0354098847919551
17      2 10304       ds 0.639511487503663  0.0324006184064365
18      2 10528       ds 0.646561479624588  0.0289799011829127
19      2 10752       ds 0.633123607578715 0.00498638469195996
20      2 10976       ds 0.650975097682163  0.0278392674730407
21      2 11200       ds 0.645254582925001 0.00138235768242283
22      2 11424       ds  0.63647460200389  0.0329125544176366
23      2 11648       ds 0.656015799580025  0.0221307835242394
24      2 11872       ds 0.627375333176666  0.0220196040994863
25      2 12096       ds 0.645902076631221  0.0149916871111066
26      2 12320       ds 0.624418708265342 0.00640919756055792
27      2 12544       ds 0.628284621486376  0.0164762151327968
28      2 12768       ds 0.628272993510428  0.0162020256247513
29      2 12992       ds 0.632685868622176  0.0148498620547526
30      2 13216       ds 0.625622381013376  0.0163197150074304
31      2 13440       ds 0.626284753031647  0.0210317733460728
32      2 13664       ds  0.61714893895919 0.00287233441441623
33      2 13888       ds 0.627937187149183   0.023244701259023
34      2 14112       ds 0.632645769498589 0.00288210322909642
35      2 14336       ds 0.625896833414084  0.0521996010978621
36      2 14560       ds 0.649500109495814  0.0223336061079413
37      2 14784       ds  0.64967694960519  0.0144065878649153
38      2 15008       ds 0.660539759320434  0.0160984421384578
39      2 15232       ds 0.629902068340062  0.0145710707096797
40      2 15456       ds 0.618663787763025  0.0548131138084225
41      2 15680       ds 0.651633956113528  0.0150618687863234
42      2 15904       ds 0.640531544200675  0.0164132556422226
43      2 16128       ds 0.648553449014567  0.0268277948761875
44      2 16352       ds 0.650806255520417   0.018605633699407
45      2 16576       ds 0.661484415497485  0.0133831637856365
46      2 16800       ds 0.646485963738906  0.0195626783428717
47      2 17024       ds 0.656682865903809 0.00554043625558365
48      2 17248       ds 0.654116023656797 0.00742495942258092
49      2 17472       ds  0.68903570029781 0.00970879907364416
50      2 17696       ds 0.668172793283413 0.00421584539951813
51      2 17920       ds 0.665433417085427  0.0112195460381735
52      2 18144       ds 0.657396539777857  0.0308716166346872
53      2 18368       ds 0.666334638147164 0.00559352141788599
54      2 18592       ds 0.658198203873011  0.0170560050299702
55      2 18816       ds 0.646605187084292  0.0303644702943654
56      2 19040       ds 0.648291809222127  0.0151642562819903
57      2 19264       ds 0.670472198440339  0.0219692808944076
58      2 19488       ds 0.675493572993375 0.00441113542200341
59      2 19712       ds 0.676799684068001  0.0117682695454734
60      2 19936       ds 0.667239013589422  0.0154846568153334
61      2 20160       ds 0.684477129132595  0.0407615174451088
62      2 20384       ds 0.648775941634656  0.0594041938486818
63      2 20608       ds 0.668117743169019  0.0163183215146593
64      2 20832       ds 0.642309325358366  0.0146180697424151
65      2 21056       ds 0.636780094513466 0.00166182476342716
66      2 21280       ds 0.640497157867539 0.00111903256431857
67      2 21504       ds 0.645744537361748  0.0582643016761346
68      2 21728       ds 0.649679889926272 0.00131766643118784
69      2 21952       ds 0.643485006384257  0.0145670821561757
70      2 22176       ds 0.646560404349034  0.0310451751600766
71      2 22400       ds 0.656602335218536 0.00225480243629424
72      2 22624       ds 0.656454080173843  0.0359810883267181
73      2 22848       ds 0.625026933850463 0.00449464556022475
74      2 23072       ds 0.632041491944383 0.00350198105712342
75      2 23296       ds 0.644452887537994  0.0477135882745938
76      2 23520       ds 0.679046413767994   0.010811519306392
77      2 23744       ds 0.652997218770341  0.0207018805841791
78      2 23968       ds 0.700548657504255  0.0428425453964744
79      2 24192       ds 0.699426702638266  0.0186276286821659
80      2 24416       ds 0.700030679552079   0.016053352295691
81      2 24640       ds 0.649380066762041  0.0148367660334803
82      2 24864       ds 0.725453036042573  0.0324531137961722
83      2 25088       ds 0.703187631452366  0.0384124636454792
84      2 25312       ds 0.702658221408221  0.0148896772859744
85      2 25536       ds 0.659496026529475  0.0168274054803037
86      2 25760       ds 0.616738066095471  0.0582043219520139
87      2 25984       ds 0.651190476190476  0.0707106781186547
88      2 26208       ds 0.648031833215214  0.0343050357551198
89      2 26432       ds 0.640877781817238  0.0139942287676075
90      2 26656       ds 0.673704366523542 0.00933739998394963
91      2 26880       ds 0.703055848261328  0.0391926414019098
