   method  tick features              mean                   sd
1       2  6720       ds  0.57629263161273  0.00757901803998406
2       2  6944       ds 0.582233122656806   0.0105101716340873
3       2  7168       ds 0.585766209223233   0.0119902613281218
4       2  7392       ds 0.602106204984502  0.00810649725824564
5       2  7616       ds 0.606830476615569  0.00365210716298815
6       2  7840       ds 0.610461616414263  0.00479404717511615
7       2  8064       ds 0.577402282301498   0.0195526167218196
8       2  8288       ds  0.61814741967212   0.0276713204205856
9       2  8512       ds 0.579580874115562   0.0051863996269128
10      2  8736       ds 0.616478946306517  0.00189315175104535
11      2  8960       ds 0.610782820801759  0.00636410003184858
12      2  9184       ds 0.602276762410982  0.00375006368090906
13      2  9408       ds 0.611308222347828  0.00372847945371633
14      2  9632       ds 0.642686275030776   0.0153663319694045
15      2  9856       ds 0.607226555530759   0.0240664282700175
16      2 10080       ds 0.626096678686694   0.0123042672621344
17      2 10304       ds 0.611261747747851  0.00573904490804719
18      2 10528       ds 0.622909777987718   0.0236815639046416
19      2 10752       ds 0.645909959408066   0.0111293142650041
20      2 10976       ds 0.634324657949906 0.000988431979935632
21      2 11200       ds 0.625870778806077  0.00669012999751512
22      2 11424       ds 0.636349969933854   0.0104173879369034
23      2 11648       ds 0.640819338151124   0.0034469235512264
24      2 11872       ds 0.634403052277359   0.0290718445617367
25      2 12096       ds  0.64420564181572  0.00385449890419493
26      2 12320       ds 0.634646336298179   0.0018568666003205
27      2 12544       ds 0.632851672896344   0.0141498713164781
28      2 12768       ds 0.638433788407912   0.0271324942155165
29      2 12992       ds 0.629576368897715 0.000799364356767024
30      2 13216       ds 0.643366359853579   0.0135852919141129
31      2 13440       ds  0.61342123056119   0.0284468245304933
32      2 13664       ds 0.610663547093045   0.0044933572146629
33      2 13888       ds 0.653561953322555   0.0299940726215286
34      2 14112       ds 0.612540975313638  0.00409855802247848
35      2 14336       ds 0.635865728329459   0.0154952125137371
36      2 14560       ds 0.639670698757807  0.00458130522602491
37      2 14784       ds 0.631443679944938   0.0142250032084378
38      2 15008       ds 0.657464788481795    0.018086182873835
39      2 15232       ds 0.624975678715836   0.0247421807012634
40      2 15456       ds 0.640598306038287  0.00906935514484653
41      2 15680       ds 0.659735757716998   0.0307573697617345
42      2 15904       ds 0.655153046896939   0.0162827172303558
43      2 16128       ds 0.656711753939556   0.0272729011626792
44      2 16352       ds  0.65717032043509   0.0212797178081199
45      2 16576       ds 0.626982707470307 0.000455300023735718
46      2 16800       ds 0.675658315214075   0.0245223068355981
47      2 17024       ds 0.646344870725605 0.000669362966344225
48      2 17248       ds 0.669278882467262  0.00629867587929664
49      2 17472       ds 0.678719612769677   0.0218697551166824
50      2 17696       ds 0.647200772200772     0.03753945266917
51      2 17920       ds 0.661256328373712  0.00299782472092265
52      2 18144       ds 0.647265149238386   0.0138634133481079
53      2 18368       ds 0.655050667461887   0.0169242417832394
54      2 18592       ds 0.624511620534348   0.0117275247395729
55      2 18816       ds 0.640739594886463   0.0127139706229106
56      2 19040       ds 0.648215399311055  0.00205344721977549
57      2 19264       ds 0.610160024519886  0.00409215214832394
58      2 19488       ds 0.640095284832127  0.00790879256755899
59      2 19712       ds 0.629114975302546   0.0314977013377444
60      2 19936       ds 0.651612394052917  0.00714216176039949
61      2 20160       ds 0.673058496678231   0.0215365732295874
62      2 20384       ds 0.630942438167365  0.00350578181795418
63      2 20608       ds 0.667410607764938  0.00476393821118457
64      2 20832       ds 0.648412255230437  0.00731008685635861
65      2 21056       ds 0.598180725524476   0.0233410138326548
66      2 21280       ds 0.639804247445638   0.0631217152595913
67      2 21504       ds 0.658909962024198   0.0252651882008785
68      2 21728       ds 0.615406369648451  0.00316881302045832
69      2 21952       ds 0.676322893001407   0.0485484458795243
70      2 22176       ds 0.659090909090909   0.0498743027482674
71      2 22400       ds 0.625920701466818   0.0805072111991146
72      2 22624       ds 0.607005440908697   0.0164200151596741
73      2 22848       ds 0.625990445931005   0.0243548429416813
74      2 23072       ds  0.62655258280692  0.00736815151086358
75      2 23296       ds 0.677805335097002   0.0229077031515351
76      2 23520       ds 0.705573714674838   0.0139736048961754
77      2 23744       ds 0.697548930270122  0.00239292917585468
78      2 23968       ds 0.684123684028658  0.00054976741839361
79      2 24192       ds 0.679815751578481   0.0232081829116686
80      2 24416       ds 0.651820725550816   0.0130764806265293
81      2 24640       ds 0.671815590372291   0.0092417796936699
82      2 24864       ds 0.700316057047735   0.0110915903748004
83      2 25088       ds 0.653737631416203   0.0808176697575998
84      2 25312       ds 0.705169001899345   0.0689872279533936
85      2 25536       ds 0.647806558520844   0.0186551370407231
86      2 25760       ds 0.647422487541881   0.0389169097729419
87      2 25984       ds 0.651522533148715   0.0420624924767771
88      2 26208       ds 0.681001511222224   0.0577041560646646
89      2 26432       ds 0.661507779535865   0.0404413985152511
90      2 26656       ds 0.617232681186169   0.0498115703493661
91      2 26880       ds 0.650902913723154   0.0347314272116552
