method	tick	features	mean	sd
1	2	6720	ds	0.584770114942529	0.0142234122652467
2	2	6944	ds	0.598837209302326	0.00822217187426212
3	2	7168	ds	0.561764705882353	0.016637806616154
4	2	7392	ds	0.56547619047619	0.0042089689356342
5	2	7616	ds	0.614457831325301	0.00425967940473821
6	2	7840	ds	0.601226993865031	0.0433807841218741
7	2	8064	ds	0.594427244582043	0.0350269612971665
8	2	8288	ds	0.571875	0.00441941738241591
9	2	8512	ds	0.652380952380952	0.0246926177557207
10	2	8736	ds	0.619741100323625	0.0297488289819583
11	2	8960	ds	0.613114754098361	0.0649147208958142
12	2	9184	ds	0.582781456953642	0.0140484790964215
13	2	9408	ds	0.605704697986577	0.00711852464281762
14	2	9632	ds	0.638513513513514	0.0143332455645922
15	2	9856	ds	0.645051194539249	0.00965333489674474
16	2	10080	ds	0.621107266435986	0.0269140989378963
17	2	10304	ds	0.613636363636364	0.00741720399846023
18	2	10528	ds	0.628521126760563	0.047306439586424
19	2	10752	ds	0.596428571428571	0.0151522881682831
20	2	10976	ds	0.606498194945848	0.00510546412409059
21	2	11200	ds	0.626838235294118	0.00259965728377406
22	2	11424	ds	0.633828996282528	0.0131432487209395
23	2	11648	ds	0.62781954887218	0.010633184679497
24	2	11872	ds	0.673664122137405	0.0404832126633519
25	2	12096	ds	0.615830115830116	0.0354918461599425
26	2	12320	ds	0.627450980392157	0.011091871077436
27	2	12544	ds	0.641434262948207	0.0225372679262644
28	2	12768	ds	0.634146341463415	0
29	2	12992	ds	0.613168724279835	0.0116396177973094
30	2	13216	ds	0.621848739495798	0.00594207379148357
31	2	13440	ds	0.656652360515021	0.0303479305230279
32	2	13664	ds	0.623376623376623	0.0489770930691981
33	2	13888	ds	0.646017699115044	0.0312879106719712
34	2	14112	ds	0.643497757847534	0.0158544121342275
35	2	14336	ds	0.63013698630137	0.00645759617521961
36	2	14560	ds	0.630841121495327	0.013216949181057
37	2	14784	ds	0.64047619047619	0.0168358757425369
38	2	15008	ds	0.616504854368932	0
39	2	15232	ds	0.633663366336634	0
40	2	15456	ds	0.668341708542714	0.035533004079726
41	2	15680	ds	0.648717948717949	0.0471404520791032
42	2	15904	ds	0.617801047120419	0.0444255569331863
43	2	16128	ds	0.638297872340426	0.067701713092329
44	2	16352	ds	0.636612021857923	0.0193198574094685
45	2	16576	ds	0.658333333333333	0.0196418550329597
46	2	16800	ds	0.670454545454545	0.0080353043316653
47	2	17024	ds	0.637426900584795	0.0496215285043191
48	2	17248	ds	0.657738095238095	0.0378807204207079
49	2	17472	ds	0.572727272727273	0.0128564869306645
50	2	17696	ds	0.624223602484472	0.00439196758500962
51	2	17920	ds	0.640127388535032	0.00450386484832196
52	2	18144	ds	0.67741935483871	0
53	2	18368	ds	0.627450980392157	0.0462161294893168
54	2	18592	ds	0.65	0.0424264068711929
55	2	18816	ds	0.60958904109589	0.0193727885256588
56	2	19040	ds	0.618881118881119	0.0346136186594814
57	2	19264	ds	0.593525179856115	0.0661322888879505
58	2	19488	ds	0.659259259259259	0.0314269680527354
59	2	19712	ds	0.632575757575758	0.00535686955444354
60	2	19936	ds	0.65234375	0.0718155324642587
61	2	20160	ds	0.652	0.0282842712474619
62	2	20384	ds	0.591666666666667	0.0353553390593274
63	2	20608	ds	0.64406779661017	0.0239697213961542
64	2	20832	ds	0.643478260869565	0.0245950184760538
65	2	21056	ds	0.63963963963964	0.0382219881722458
66	2	21280	ds	0.611111111111111	0.0392837100659192
67	2	21504	ds	0.617924528301887	0.0333540934521956
68	2	21728	ds	0.649038461538461	0.0611919329872974
69	2	21952	ds	0.573529411764706	0.00693241942339758
70	2	22176	ds	0.621212121212121	0.0214274782177741
71	2	22400	ds	0.65625	0
72	2	22624	ds	0.721052631578947	0.0521026049295351
73	2	22848	ds	0.66304347826087	0.0614875461901346
74	2	23072	ds	0.629213483146067	0.031780080053328
75	2	23296	ds	0.653409090909091	0.0401765216583265
76	2	23520	ds	0.623529411764706	0.016637806616154
77	2	23744	ds	0.728915662650602	0.0085193588094765
78	2	23968	ds	0.641975308641975	0
79	2	24192	ds	0.677215189873418	0.00895071874919677
80	2	24416	ds	0.720779220779221	0.0642824346533225
81	2	24640	ds	0.6	0.0377123616632825
82	2	24864	ds	0.682432432432432	0.124221461559799
83	2	25088	ds	0.618055555555556	0.0294627825494395
84	2	25312	ds	0.626760563380282	0.0896332539532243
85	2	25536	ds	0.572463768115942	0.0922313192852018
86	2	25760	ds	0.656716417910448	0.126645990660277
87	2	25984	ds	0.609375	0
88	2	26208	ds	0.73015873015873	0.0673435029701474
89	2	26432	ds	0.631147540983607	0.0115919144456811
90	2	26656	ds	0.691666666666667	0.0117851130197758
91	2	26880	ds	0.53448275862069	0
