   method  tick features              mean                   sd
1       2  6720       ds 0.561245941558442  0.00378233253897675
2       2  6944       ds  0.60357227757458   0.0246995034795995
3       2  7168       ds 0.577675512332149  0.00971931369769508
4       2  7392       ds 0.601434102402023   0.0150759307672385
5       2  7616       ds 0.576538830511122   0.0205145050142781
6       2  7840       ds 0.591695581771918   0.0225397442626662
7       2  8064       ds 0.584745762711864   0.0294173853498256
8       2  8288       ds  0.62315499937212 0.000684750778222683
9       2  8512       ds 0.577627362825704   0.0129024725268794
10      2  8736       ds 0.609727972221937   0.0210331270345648
11      2  8960       ds 0.642325347066726   0.0305974889082625
12      2  9184       ds 0.604785696923866   0.0114047632734114
13      2  9408       ds 0.598657792567942   0.0169580128777073
14      2  9632       ds 0.587073385778242   0.0670964866715135
15      2  9856       ds 0.656468878593422   0.0327986366031078
16      2 10080       ds 0.599417441449923   0.0186825317613723
17      2 10304       ds 0.651603308293497    0.028707065195087
18      2 10528       ds 0.635356436866815   0.0251907882820782
19      2 10752       ds 0.626845742518528   0.0529838102842241
20      2 10976       ds 0.614131096876783    0.022011935180338
21      2 11200       ds 0.599016185337988   0.0290607198234395
22      2 11424       ds 0.628829010101561   0.0308552266381168
23      2 11648       ds 0.693752615427535   0.0128002207460572
24      2 11872       ds 0.635849056603774   0.0053366549523513
25      2 12096       ds 0.595219603840293   0.0100366714973372
26      2 12320       ds 0.627134045184448   0.0367225017497041
27      2 12544       ds 0.630559955893087   0.0259582173046592
28      2 12768       ds  0.64576802507837   0.0132998140662046
29      2 12992       ds 0.642081411788467   0.0415446358842519
30      2 13216       ds 0.627582796094239   0.0218120761448457
31      2 13440       ds 0.672318633272158  0.00499051126201777
32      2 13664       ds  0.62862439747868   0.0112214201834573
33      2 13888       ds 0.598914985714695    0.010199207726497
34      2 14112       ds 0.635738754394375   0.0195371016114632
35      2 14336       ds 0.642590555819081   0.0641155656382563
36      2 14560       ds 0.599495200966163   0.0182293827151882
37      2 14784       ds  0.67486706157873  0.00937873548596787
38      2 15008       ds 0.628297362110312   0.0203483965809079
39      2 15232       ds 0.671443394876199   0.0414174109346779
40      2 15456       ds 0.669966873860126   0.0234763557084304
41      2 15680       ds 0.620253164556962   0.0393831624964659
42      2 15904       ds  0.62104699424287   0.0326808489577716
43      2 16128       ds  0.67989417989418   0.0523782800878924
44      2 16352       ds 0.675666199158485  0.00247933653992475
45      2 16576       ds 0.650535070989616   0.0862718222649195
46      2 16800       ds 0.654466530859089  0.00790563252034807
47      2 17024       ds 0.599401752612066   0.0172427285537063
48      2 17248       ds 0.648102517829565   0.0290430469220107
49      2 17472       ds 0.659074363920941   0.0476543590203797
50      2 17696       ds 0.640058347873398   0.0592539058961316
51      2 17920       ds 0.665004782157465   0.0593992143574218
52      2 18144       ds 0.667829537256519   0.0272479877858034
53      2 18368       ds 0.674242424242424   0.0107137391088871
54      2 18592       ds 0.655634567365107   0.0140561558609551
55      2 18816       ds 0.625716781006883   0.0611296619766079
56      2 19040       ds 0.651169590643275    0.056651245042431
57      2 19264       ds 0.603414786967419   0.0199815262102214
58      2 19488       ds 0.627092357880101  0.00552102198263202
59      2 19712       ds 0.636194029850746   0.0870691185789405
60      2 19936       ds 0.632117080994387   0.0324161488835854
61      2 20160       ds 0.647233646060918   0.0143357016748718
62      2 20384       ds 0.613419652715046   0.0178142930922235
63      2 20608       ds 0.664674237895995   0.0701612227596933
64      2 20832       ds 0.606113128645318   0.0775428532466595
65      2 21056       ds 0.644911727871369   0.0201965214034214
66      2 21280       ds 0.640798458380462   0.0409079831099921
67      2 21504       ds 0.604772412599515   0.0368667216740131
68      2 21728       ds 0.647012578616352   0.0277950778768297
69      2 21952       ds 0.617073170731707   0.0655367260611923
70      2 22176       ds  0.63681592039801   0.0211076651100463
71      2 22400       ds 0.625560897435897   0.0434009450632128
72      2 22624       ds 0.653609809864977   0.0358327189474252
73      2 22848       ds 0.673632218844985   0.0574927246101524
74      2 23072       ds 0.683849858007161   0.0657428579125164
75      2 23296       ds 0.694080636877247   0.0147994870741406
76      2 23520       ds 0.684844006568144    0.014931680141312
77      2 23744       ds 0.580966724039013    0.030324860524208
78      2 23968       ds  0.60910399151708   0.0582694976846902
79      2 24192       ds 0.642857142857143   0.0219598379250481
80      2 24416       ds 0.679227450174646   0.0573007837476832
81      2 24640       ds 0.633971291866029  0.00338328603438541
82      2 24864       ds 0.660008162524941   0.0317127066294892
83      2 25088       ds 0.615924329501916  0.00301400878954037
84      2 25312       ds 0.701388888888889                    0
85      2 25536       ds 0.545405488744989   0.0792578831209713
86      2 25760       ds 0.645985401459854   0.0154840900989755
87      2 25984       ds 0.566591487393014    0.019178410847588
88      2 26208       ds 0.590525793650794  0.00455971634693705
89      2 26432       ds 0.640168970814132   0.0298701021238557
90      2 26656       ds 0.659594985535198   0.0177288103286887
91      2 26880       ds 0.673850574712644   0.0101595801894619
