method	tick	features	mean	sd
1	5	6720	ds	0.521558697586548	0.00196553347926678
2	5	6944	ds	0.538938282755882	0.00113801309658313
3	5	7168	ds	0.542318179503871	0.0116733989826077
4	5	7392	ds	0.559302418574893	0.000959384897996567
5	5	7616	ds	0.560994589610062	0.0157540530484294
6	5	7840	ds	0.529974363638713	0.0227287912306031
7	5	8064	ds	0.545125813077713	0.0053559525962863
8	5	8288	ds	0.552287841058074	0.0016609665830332
9	5	8512	ds	0.569412053070443	0.00479931661606508
10	5	8736	ds	0.527836935599142	0.0170991665662967
11	5	8960	ds	0.56216846286121	0.0240421900717623
12	5	9184	ds	0.541891159549061	0.0035179109322317
13	5	9408	ds	0.554852004805261	0.0132203693576647
14	5	9632	ds	0.55481451188222	0.00157529213483232
15	5	9856	ds	0.56542224023199	0.049212697629316
16	5	10080	ds	0.536419298931691	0.022325019773224
17	5	10304	ds	0.579225607623923	0.00964997580628183
18	5	10528	ds	0.594420641640301	0.00740718778245555
19	5	10752	ds	0.566933791959407	0.00109536691562613
20	5	10976	ds	0.542541205004122	0.0110008115664507
21	5	11200	ds	0.575790567535551	0.0305201394642773
22	5	11424	ds	0.551561826640064	0.00725044047644271
23	5	11648	ds	0.564124168514412	0.00445273449793742
24	5	11872	ds	0.55867414663041	0.0194126882018664
25	5	12096	ds	0.558345277095277	0.0130181582190194
26	5	12320	ds	0.573242438734136	0.0144196700494811
27	5	12544	ds	0.598263553452426	0.0173612990747012
28	5	12768	ds	0.588924743555467	0.00613698703598143
29	5	12992	ds	0.596514380969274	0.00644396238375917
30	5	13216	ds	0.588970372811836	0.00126500279282809
31	5	13440	ds	0.573087431693989	0.0144898930571014
32	5	13664	ds	0.573846086337716	0.0100221048465707
33	5	13888	ds	0.582156461216249	0.0101707720623265
34	5	14112	ds	0.592202584325176	0.0114368311472025
35	5	14336	ds	0.565201476783639	0.0307437236663754
36	5	14560	ds	0.589619726479709	0.00115082523899689
37	5	14784	ds	0.594341571258659	0.0327083672152074
38	5	15008	ds	0.600225617338781	0.0192623474555241
39	5	15232	ds	0.612156862745098	0.0360485810016672
40	5	15456	ds	0.572343500797448	0.000810578945738112
41	5	15680	ds	0.559170460471989	0.0301814572726293
42	5	15904	ds	0.579718313249146	0.00127361140206657
43	5	16128	ds	0.553006487569121	0.0202954147323626
44	5	16352	ds	0.551043615789005	0.0392695339075154
45	5	16576	ds	0.587575124596892	0.00382212878279886
46	5	16800	ds	0.56774303331198	0.0266778795608618
47	5	17024	ds	0.561421345789007	0.0355460084796722
48	5	17248	ds	0.550439243430928	0.0143176916416684
49	5	17472	ds	0.566092242788015	0.0131001536053825
50	5	17696	ds	0.561739278916994	0.0168780610432946
51	5	17920	ds	0.596866401123747	0.0149791963556787
52	5	18144	ds	0.601436317106263	0.0317283023373411
53	5	18368	ds	0.546771832818344	0.031761732470926
54	5	18592	ds	0.576716738197425	0.0250370426814979
55	5	18816	ds	0.558524022379444	0.051011492429224
56	5	19040	ds	0.571260586648199	0.00243833442559531
57	5	19264	ds	0.605209142671599	0.0334558193179075
58	5	19488	ds	0.558983666061706	0.0232707857813358
59	5	19712	ds	0.579285469146819	0.0322651140090049
60	5	19936	ds	0.584384550847965	0.0272575320308172
61	5	20160	ds	0.537925248606878	0.023953375553079
62	5	20384	ds	0.600712635449546	0.0097330437812603
63	5	20608	ds	0.603984874927283	0.0100780198598432
64	5	20832	ds	0.588319561669731	0.00226089538892043
65	5	21056	ds	0.591201117318436	0.0124434992219979
66	5	21280	ds	0.537576102373248	0.00826079558129619
67	5	21504	ds	0.549450335969283	0.00839885254337086
68	5	21728	ds	0.569514634779875	0.0617711068265842
69	5	21952	ds	0.565584397082289	0.0129852496146208
70	5	22176	ds	0.574061536146844	0.0187242599095512
71	5	22400	ds	0.59782434554135	0.0309949718562978
72	5	22624	ds	0.521131135628665	0.0132181222028005
73	5	22848	ds	0.5432877837077	0.0660121150837339
74	5	23072	ds	0.611003241240932	0.0387026094681855
75	5	23296	ds	0.593918912431955	0.000475210732467213
76	5	23520	ds	0.591743753953194	0.0907504018470164
77	5	23744	ds	0.591821774489133	0.0518960503943473
78	5	23968	ds	0.543196862356023	0.0131978942525401
79	5	24192	ds	0.591515423587507	0.0153728723672314
80	5	24416	ds	0.570317159876254	0.00441727341616526
81	5	24640	ds	0.562457246328214	0.00747367907685599
82	5	24864	ds	0.598345553408359	0.0243318307629507
83	5	25088	ds	0.564816855467889	0.0382118796550759
84	5	25312	ds	0.576376731248055	0.0290948416375826
85	5	25536	ds	0.608062486266206	0.0339293731079344
86	5	25760	ds	0.589329214279387	0.0496161714099915
87	5	25984	ds	0.618932038834952	0.0686511438045192
88	5	26208	ds	0.633505449326133	0.0642280918662792
89	5	26432	ds	0.626147318223772	0.0809916814929469
90	5	26656	ds	0.668815059997396	0.0178856734672364
91	5	26880	ds	0.587888921198023	0.0617870275506128
