----------------------- Replay info ------------------------
map_name: "Abyssal Reef LE"
player_info {
  player_info {
    player_id: 1
    race_requested: Zerg
    race_actual: Zerg
  }
  player_result {
    player_id: 1
    result: Victory
  }
  player_mmr: 3130
  player_apm: 41
}
player_info {
  player_info {
    player_id: 2
    race_requested: Zerg
    race_actual: Zerg
  }
  player_result {
    player_id: 2
    result: Defeat
  }
  player_mmr: 3087
  player_apm: 74
}
game_duration_loops: 197
game_duration_seconds: 8.79525661469
game_version: "3.16.1.55958"
data_build: 55958
base_build: 55958
data_version: "5BD7C31B44525DAB46E64C4602A81DC2"

------------------------------------------------------------
score{
 score_type: Melee
score: 1115
score_details {
  idle_production_time: 38.4375
  idle_worker_time: 41.25
  total_value_units: 700.0
  total_value_structures: 300.0
  killed_value_units: 0.0
  killed_value_structures: 0.0
  collected_minerals: 15.0
  collected_vespene: 0.0
  collection_rate_minerals: 144.0
  collection_rate_vespene: 0.0
  spent_minerals: 50.0
  spent_vespene: 0.0
  food_used {
    none: 0.0
    army: 0.0
    economy: 13.0
    technology: 0.0
    upgrade: 0.0
  }
  killed_minerals {
    none: 0.0
    army: 0.0
    economy: 0.0
    technology: 0.0
    upgrade: 0.0
  }
  killed_vespene {
    none: 0.0
    army: 0.0
    economy: 0.0
    technology: 0.0
    upgrade: 0.0
  }
  lost_minerals {
    none: 0.0
    army: 0.0
    economy: 0.0
    technology: 0.0
    upgrade: 0.0
  }
  lost_vespene {
    none: 0.0
    army: 0.0
    economy: 0.0
    technology: 0.0
    upgrade: 0.0
  }
  friendly_fire_minerals {
    none: 0.0
    army: 0.0
    economy: 0.0
    technology: 0.0
    upgrade: 0.0
  }
  friendly_fire_vespene {
    none: 0.0
    army: 0.0
    economy: 0.0
    technology: 0.0
    upgrade: 0.0
  }
  used_minerals {
    none: 0.0
    army: 0.0
    economy: 1100.0
    technology: 0.0
    upgrade: 0.0
  }
  used_vespene {
    none: 0.0
    army: 0.0
    economy: 0.0
    technology: 0.0
    upgrade: 0.0
  }
  total_used_minerals {
    none: 0.0
    army: 0.0
    economy: 1050.0
    technology: 0.0
    upgrade: 0.0
  }
  total_used_vespene {
    none: 0.0
    army: 0.0
    economy: 0.0
    technology: 0.0
    upgrade: 0.0
  }
  total_damage_dealt {
    life: 0.0
    shields: 0.0
    energy: 0.0
  }
  total_damage_taken {
    life: 0.0
    shields: 0.0
    energy: 0.0
  }
  total_healed {
    life: 0.0
    shields: 0.0
    energy: 0.0
  }
}

player_common{
 player_id: 2
minerals: 15
vespene: 0
food_cap: 14
food_used: 13
food_army: 0
food_workers: 12
idle_worker_count: 12
army_count: 0
warp_gate_count: 0

game_loop:  197
ui_data{
 
Score:  1115
Result:  [player_id: 1
result: Victory
, player_id: 2
result: Defeat
]
