----------------------- Replay info ------------------------
map_name: "Mech Depot LE"
player_info {
  player_info {
    player_id: 1
    race_requested: Zerg
    race_actual: Zerg
  }
  player_result {
    player_id: 1
    result: Victory
  }
  player_mmr: 2670
  player_apm: 85
}
player_info {
  player_info {
    player_id: 2
    race_requested: Protoss
    race_actual: Protoss
  }
  player_result {
    player_id: 2
    result: Defeat
  }
  player_mmr: 2799
  player_apm: 71
}
game_duration_loops: 1880
game_duration_seconds: 83.934425354
game_version: "3.16.1.55958"
data_build: 55958
base_build: 55958
data_version: "5BD7C31B44525DAB46E64C4602A81DC2"

------------------------------------------------------------
score{
 score_type: Melee
score: 2129
score_details {
  idle_production_time: 236.125
  idle_worker_time: 2.3125
  total_value_units: 1150.0
  total_value_structures: 300.0
  killed_value_units: 0.0
  killed_value_structures: 0.0
  collected_minerals: 1035.0
  collected_vespene: 0.0
  collection_rate_minerals: 811.0
  collection_rate_vespene: 0.0
  spent_minerals: 756.0
  spent_vespene: 0.0
  food_used {
    none: 0.0
    army: 0.0
    economy: 17.0
    technology: 0.0
    upgrade: 0.0
  }
  killed_minerals {
    none: 0.0
    army: 0.0
    economy: 0.0
    technology: 0.0
    upgrade: 0.0
  }
  killed_vespene {
    none: 0.0
    army: 0.0
    economy: 0.0
    technology: 0.0
    upgrade: 0.0
  }
  lost_minerals {
    none: 0.0
    army: 0.0
    economy: -69.0
    technology: 0.0
    upgrade: 0.0
  }
  lost_vespene {
    none: 0.0
    army: 0.0
    economy: 0.0
    technology: 0.0
    upgrade: 0.0
  }
  friendly_fire_minerals {
    none: 0.0
    army: 0.0
    economy: 75.0
    technology: 0.0
    upgrade: 0.0
  }
  friendly_fire_vespene {
    none: 0.0
    army: 0.0
    economy: 0.0
    technology: 0.0
    upgrade: 0.0
  }
  used_minerals {
    none: 0.0
    army: 0.0
    economy: 1550.0
    technology: 250.0
    upgrade: 0.0
  }
  used_vespene {
    none: 0.0
    army: 0.0
    economy: 0.0
    technology: 0.0
    upgrade: 0.0
  }
  total_used_minerals {
    none: 0.0
    army: 0.0
    economy: 1500.0
    technology: 0.0
    upgrade: 0.0
  }
  total_used_vespene {
    none: 0.0
    army: 0.0
    economy: 0.0
    technology: 0.0
    upgrade: 0.0
  }
  total_damage_dealt {
    life: 0.0
    shields: 0.0
    energy: 0.0
  }
  total_damage_taken {
    life: 0.0
    shields: 0.0
    energy: 0.0
  }
  total_healed {
    life: 0.0
    shields: 0.0
    energy: 0.0
  }
}

player_common{
 player_id: 1
minerals: 329
vespene: 0
food_cap: 22
food_used: 17
food_army: 0
food_workers: 16
idle_worker_count: 0
army_count: 0
warp_gate_count: 0

game_loop:  1880
ui_data{
 groups {
  control_group_index: 4
  leader_unit_type: 86
  count: 1
}

Score:  2129
Result:  [player_id: 1
result: Victory
, player_id: 2
result: Defeat
]
