----------------------- Replay info ------------------------
map_name: "Ascension to Aiur LE"
player_info {
  player_info {
    player_id: 1
    race_requested: Protoss
    race_actual: Protoss
  }
  player_result {
    player_id: 1
    result: Defeat
  }
  player_mmr: 1929
  player_apm: 2
}
player_info {
  player_info {
    player_id: 2
    race_requested: Terran
    race_actual: Terran
  }
  player_result {
    player_id: 2
    result: Victory
  }
  player_mmr: 2595
  player_apm: 26
}
game_duration_loops: 1003
game_duration_seconds: 44.7799110413
game_version: "3.16.1.55958"
data_build: 55958
base_build: 55958
data_version: "5BD7C31B44525DAB46E64C4602A81DC2"

------------------------------------------------------------
score{
 score_type: Melee
score: 1500
score_details {
  idle_production_time: 13.5
  idle_worker_time: 0.875
  total_value_units: 700.0
  total_value_structures: 500.0
  killed_value_units: 0.0
  killed_value_structures: 0.0
  collected_minerals: 450.0
  collected_vespene: 0.0
  collection_rate_minerals: 671.0
  collection_rate_vespene: 0.0
  spent_minerals: 325.0
  spent_vespene: 0.0
  food_used {
    none: 0.0
    army: 0.0
    economy: 15.0
    technology: 0.0
    upgrade: 0.0
  }
  killed_minerals {
    none: 0.0
    army: 0.0
    economy: 0.0
    technology: 0.0
    upgrade: 0.0
  }
  killed_vespene {
    none: 0.0
    army: 0.0
    economy: 0.0
    technology: 0.0
    upgrade: 0.0
  }
  lost_minerals {
    none: 0.0
    army: 0.0
    economy: 0.0
    technology: 0.0
    upgrade: 0.0
  }
  lost_vespene {
    none: 0.0
    army: 0.0
    economy: 0.0
    technology: 0.0
    upgrade: 0.0
  }
  friendly_fire_minerals {
    none: 0.0
    army: 0.0
    economy: 0.0
    technology: 0.0
    upgrade: 0.0
  }
  friendly_fire_vespene {
    none: 0.0
    army: 0.0
    economy: 0.0
    technology: 0.0
    upgrade: 0.0
  }
  used_minerals {
    none: 0.0
    army: 0.0
    economy: 1325.0
    technology: 0.0
    upgrade: 0.0
  }
  used_vespene {
    none: 0.0
    army: 0.0
    economy: 0.0
    technology: 0.0
    upgrade: 0.0
  }
  total_used_minerals {
    none: 0.0
    army: 0.0
    economy: 1200.0
    technology: 0.0
    upgrade: 0.0
  }
  total_used_vespene {
    none: 0.0
    army: 0.0
    economy: 0.0
    technology: 0.0
    upgrade: 0.0
  }
  total_damage_dealt {
    life: 0.0
    shields: 0.0
    energy: 0.0
  }
  total_damage_taken {
    life: 0.0
    shields: 0.0
    energy: 0.0
  }
  total_healed {
    life: 0.0
    shields: 0.0
    energy: 0.0
  }
}

player_common{
 player_id: 2
minerals: 175
vespene: 0
food_cap: 23
food_used: 15
food_army: 0
food_workers: 14
idle_worker_count: 1
army_count: 0
warp_gate_count: 0

game_loop:  1003
ui_data{
 single {
  unit {
    unit_type: 45
    player_relative: 1
    health: 45
    shields: 0
    energy: 0
  }
}

Score:  1500
Result:  [player_id: 1
result: Defeat
, player_id: 2
result: Victory
]
