----------------------- Replay info ------------------------
map_name: "Catallena LE (Void)"
player_info {
  player_info {
    player_id: 1
    race_requested: Protoss
    race_actual: Protoss
  }
  player_result {
    player_id: 1
    result: Victory
  }
  player_mmr: 2692
  player_apm: 16
}
player_info {
  player_info {
    player_id: 2
    race_requested: Terran
    race_actual: Terran
  }
  player_result {
    player_id: 2
    result: Defeat
  }
  player_mmr: 2845
  player_apm: 44
}
game_duration_loops: 253
game_duration_seconds: 11.2954311371
game_version: "3.16.1.55958"
data_build: 55958
base_build: 55958
data_version: "5BD7C31B44525DAB46E64C4602A81DC2"

------------------------------------------------------------
score{
 score_type: Melee
score: 1065
score_details {
  idle_production_time: 6.0
  idle_worker_time: 0.0
  total_value_units: 600.0
  total_value_structures: 400.0
  killed_value_units: 0.0
  killed_value_structures: 0.0
  collected_minerals: 65.0
  collected_vespene: 0.0
  collection_rate_minerals: 363.0
  collection_rate_vespene: 0.0
  spent_minerals: 100.0
  spent_vespene: 0.0
  food_used {
    none: 0.0
    army: 0.0
    economy: 13.0
    technology: 0.0
    upgrade: 0.0
  }
  killed_minerals {
    none: 0.0
    army: 0.0
    economy: 0.0
    technology: 0.0
    upgrade: 0.0
  }
  killed_vespene {
    none: 0.0
    army: 0.0
    economy: 0.0
    technology: 0.0
    upgrade: 0.0
  }
  lost_minerals {
    none: 0.0
    army: 0.0
    economy: 0.0
    technology: 0.0
    upgrade: 0.0
  }
  lost_vespene {
    none: 0.0
    army: 0.0
    economy: 0.0
    technology: 0.0
    upgrade: 0.0
  }
  friendly_fire_minerals {
    none: 0.0
    army: 0.0
    economy: 0.0
    technology: 0.0
    upgrade: 0.0
  }
  friendly_fire_vespene {
    none: 0.0
    army: 0.0
    economy: 0.0
    technology: 0.0
    upgrade: 0.0
  }
  used_minerals {
    none: 0.0
    army: 0.0
    economy: 1050.0
    technology: 0.0
    upgrade: 0.0
  }
  used_vespene {
    none: 0.0
    army: 0.0
    economy: 0.0
    technology: 0.0
    upgrade: 0.0
  }
  total_used_minerals {
    none: 0.0
    army: 0.0
    economy: 1000.0
    technology: 0.0
    upgrade: 0.0
  }
  total_used_vespene {
    none: 0.0
    army: 0.0
    economy: 0.0
    technology: 0.0
    upgrade: 0.0
  }
  total_damage_dealt {
    life: 0.0
    shields: 0.0
    energy: 0.0
  }
  total_damage_taken {
    life: 0.0
    shields: 0.0
    energy: 0.0
  }
  total_healed {
    life: 0.0
    shields: 0.0
    energy: 0.0
  }
}

player_common{
 player_id: 1
minerals: 15
vespene: 0
food_cap: 15
food_used: 13
food_army: 0
food_workers: 12
idle_worker_count: 0
army_count: 0
warp_gate_count: 0

game_loop:  253
ui_data{
 production {
  unit {
    unit_type: 59
    player_relative: 1
    health: 1000
    shields: 1000
    energy: 0
  }
  build_queue {
    unit_type: 84
    build_progress: 0.663730382919
  }
  build_queue {
    unit_type: 84
    build_progress: 0.0
  }
}

Score:  1065
Result:  [player_id: 1
result: Victory
, player_id: 2
result: Defeat
]
