----------------------- Replay info ------------------------
map_name: "Mech Depot LE"
player_info {
  player_info {
    player_id: 1
    race_requested: Zerg
    race_actual: Zerg
  }
  player_result {
    player_id: 1
    result: Defeat
  }
  player_mmr: 5091
  player_apm: 173
}
player_info {
  player_info {
    player_id: 2
    race_requested: Terran
    race_actual: Terran
  }
  player_result {
    player_id: 2
    result: Victory
  }
  player_mmr: 5650
  player_apm: 211
}
game_duration_loops: 3459
game_duration_seconds: 154.430419922
game_version: "3.16.1.55958"
data_build: 55958
base_build: 55958
data_version: "5BD7C31B44525DAB46E64C4602A81DC2"

------------------------------------------------------------
score{
 score_type: Melee
score: 3392
score_details {
  idle_production_time: 430.75
  idle_worker_time: 0.0
  total_value_units: 1700.0
  total_value_structures: 825.0
  killed_value_units: 0.0
  killed_value_structures: 0.0
  collected_minerals: 2100.0
  collected_vespene: 192.0
  collection_rate_minerals: 1035.0
  collection_rate_vespene: 111.0
  spent_minerals: 1975.0
  spent_vespene: 100.0
  food_used {
    none: 0.0
    army: 7.0
    economy: 22.0
    technology: 0.0
    upgrade: 0.0
  }
  killed_minerals {
    none: 0.0
    army: 0.0
    economy: 0.0
    technology: 0.0
    upgrade: 0.0
  }
  killed_vespene {
    none: 0.0
    army: 0.0
    economy: 0.0
    technology: 0.0
    upgrade: 0.0
  }
  lost_minerals {
    none: 0.0
    army: 0.0
    economy: 0.0
    technology: 0.0
    upgrade: 0.0
  }
  lost_vespene {
    none: 0.0
    army: 0.0
    economy: 0.0
    technology: 0.0
    upgrade: 0.0
  }
  friendly_fire_minerals {
    none: 0.0
    army: 0.0
    economy: 0.0
    technology: 0.0
    upgrade: 0.0
  }
  friendly_fire_vespene {
    none: 0.0
    army: 0.0
    economy: 0.0
    technology: 0.0
    upgrade: 0.0
  }
  used_minerals {
    none: 0.0
    army: 500.0
    economy: 2175.0
    technology: 250.0
    upgrade: 100.0
  }
  used_vespene {
    none: 0.0
    army: 0.0
    economy: 0.0
    technology: 0.0
    upgrade: 100.0
  }
  total_used_minerals {
    none: 0.0
    army: 200.0
    economy: 2275.0
    technology: 250.0
    upgrade: 0.0
  }
  total_used_vespene {
    none: 0.0
    army: 0.0
    economy: 0.0
    technology: 0.0
    upgrade: 0.0
  }
  total_damage_dealt {
    life: 0.0
    shields: 0.0
    energy: 0.0
  }
  total_damage_taken {
    life: 45.0
    shields: 0.0
    energy: 0.0
  }
  total_healed {
    life: 0.0
    shields: 0.0
    energy: 0.0
  }
}

player_common{
 player_id: 1
minerals: 175
vespene: 92
food_cap: 36
food_used: 29
food_army: 7
food_workers: 21
idle_worker_count: 0
army_count: 2
warp_gate_count: 0

game_loop:  3459
ui_data{
 multi {
  units {
    unit_type: 86
    player_relative: 1
    health: 1500
    shields: 0
    energy: 0
  }
  units {
    unit_type: 86
    player_relative: 1
    health: 1456
    shields: 0
    energy: 0
  }
}

Score:  3392
Result:  [player_id: 1
result: Defeat
, player_id: 2
result: Victory
]
